{"links":{"next":null,"previous":"https://rules.nivabupa.com/api/v1/hospital_rater/get_hospital_list/?city=Patna&format=json&page=2"},"count":72,"total_pages":3,"results":[{"id":21238,"provider_id":"48167","name":"CNS Hospital Pvt. Ltd.","address":"8/1 Patliputra Industrial Estate, Patliputra","city":"Patna","state":"Bihar","postal_code":800013,"logo":"https://rules.nivabupa.com/media/default_hospital.svg","latitude":25.632231,"longitude":85.103748,"beds_count":"61","email_id":"info@cnshospital.co.in","website":"http://www.cnshospital.co.in/","ppn_available":false,"doctors_count":"26","rating":0,"avg_rating":0,"review_count":1,"rating_count":1,"reviews":"120","accreditions":"NABH Entry Level","treatment_cost":"NA","customer_expense":"NA","stay_duration":"12","primary_phone":"0612-2270330","additional_phone":"7544014501","last_updated_at":"2021-01-11 00:00:00","ppn_benefits":{"ppn_spoc_phone_no":null,"nbhi_non_payable_waiver":null,"discount_on_opd_consultation":null,"discount_on_opd_investigation":null,"discount_on_health_check_up":null,"free_ambulance":null,"ppn_spoc_name":null},"poc":null,"ir":null},{"id":22012,"provider_id":"59588","name":"Raj Retina and Eye Care Centre Pvt Ltd.","address":"East Patel Nagar Road No-08.H.No-25, Near Gandhi Murti","city":"Patna","state":"Bihar","postal_code":800023,"logo":"https://rules.nivabupa.com/media/default_hospital.svg","latitude":25.61695,"longitude":85.10303,"beds_count":"10","email_id":"rrecc14@gmail.com","website":null,"ppn_available":false,"doctors_count":"6","rating":0,"avg_rating":0,"review_count":"NA","rating_count":"NA","reviews":"120","accreditions":"NA","treatment_cost":"NA","customer_expense":"NA","stay_duration":"2","primary_phone":"7677703166","additional_phone":"8102483331","last_updated_at":"2021-05-07 00:00:00","ppn_benefits":{"ppn_spoc_phone_no":null,"nbhi_non_payable_waiver":null,"discount_on_opd_consultation":null,"discount_on_opd_investigation":null,"discount_on_health_check_up":null,"free_ambulance":null,"ppn_spoc_name":null},"poc":null,"ir":null},{"id":22029,"provider_id":"59632","name":"Netaji Subhas Medical College and Hospital","address":"A - 1, Biada Industrial Development Park, Amhara Bihta","city":"Patna","state":"Bihar","postal_code":801106,"logo":"https://rules.nivabupa.com/media/default_hospital.svg","latitude":25.54121,"longitude":84.8572,"beds_count":"401","email_id":"nsmch.tpa@nsmch.com","website":null,"ppn_available":false,"doctors_count":"165","rating":0,"avg_rating":0,"review_count":"NA","rating_count":"NA","reviews":"120","accreditions":"NA","treatment_cost":"NA","customer_expense":"NA","stay_duration":"4","primary_phone":"7632812940","additional_phone":"7632812940","last_updated_at":"2021-03-31 00:00:00","ppn_benefits":{"ppn_spoc_phone_no":null,"nbhi_non_payable_waiver":null,"discount_on_opd_consultation":null,"discount_on_opd_investigation":null,"discount_on_health_check_up":null,"free_ambulance":null,"ppn_spoc_name":null},"poc":null,"ir":null},{"id":23551,"provider_id":"67098","name":"Chandigarh Eye Care","address":"2H/102 Opposite Shani Mandir Bhootnath Road, B. H Colony","city":"Patna","state":"Bihar","postal_code":800026,"logo":"https://rules.nivabupa.com/media/default_hospital.svg","latitude":25.59372,"longitude":85.17337,"beds_count":"10","email_id":"chandigarheyecare@gmail.com","website":"http://www.chandigarheyecare.com/","ppn_available":false,"doctors_count":"4","rating":0,"avg_rating":0,"review_count":"NA","rating_count":"NA","reviews":"120","accreditions":"NA","treatment_cost":"NA","customer_expense":"NA","stay_duration":"NA","primary_phone":"9955771675","additional_phone":"9955771675","last_updated_at":"2021-01-05 00:00:00","ppn_benefits":{"ppn_spoc_phone_no":null,"nbhi_non_payable_waiver":null,"discount_on_opd_consultation":null,"discount_on_opd_investigation":null,"discount_on_health_check_up":null,"free_ambulance":null,"ppn_spoc_name":null},"poc":null,"ir":null},{"id":23642,"provider_id":"67390","name":"M.M Hospital and Research Center Pvt. Ltd.","address":"8/M/5 90 Fit Main Road Vijay Nagar B.H.Colony Kankarbagh","city":"Patna","state":"Bihar","postal_code":800026,"logo":"https://rules.nivabupa.com/media/default_hospital.svg","latitude":25.58918,"longitude":85.1682,"beds_count":"25","email_id":"kumardockr@yahoo.com","website":null,"ppn_available":false,"doctors_count":"20","rating":0,"avg_rating":0,"review_count":"NA","rating_count":"NA","reviews":"120","accreditions":"NA","treatment_cost":"NA","customer_expense":"NA","stay_duration":"NA","primary_phone":"8969516050","additional_phone":"8969516050","last_updated_at":"2021-01-15 00:00:00","ppn_benefits":{"ppn_spoc_phone_no":null,"nbhi_non_payable_waiver":null,"discount_on_opd_consultation":null,"discount_on_opd_investigation":null,"discount_on_health_check_up":null,"free_ambulance":null,"ppn_spoc_name":null},"poc":null,"ir":null},{"id":26361,"provider_id":"88206","name":"Nayanjyoti Eye Clinic","address":"Shivaji Chowk Ramkrishnanagar","city":"Patna","state":"Bihar","postal_code":800027,"logo":"https://rules.nivabupa.com/media/default_hospital.svg","latitude":null,"longitude":null,"beds_count":"10","email_id":"drsdshrikar@gmail.com","website":null,"ppn_available":false,"doctors_count":"2","rating":0,"avg_rating":0,"review_count":"NA","rating_count":"NA","reviews":"120","accreditions":"NA","treatment_cost":"NA","customer_expense":"NA","stay_duration":"NA","primary_phone":"0612-3564401","additional_phone":"9973279420","last_updated_at":"2022-03-28 00:00:00","ppn_benefits":{"ppn_spoc_phone_no":null,"nbhi_non_payable_waiver":null,"discount_on_opd_consultation":null,"discount_on_opd_investigation":null,"discount_on_health_check_up":null,"free_ambulance":null,"ppn_spoc_name":null},"poc":null,"ir":null},{"id":23725,"provider_id":"67710","name":"Mediversal Multi Super Speciality Hospital","address":"Ds/6 Lohianagar Doctor'S Colony Kankarbagh","city":"Patna","state":"Bihar","postal_code":800020,"logo":"https://rules.nivabupa.com/media/default_hospital.svg","latitude":25.59772,"longitude":85.15747,"beds_count":"100","email_id":"rajat@mediversal.in","website":null,"ppn_available":false,"doctors_count":"14","rating":0,"avg_rating":0,"review_count":14,"rating_count":14,"reviews":"120","accreditions":"NABH Entry Level","treatment_cost":"15,000-20,000","customer_expense":"NA","stay_duration":"5","primary_phone":"9433209437","additional_phone":"8102921295","last_updated_at":"2021-01-18 00:00:00","ppn_benefits":{"ppn_spoc_phone_no":null,"nbhi_non_payable_waiver":null,"discount_on_opd_consultation":null,"discount_on_opd_investigation":null,"discount_on_health_check_up":null,"free_ambulance":null,"ppn_spoc_name":null},"poc":null,"ir":null},{"id":19798,"provider_id":"32181","name":"City Hospital Patna","address":"Maurya Path, Khajpura","city":"Patna","state":"Bihar","postal_code":800014,"logo":"https://rules.nivabupa.com/media/default_hospital.svg","latitude":25.577716,"longitude":85.069901,"beds_count":"25","email_id":"cityhospitalpatna14@gmail.com","website":null,"ppn_available":false,"doctors_count":"11","rating":0,"avg_rating":0,"review_count":"NA","rating_count":"NA","reviews":"120","accreditions":"NA","treatment_cost":"NA","customer_expense":"NA","stay_duration":"NA","primary_phone":"0612-2590187","additional_phone":"9771884622","last_updated_at":"2021-07-20 00:00:00","ppn_benefits":{"ppn_spoc_phone_no":null,"nbhi_non_payable_waiver":null,"discount_on_opd_consultation":null,"discount_on_opd_investigation":null,"discount_on_health_check_up":null,"free_ambulance":null,"ppn_spoc_name":null},"poc":null,"ir":null},{"id":19054,"provider_id":"26163","name":"Shri Sai Hospital Patna","address":"Ds/2 Kankerbagh Behind Geological Survey Of Ind","city":"Patna","state":"Bihar","postal_code":800020,"logo":"https://rules.nivabupa.com/media/default_hospital.svg","latitude":25.599193,"longitude":85.157222,"beds_count":"80","email_id":"shrisaihospitalpatna@gmail.com","website":"http://www.shrisaihospital.in/","ppn_available":false,"doctors_count":"34","rating":0,"avg_rating":0,"review_count":1,"rating_count":1,"reviews":"120","accreditions":"NABH Entry Level","treatment_cost":"NA","customer_expense":"NA","stay_duration":"8","primary_phone":"0612-236023","additional_phone":"0612-236023","last_updated_at":"2021-07-20 00:00:00","ppn_benefits":{"ppn_spoc_phone_no":null,"nbhi_non_payable_waiver":null,"discount_on_opd_consultation":null,"discount_on_opd_investigation":null,"discount_on_health_check_up":null,"free_ambulance":null,"ppn_spoc_name":null},"poc":null,"ir":null},{"id":22499,"provider_id":"62492","name":"Shri Sai Hospital (Heart Unit)","address":"E-143, Doctors Colony South Of Malahi Pakari Chowk, Kankarbag","city":"Patna","state":"Bihar","postal_code":800020,"logo":"https://rules.nivabupa.com/media/default_hospital.svg","latitude":25.59933,"longitude":85.15721,"beds_count":"40","email_id":"ssh.heartunit@gmail.com","website":"http://www.shrisaihospital.in/","ppn_available":false,"doctors_count":"12","rating":0,"avg_rating":0,"review_count":2,"rating_count":2,"reviews":"120","accreditions":"NABH Entry Level","treatment_cost":"NA","customer_expense":"NA","stay_duration":"6","primary_phone":"7549776543","additional_phone":"9102882222","last_updated_at":"2021-04-05 00:00:00","ppn_benefits":{"ppn_spoc_phone_no":null,"nbhi_non_payable_waiver":null,"discount_on_opd_consultation":null,"discount_on_opd_investigation":null,"discount_on_health_check_up":null,"free_ambulance":null,"ppn_spoc_name":null},"poc":null,"ir":null},{"id":20260,"provider_id":"34404","name":"Chanakya Hospital","address":"N-7 Patarkar Nagar, Kankarbagh, Patna","city":"Patna","state":"Bihar","postal_code":800020,"logo":"https://rules.nivabupa.com/media/default_hospital.svg","latitude":25.600316,"longitude":85.156129,"beds_count":"40","email_id":"chanakyahospitalpatna20@gmail.com","website":null,"ppn_available":false,"doctors_count":"17","rating":0,"avg_rating":0,"review_count":"NA","rating_count":"NA","reviews":"120","accreditions":"NA","treatment_cost":"NA","customer_expense":"NA","stay_duration":"NA","primary_phone":"0612-2360542","additional_phone":"9835889994","last_updated_at":"2021-03-31 00:00:00","ppn_benefits":{"ppn_spoc_phone_no":null,"nbhi_non_payable_waiver":null,"discount_on_opd_consultation":null,"discount_on_opd_investigation":null,"discount_on_health_check_up":null,"free_ambulance":null,"ppn_spoc_name":null},"poc":null,"ir":null},{"id":47319,"provider_id":"102222","name":"Vision Eye Care And Laser Centre ","address":"129 E, Patliputra Colony,","city":"Patna","state":"Bihar","postal_code":800013,"logo":"https://rules.nivabupa.com/media/default_hospital.svg","latitude":null,"longitude":null,"beds_count":"NA","email_id":"visionlasercentre@gmail.com","website":null,"ppn_available":false,"doctors_count":"NA","rating":0,"avg_rating":1,"review_count":"NA","rating_count":"NA","reviews":"120","accreditions":"NA","treatment_cost":"NA","customer_expense":"NA","stay_duration":"NA","primary_phone":"0612-3596288","additional_phone":"9386374229","last_updated_at":"NA","ppn_benefits":{"ppn_spoc_phone_no":null,"nbhi_non_payable_waiver":null,"discount_on_opd_consultation":null,"discount_on_opd_investigation":null,"discount_on_health_check_up":null,"free_ambulance":null,"ppn_spoc_name":null},"poc":null,"ir":null}]}