{"links":{"next":null,"previous":"https://rules.nivabupa.com/api/v1/hospital_rater/get_hospital_list/?city=Guntur&format=json&page=3"},"count":110,"total_pages":4,"results":[{"id":19579,"provider_id":"31089","name":"NRI General Hospital","address":"(A Unit Of Nri Academy Of Sciences) Chinakakani, Mangalagiri Mandal, Guntur","city":"Guntur","state":"Andhra Pradesh","postal_code":522503,"logo":"https://rules.nivabupa.com/media/default_hospital.svg","latitude":16.41539,"longitude":80.557056,"beds_count":"950","email_id":"insurance@nrias.net","website":"http://www.nrias.net/","ppn_available":false,"doctors_count":"390","rating":0,"avg_rating":0,"review_count":"NA","rating_count":"NA","reviews":"120","accreditions":"NABH Higher Level","treatment_cost":"NA","customer_expense":"NA","stay_duration":"NA","primary_phone":"0864-5236777","additional_phone":"8645236777","last_updated_at":"2021-03-31 00:00:00","ppn_benefits":{"ppn_spoc_phone_no":null,"nbhi_non_payable_waiver":null,"discount_on_opd_consultation":null,"discount_on_opd_investigation":null,"discount_on_health_check_up":null,"free_ambulance":null,"ppn_spoc_name":null},"poc":null,"ir":null},{"id":19573,"provider_id":"31077","name":"Aruna Hospital Guntur","address":"7-5-86 Prakasam Road, Tenali H.O","city":"Guntur","state":"Andhra Pradesh","postal_code":522201,"logo":"https://rules.nivabupa.com/media/default_hospital.svg","latitude":16.29516,"longitude":80.45003,"beds_count":"20","email_id":"arunahospital.tenali@gmail.com","website":null,"ppn_available":false,"doctors_count":"2","rating":0,"avg_rating":0,"review_count":"NA","rating_count":"NA","reviews":"120","accreditions":"NA","treatment_cost":"NA","customer_expense":"NA","stay_duration":"NA","primary_phone":"0864-4226315","additional_phone":"8331943515","last_updated_at":"2021-01-28 00:00:00","ppn_benefits":{"ppn_spoc_phone_no":null,"nbhi_non_payable_waiver":null,"discount_on_opd_consultation":null,"discount_on_opd_investigation":null,"discount_on_health_check_up":null,"free_ambulance":null,"ppn_spoc_name":null},"poc":null,"ir":null},{"id":25310,"provider_id":"79533","name":"Ravindra Multi Speciality Hospital","address":"# 12-19-44 Beside Max Diagnostic Center Old Bank Road Kothapet Guntur - 1","city":"Guntur","state":"Andhra Pradesh","postal_code":522001,"logo":"https://rules.nivabupa.com/media/default_hospital.svg","latitude":0,"longitude":0,"beds_count":"50","email_id":"hospitalravindramultispecialit@gmail.com","website":null,"ppn_available":false,"doctors_count":"15","rating":0,"avg_rating":0,"review_count":"NA","rating_count":"NA","reviews":"120","accreditions":"NA","treatment_cost":"NA","customer_expense":"NA","stay_duration":"NA","primary_phone":"0863-2223888","additional_phone":"9676787525","last_updated_at":"2021-10-12 00:00:00","ppn_benefits":{"ppn_spoc_phone_no":null,"nbhi_non_payable_waiver":null,"discount_on_opd_consultation":null,"discount_on_opd_investigation":null,"discount_on_health_check_up":null,"free_ambulance":null,"ppn_spoc_name":null},"poc":null,"ir":null},{"id":25327,"provider_id":"79679","name":"J V M Hospital Guntur","address":"3-14-74 Javvaji Venkata Narasaiah Memorial Mother & Child Hospital Nehru Road Tenali","city":"Guntur","state":"Andhra Pradesh","postal_code":522201,"logo":"https://rules.nivabupa.com/media/default_hospital.svg","latitude":0,"longitude":0,"beds_count":"50","email_id":"jvmhospital@gmail.com","website":null,"ppn_available":false,"doctors_count":"2","rating":0,"avg_rating":0,"review_count":"NA","rating_count":"NA","reviews":"120","accreditions":"NABH Entry Level","treatment_cost":"NA","customer_expense":"NA","stay_duration":"NA","primary_phone":"0864-4222213","additional_phone":"7989505852","last_updated_at":"2021-10-14 00:00:00","ppn_benefits":{"ppn_spoc_phone_no":null,"nbhi_non_payable_waiver":null,"discount_on_opd_consultation":null,"discount_on_opd_investigation":null,"discount_on_health_check_up":null,"free_ambulance":null,"ppn_spoc_name":null},"poc":null,"ir":null},{"id":20996,"provider_id":"46605","name":"Mallika Spine Centre","address":"D.No.12-12-30, Beside Andhra Bank, Old Club Road, Kothaper","city":"Guntur","state":"Andhra Pradesh","postal_code":522001,"logo":"https://rules.nivabupa.com/media/default_hospital.svg","latitude":16.298845,"longitude":80.452892,"beds_count":"50","email_id":"mallikaspinecentregnt@gmail.com","website":null,"ppn_available":false,"doctors_count":"25","rating":0,"avg_rating":0,"review_count":"NA","rating_count":"NA","reviews":"120","accreditions":"NA","treatment_cost":"NA","customer_expense":"NA","stay_duration":"3","primary_phone":"0863-2251600","additional_phone":"8632251600","last_updated_at":"2021-07-20 00:00:00","ppn_benefits":{"ppn_spoc_phone_no":null,"nbhi_non_payable_waiver":null,"discount_on_opd_consultation":null,"discount_on_opd_investigation":null,"discount_on_health_check_up":null,"free_ambulance":null,"ppn_spoc_name":null},"poc":null,"ir":null},{"id":20997,"provider_id":"46619","name":"Sri Datta Super Speciality Hospitals","address":"Beside Town Hall, Prakash Nagar, Narasaraopeta","city":"Guntur","state":"Andhra Pradesh","postal_code":522601,"logo":"https://rules.nivabupa.com/media/default_hospital.svg","latitude":16.302811,"longitude":80.448122,"beds_count":"100","email_id":"sridattahospitaltpa@gmail.com","website":null,"ppn_available":false,"doctors_count":"5","rating":0,"avg_rating":0,"review_count":"NA","rating_count":"NA","reviews":"120","accreditions":"NABH Entry Level","treatment_cost":"NA","customer_expense":"NA","stay_duration":"NA","primary_phone":"0864-7231309","additional_phone":"8647231309","last_updated_at":"2021-01-21 00:00:00","ppn_benefits":{"ppn_spoc_phone_no":null,"nbhi_non_payable_waiver":null,"discount_on_opd_consultation":null,"discount_on_opd_investigation":null,"discount_on_health_check_up":null,"free_ambulance":null,"ppn_spoc_name":null},"poc":null,"ir":null},{"id":20999,"provider_id":"46623","name":"Swathi Multi Speciality Hospital","address":"D.No.12-25-127, Opp.Vijaya Talkies, Kothapet","city":"Guntur","state":"Andhra Pradesh","postal_code":522001,"logo":"https://rules.nivabupa.com/media/default_hospital.svg","latitude":16.29591,"longitude":80.449055,"beds_count":"60","email_id":"swathimultispecialtyhospital@gmail.com","website":null,"ppn_available":false,"doctors_count":"25","rating":0,"avg_rating":0,"review_count":"NA","rating_count":"NA","reviews":"120","accreditions":"NA","treatment_cost":"NA","customer_expense":"NA","stay_duration":"NA","primary_phone":"0863-2355722","additional_phone":"7799644490","last_updated_at":"2021-03-31 00:00:00","ppn_benefits":{"ppn_spoc_phone_no":null,"nbhi_non_payable_waiver":null,"discount_on_opd_consultation":null,"discount_on_opd_investigation":null,"discount_on_health_check_up":null,"free_ambulance":null,"ppn_spoc_name":null},"poc":null,"ir":null},{"id":21000,"provider_id":"46624","name":"Nagarjuna Eye Hospital","address":"Opp.Chinna Mazid, Sbi Road, Sattenapalli","city":"Guntur","state":"Andhra Pradesh","postal_code":522403,"logo":"https://rules.nivabupa.com/media/default_hospital.svg","latitude":16.296698,"longitude":80.449437,"beds_count":"10","email_id":"nagarjunaeyehospitalap@gmail.com","website":null,"ppn_available":false,"doctors_count":"5","rating":0,"avg_rating":0,"review_count":"NA","rating_count":"NA","reviews":"120","accreditions":"NA","treatment_cost":"NA","customer_expense":"NA","stay_duration":"NA","primary_phone":"0864-1232030","additional_phone":"8641232030","last_updated_at":"2021-07-20 00:00:00","ppn_benefits":{"ppn_spoc_phone_no":null,"nbhi_non_payable_waiver":null,"discount_on_opd_consultation":null,"discount_on_opd_investigation":null,"discount_on_health_check_up":null,"free_ambulance":null,"ppn_spoc_name":null},"poc":null,"ir":null},{"id":21076,"provider_id":"47081","name":"Veeraiah Chowdary Ortho Truma & Multi Speciality Hospital","address":"Over Bridge Entrance, Vinukonda Road, Narasaraopet","city":"Guntur","state":"Andhra Pradesh","postal_code":522601,"logo":"https://rules.nivabupa.com/media/default_hospital.svg","latitude":16.230463,"longitude":80.052709,"beds_count":"50","email_id":"veeraiahchaudaryhospital@gmail.com","website":null,"ppn_available":false,"doctors_count":"23","rating":0,"avg_rating":0,"review_count":"NA","rating_count":"NA","reviews":"120","accreditions":"NA","treatment_cost":"NA","customer_expense":"NA","stay_duration":"NA","primary_phone":"0864-7231333","additional_phone":"8647231333","last_updated_at":"2021-01-25 00:00:00","ppn_benefits":{"ppn_spoc_phone_no":null,"nbhi_non_payable_waiver":null,"discount_on_opd_consultation":null,"discount_on_opd_investigation":null,"discount_on_health_check_up":null,"free_ambulance":null,"ppn_spoc_name":null},"poc":null,"ir":null},{"id":21079,"provider_id":"47090","name":"Geetha Multi Speciality Hospital","address":"Old Bus Stand Road, Beside Hdfc Bank, Sattenapalli","city":"Guntur","state":"Andhra Pradesh","postal_code":522403,"logo":"https://rules.nivabupa.com/media/default_hospital.svg","latitude":17.447083,"longitude":78.508242,"beds_count":"50","email_id":"geethamultispecialityhospital@gmail.com","website":null,"ppn_available":false,"doctors_count":"25","rating":0,"avg_rating":0,"review_count":"NA","rating_count":"NA","reviews":"120","accreditions":"NA","treatment_cost":"NA","customer_expense":"NA","stay_duration":"NA","primary_phone":"0864-1233988","additional_phone":"8886443979","last_updated_at":"2021-03-31 00:00:00","ppn_benefits":{"ppn_spoc_phone_no":null,"nbhi_non_payable_waiver":null,"discount_on_opd_consultation":null,"discount_on_opd_investigation":null,"discount_on_health_check_up":null,"free_ambulance":null,"ppn_spoc_name":null},"poc":null,"ir":null},{"id":21064,"provider_id":"47033","name":"Sree Prathima Super Speciality Hospital","address":"# 12-11-648, 1St Lane Ramireddy Thota, Beside Of Manipuram Bridge, Near Guntur Bus Stop","city":"Guntur","state":"Andhra Pradesh","postal_code":522001,"logo":"https://rules.nivabupa.com/media/default_hospital.svg","latitude":16.298857,"longitude":80.456567,"beds_count":"50","email_id":"sreeprathimahospital@gmail.com","website":"http://www.sreeprathimahospital.com/","ppn_available":false,"doctors_count":"25","rating":0,"avg_rating":0,"review_count":"NA","rating_count":"NA","reviews":"120","accreditions":"NABH Entry Level","treatment_cost":"NA","customer_expense":"NA","stay_duration":"11","primary_phone":"0863-2353255","additional_phone":"8897973796","last_updated_at":"2021-03-31 00:00:00","ppn_benefits":{"ppn_spoc_phone_no":null,"nbhi_non_payable_waiver":null,"discount_on_opd_consultation":null,"discount_on_opd_investigation":null,"discount_on_health_check_up":null,"free_ambulance":null,"ppn_spoc_name":null},"poc":null,"ir":null},{"id":21082,"provider_id":"47122","name":"Mother Teresa Hospital.","address":"Mekavari Street, Opp: R & B Bulding, Near Bus Stand, Repalle","city":"Guntur","state":"Andhra Pradesh","postal_code":522265,"logo":"https://rules.nivabupa.com/media/default_hospital.svg","latitude":16.236923,"longitude":80.047355,"beds_count":"50","email_id":"motherteresahospital7@gmail.com","website":null,"ppn_available":false,"doctors_count":"23","rating":0,"avg_rating":0,"review_count":"NA","rating_count":"NA","reviews":"120","accreditions":"NA","treatment_cost":"NA","customer_expense":"NA","stay_duration":"NA","primary_phone":"0864-8222699","additional_phone":"8048222699","last_updated_at":"2021-03-31 00:00:00","ppn_benefits":{"ppn_spoc_phone_no":null,"nbhi_non_payable_waiver":null,"discount_on_opd_consultation":null,"discount_on_opd_investigation":null,"discount_on_health_check_up":null,"free_ambulance":null,"ppn_spoc_name":null},"poc":null,"ir":null},{"id":21083,"provider_id":"47123","name":"Sri Vasudha Hospitals","address":"Near: D S Kalyana Mandapam, Kothapet","city":"Guntur","state":"Andhra Pradesh","postal_code":522001,"logo":"https://rules.nivabupa.com/media/default_hospital.svg","latitude":16.29816,"longitude":80.450784,"beds_count":"50","email_id":"vasudhahospitals@gmail.com","website":null,"ppn_available":false,"doctors_count":"25","rating":0,"avg_rating":0,"review_count":"NA","rating_count":"NA","reviews":"120","accreditions":"NA","treatment_cost":"NA","customer_expense":"NA","stay_duration":"NA","primary_phone":"0863-2329762","additional_phone":"9100639674","last_updated_at":"2021-03-31 00:00:00","ppn_benefits":{"ppn_spoc_phone_no":null,"nbhi_non_payable_waiver":null,"discount_on_opd_consultation":null,"discount_on_opd_investigation":null,"discount_on_health_check_up":null,"free_ambulance":null,"ppn_spoc_name":null},"poc":null,"ir":null},{"id":21328,"provider_id":"48865","name":"Meghana Hospital","address":"Ngo'S Home Centre, Near Chinna Mazid, Sattenapalli","city":"Guntur","state":"Andhra Pradesh","postal_code":522403,"logo":"https://rules.nivabupa.com/media/default_hospital.svg","latitude":16.296468,"longitude":80.4509,"beds_count":"50","email_id":"meghanahospitalap@gmail.com","website":null,"ppn_available":false,"doctors_count":"25","rating":0,"avg_rating":0,"review_count":"NA","rating_count":"NA","reviews":"120","accreditions":"NA","treatment_cost":"NA","customer_expense":"NA","stay_duration":"NA","primary_phone":"0864-1233699","additional_phone":"9949187173","last_updated_at":"2021-03-31 00:00:00","ppn_benefits":{"ppn_spoc_phone_no":null,"nbhi_non_payable_waiver":null,"discount_on_opd_consultation":null,"discount_on_opd_investigation":null,"discount_on_health_check_up":null,"free_ambulance":null,"ppn_spoc_name":null},"poc":null,"ir":null},{"id":25717,"provider_id":"83053","name":"Jayathi Hospitals","address":"Door No -13-8-168 169 Opp.Apsrtc Bus Stand Old Club Road Kothapeta","city":"Guntur","state":"Andhra Pradesh","postal_code":522001,"logo":"https://rules.nivabupa.com/media/default_hospital.svg","latitude":0,"longitude":0,"beds_count":"50","email_id":"jayathihospitals99@gmail.com","website":null,"ppn_available":false,"doctors_count":"12","rating":0,"avg_rating":0,"review_count":"NA","rating_count":"NA","reviews":"120","accreditions":"NA","treatment_cost":"NA","customer_expense":"NA","stay_duration":"NA","primary_phone":"0863-2325434","additional_phone":"9866109001","last_updated_at":"2021-12-22 00:00:00","ppn_benefits":{"ppn_spoc_phone_no":null,"nbhi_non_payable_waiver":null,"discount_on_opd_consultation":null,"discount_on_opd_investigation":null,"discount_on_health_check_up":null,"free_ambulance":null,"ppn_spoc_name":null},"poc":null,"ir":null},{"id":26000,"provider_id":"85170","name":"Dr.Ramesh Cardiac and Multispecialty Hospital Pvt. Ltd.","address":"Collector Office Road Nagaram Palem","city":"Guntur","state":"Andhra Pradesh","postal_code":522004,"logo":"https://rules.nivabupa.com/media/default_hospital.svg","latitude":0,"longitude":0,"beds_count":"350","email_id":"lakshmidevik@rameshhospitals.com","website":"http://www.rameshhospitals.com/","ppn_available":false,"doctors_count":"62","rating":0,"avg_rating":0,"review_count":2,"rating_count":2,"reviews":"120","accreditions":"NABH Higher Level","treatment_cost":"NA","customer_expense":"NA","stay_duration":"NA","primary_phone":"8187035999","additional_phone":"8187035999","last_updated_at":"2022-01-28 00:00:00","ppn_benefits":{"ppn_spoc_phone_no":null,"nbhi_non_payable_waiver":null,"discount_on_opd_consultation":null,"discount_on_opd_investigation":null,"discount_on_health_check_up":null,"free_ambulance":null,"ppn_spoc_name":null},"poc":null,"ir":null},{"id":18982,"provider_id":"24717","name":"Coastal Care Hospital","address":"8Th Lane Gunturivarithota, Old Club Road, Opp Rtc Bus Stand, Kothapet","city":"Guntur","state":"Andhra Pradesh","postal_code":522001,"logo":"https://rules.nivabupa.com/media/default_hospital.svg","latitude":16.300673,"longitude":80.447585,"beds_count":"100","email_id":"coastalcarehospital@gmail.com","website":null,"ppn_available":false,"doctors_count":"35","rating":0,"avg_rating":0,"review_count":"NA","rating_count":"NA","reviews":"120","accreditions":"NABH Entry Level","treatment_cost":"NA","customer_expense":"NA","stay_duration":"0","primary_phone":"0863-2233377","additional_phone":"8632233377","last_updated_at":"2021-03-31 00:00:00","ppn_benefits":{"ppn_spoc_phone_no":null,"nbhi_non_payable_waiver":null,"discount_on_opd_consultation":null,"discount_on_opd_investigation":null,"discount_on_health_check_up":null,"free_ambulance":null,"ppn_spoc_name":null},"poc":null,"ir":null},{"id":47663,"provider_id":"103355","name":"Dr. Ramalinga Reddy Maxivision Eye Hospitals Private Limited ","address":"No: 16-2-166, Guntur Road, Near Pedda Masjid","city":"Guntur","state":"Andhra Pradesh","postal_code":522601,"logo":"https://rules.nivabupa.com/media/default_hospital.svg","latitude":null,"longitude":null,"beds_count":"NA","email_id":"empanelment@maxivisioneyehospital.com","website":null,"ppn_available":false,"doctors_count":"NA","rating":0,"avg_rating":1,"review_count":"NA","rating_count":"NA","reviews":"120","accreditions":"NA","treatment_cost":"NA","customer_expense":"NA","stay_duration":"NA","primary_phone":"7799557724","additional_phone":null,"last_updated_at":"NA","ppn_benefits":{"ppn_spoc_phone_no":null,"nbhi_non_payable_waiver":null,"discount_on_opd_consultation":null,"discount_on_opd_investigation":null,"discount_on_health_check_up":null,"free_ambulance":null,"ppn_spoc_name":null},"poc":null,"ir":null},{"id":47190,"provider_id":"102332","name":"Mamatha Hospital","address":"D.No. 2-2-23, Gandhi Nagar, Tenali","city":"Guntur","state":"Andhra Pradesh","postal_code":522201,"logo":"https://rules.nivabupa.com/media/default_hospital.svg","latitude":null,"longitude":null,"beds_count":"NA","email_id":"drevuru@gmail.com","website":null,"ppn_available":false,"doctors_count":"NA","rating":0,"avg_rating":1,"review_count":"NA","rating_count":"NA","reviews":"120","accreditions":"NA","treatment_cost":"NA","customer_expense":"NA","stay_duration":"NA","primary_phone":"08644-239999","additional_phone":"9676453999","last_updated_at":"NA","ppn_benefits":{"ppn_spoc_phone_no":null,"nbhi_non_payable_waiver":null,"discount_on_opd_consultation":null,"discount_on_opd_investigation":null,"discount_on_health_check_up":null,"free_ambulance":null,"ppn_spoc_name":null},"poc":null,"ir":null},{"id":47466,"provider_id":"103464","name":"Peoples Trauma And Emergency Hospital","address":"# 13-4-78, Old Culb Road, Kothapeta","city":"Guntur","state":"Andhra Pradesh","postal_code":522001,"logo":"https://rules.nivabupa.com/media/default_hospital.svg","latitude":null,"longitude":null,"beds_count":"NA","email_id":"peopleacco@gmail.com","website":null,"ppn_available":false,"doctors_count":"NA","rating":0,"avg_rating":1,"review_count":"NA","rating_count":"NA","reviews":"120","accreditions":"NA","treatment_cost":"NA","customer_expense":"NA","stay_duration":"NA","primary_phone":"0863-2220038","additional_phone":"9885393763","last_updated_at":"NA","ppn_benefits":{"ppn_spoc_phone_no":null,"nbhi_non_payable_waiver":null,"discount_on_opd_consultation":null,"discount_on_opd_investigation":null,"discount_on_health_check_up":null,"free_ambulance":null,"ppn_spoc_name":null},"poc":null,"ir":null}]}