{"links":{"next":null,"previous":"https://rules.nivabupa.com/api/v1/hospital_rater/get_hospital_list/?city=KRISHNA&format=json&page=2"},"count":87,"total_pages":3,"results":[{"id":26163,"provider_id":"86669","name":"Ravi Hospital - Vijayawada","address":"D.No. 29-28/1-24 Near Swathi Office Kovelamudi Vari Street Suryaraopet Vijayawada","city":"Krishna","state":"Andhra Pradesh","postal_code":520002,"logo":"https://rules.nivabupa.com/media/default_hospital.svg","latitude":null,"longitude":null,"beds_count":"70","email_id":"ravihospitals123@gamil.com","website":null,"ppn_available":false,"doctors_count":"13","rating":0,"avg_rating":0,"review_count":1,"rating_count":1,"reviews":"120","accreditions":"NA","treatment_cost":"NA","customer_expense":"NA","stay_duration":"NA","primary_phone":"8881838888","additional_phone":"8885218888","last_updated_at":"2022-02-25 00:00:00","ppn_benefits":{"ppn_spoc_phone_no":null,"nbhi_non_payable_waiver":null,"discount_on_opd_consultation":null,"discount_on_opd_investigation":null,"discount_on_health_check_up":null,"free_ambulance":null,"ppn_spoc_name":null},"poc":null,"ir":null},{"id":26180,"provider_id":"86725","name":"SVD Multispeciality Hospitals","address":"#32-210A Rama Rao Street Mahu Gardens, Moghalrajpuram Vijayawada","city":"Krishna","state":"Andhra Pradesh","postal_code":520010,"logo":"https://rules.nivabupa.com/media/default_hospital.svg","latitude":null,"longitude":null,"beds_count":"20","email_id":"svdhospital3@gmail.com","website":null,"ppn_available":false,"doctors_count":"6","rating":0,"avg_rating":0,"review_count":"NA","rating_count":"NA","reviews":"120","accreditions":"NA","treatment_cost":"NA","customer_expense":"NA","stay_duration":"NA","primary_phone":"8662474445","additional_phone":"9494202490","last_updated_at":"2022-02-26 00:00:00","ppn_benefits":{"ppn_spoc_phone_no":null,"nbhi_non_payable_waiver":null,"discount_on_opd_consultation":null,"discount_on_opd_investigation":null,"discount_on_health_check_up":null,"free_ambulance":null,"ppn_spoc_name":null},"poc":null,"ir":null},{"id":26230,"provider_id":"87416","name":"Bhargav Kidney Care and Multi Speciality Hospital","address":"29-10-43 Narasimha Naidu Street Nakkal Road Suryraopet Vijayawada","city":"Krishna","state":"Andhra Pradesh","postal_code":520002,"logo":"https://rules.nivabupa.com/media/default_hospital.svg","latitude":null,"longitude":null,"beds_count":"50","email_id":"bhargavkidneycare7677@gmail.com","website":null,"ppn_available":false,"doctors_count":"13","rating":0,"avg_rating":0,"review_count":"NA","rating_count":"NA","reviews":"120","accreditions":"NA","treatment_cost":"NA","customer_expense":"NA","stay_duration":"NA","primary_phone":"7675097677","additional_phone":"7675007677","last_updated_at":"2022-03-14 00:00:00","ppn_benefits":{"ppn_spoc_phone_no":null,"nbhi_non_payable_waiver":null,"discount_on_opd_consultation":null,"discount_on_opd_investigation":null,"discount_on_health_check_up":null,"free_ambulance":null,"ppn_spoc_name":null},"poc":null,"ir":null},{"id":18782,"provider_id":"22299","name":"Vasan Eye Care Hospital Vijayawada","address":"29-14-44 Prakasam Road Suryaraopet","city":"Krishna","state":"Andhra Pradesh","postal_code":520002,"logo":"https://rules.nivabupa.com/media/default_hospital.svg","latitude":16.50965,"longitude":80.63681,"beds_count":"39","email_id":"recovery.tpa@vasaneye.in","website":"http://vasaneye.com/","ppn_available":false,"doctors_count":"21","rating":0,"avg_rating":0,"review_count":2,"rating_count":2,"reviews":"120","accreditions":"NA","treatment_cost":"NA","customer_expense":"NA","stay_duration":"0","primary_phone":"8663989000","additional_phone":"8663989000","last_updated_at":"2021-03-31 00:00:00","ppn_benefits":{"ppn_spoc_phone_no":null,"nbhi_non_payable_waiver":null,"discount_on_opd_consultation":null,"discount_on_opd_investigation":null,"discount_on_health_check_up":null,"free_ambulance":null,"ppn_spoc_name":null},"poc":null,"ir":null},{"id":20795,"provider_id":"44997","name":"andhra Hospital Machilipatnam","address":"4/124& 125 Rajupeta, Machilipatnam","city":"Krishna","state":"Andhra Pradesh","postal_code":521001,"logo":"https://rules.nivabupa.com/media/default_hospital.svg","latitude":16.175849,"longitude":81.125001,"beds_count":"100","email_id":"ravimillesurg@gmail.com","website":null,"ppn_available":false,"doctors_count":"35","rating":0,"avg_rating":0,"review_count":"NA","rating_count":"NA","reviews":"120","accreditions":"NA","treatment_cost":"NA","customer_expense":"NA","stay_duration":"NA","primary_phone":"8466996856","additional_phone":"8466996852","last_updated_at":"2021-03-31 00:00:00","ppn_benefits":{"ppn_spoc_phone_no":null,"nbhi_non_payable_waiver":null,"discount_on_opd_consultation":null,"discount_on_opd_investigation":null,"discount_on_health_check_up":null,"free_ambulance":null,"ppn_spoc_name":null},"poc":null,"ir":null},{"id":20796,"provider_id":"44999","name":"K K Hospital.","address":"D.No: 32-2D/1-3A Prajasakthi Nagar, Mogalrajpuram, Near Metro Super Market, Vijayawada","city":"Krishna","state":"Andhra Pradesh","postal_code":520010,"logo":"https://rules.nivabupa.com/media/default_hospital.svg","latitude":16.509781,"longitude":80.642519,"beds_count":"50","email_id":"kkhospitals2016@gmail.com","website":null,"ppn_available":false,"doctors_count":"25","rating":0,"avg_rating":0,"review_count":"NA","rating_count":"NA","reviews":"120","accreditions":"NA","treatment_cost":"NA","customer_expense":"NA","stay_duration":"NA","primary_phone":"8666465771","additional_phone":"8666465771","last_updated_at":"2021-03-31 00:00:00","ppn_benefits":{"ppn_spoc_phone_no":null,"nbhi_non_payable_waiver":null,"discount_on_opd_consultation":null,"discount_on_opd_investigation":null,"discount_on_health_check_up":null,"free_ambulance":null,"ppn_spoc_name":null},"poc":null,"ir":null},{"id":21205,"provider_id":"47941","name":"Giridhar ENT Hospital and Laser Centre","address":"# 29-8-39, Chilku Durgaya Street, Nakkal Road, Suryaraopet; Vijayawada","city":"Krishna","state":"Andhra Pradesh","postal_code":520002,"logo":"https://rules.nivabupa.com/media/default_hospital.svg","latitude":16.513387,"longitude":80.634109,"beds_count":"24","email_id":"giridharenthospital@gmail.com","website":null,"ppn_available":false,"doctors_count":"2","rating":0,"avg_rating":0,"review_count":"NA","rating_count":"NA","reviews":"120","accreditions":"NABH Entry Level","treatment_cost":"NA","customer_expense":"NA","stay_duration":"2","primary_phone":"8662435194","additional_phone":"9949077769","last_updated_at":"2021-04-26 00:00:00","ppn_benefits":{"ppn_spoc_phone_no":null,"nbhi_non_payable_waiver":null,"discount_on_opd_consultation":null,"discount_on_opd_investigation":null,"discount_on_health_check_up":null,"free_ambulance":null,"ppn_spoc_name":null},"poc":null,"ir":null},{"id":21203,"provider_id":"47931","name":"Surapaneni Eye Hospital","address":"D.No.40-9-10/2, Sai Nagar, Near Benz Circle","city":"Krishna","state":"Andhra Pradesh","postal_code":520008,"logo":"https://rules.nivabupa.com/media/default_hospital.svg","latitude":16.50027,"longitude":80.654589,"beds_count":"34","email_id":"surapanenieyehospital@yahoo.in","website":null,"ppn_available":false,"doctors_count":"18","rating":0,"avg_rating":0,"review_count":"NA","rating_count":"NA","reviews":"120","accreditions":"NA","treatment_cost":"NA","customer_expense":"NA","stay_duration":"NA","primary_phone":"8662473454","additional_phone":"9848798509","last_updated_at":"2021-03-31 00:00:00","ppn_benefits":{"ppn_spoc_phone_no":null,"nbhi_non_payable_waiver":null,"discount_on_opd_consultation":null,"discount_on_opd_investigation":null,"discount_on_health_check_up":null,"free_ambulance":null,"ppn_spoc_name":null},"poc":null,"ir":null},{"id":21202,"provider_id":"47930","name":"Ravella Eye Hospital","address":"H.No: 29-6-38, Suryaraopet, Opp.Central Bank, Nakkala Road","city":"Krishna","state":"Andhra Pradesh","postal_code":520002,"logo":"https://rules.nivabupa.com/media/default_hospital.svg","latitude":16.51147,"longitude":80.6306,"beds_count":"22","email_id":"ravellaeyehospital@gmail.com","website":null,"ppn_available":false,"doctors_count":"12","rating":0,"avg_rating":0,"review_count":"NA","rating_count":"NA","reviews":"120","accreditions":"NA","treatment_cost":"NA","customer_expense":"NA","stay_duration":"NA","primary_phone":"8662439008","additional_phone":"9397870365","last_updated_at":"2021-03-31 00:00:00","ppn_benefits":{"ppn_spoc_phone_no":null,"nbhi_non_payable_waiver":null,"discount_on_opd_consultation":null,"discount_on_opd_investigation":null,"discount_on_health_check_up":null,"free_ambulance":null,"ppn_spoc_name":null},"poc":null,"ir":null},{"id":25485,"provider_id":"80994","name":"Beleaf Hosptials","address":"#29-26-60 Jagadamavari Street Suryaraopet","city":"Krishna","state":"Andhra Pradesh","postal_code":520002,"logo":"https://rules.nivabupa.com/media/default_hospital.svg","latitude":0,"longitude":0,"beds_count":"50","email_id":"bh.acc777@gmail.com","website":null,"ppn_available":false,"doctors_count":"5","rating":0,"avg_rating":0,"review_count":"NA","rating_count":"NA","reviews":"120","accreditions":"NA","treatment_cost":"NA","customer_expense":"NA","stay_duration":"NA","primary_phone":"8663500210","additional_phone":"7013244487","last_updated_at":"2021-11-11 00:00:00","ppn_benefits":{"ppn_spoc_phone_no":null,"nbhi_non_payable_waiver":null,"discount_on_opd_consultation":null,"discount_on_opd_investigation":null,"discount_on_health_check_up":null,"free_ambulance":null,"ppn_spoc_name":null},"poc":null,"ir":null},{"id":25543,"provider_id":"81368","name":"Topstars Hospitals Pvt. Ltd.","address":"#10-35 Bundar Road Kanuru, Vijayawada","city":"Krishna","state":"Andhra Pradesh","postal_code":520007,"logo":"https://rules.nivabupa.com/media/default_hospital.svg","latitude":0,"longitude":0,"beds_count":"150","email_id":"cashless.topstars@gmail.com","website":"http://www.topstarshospitals.com/","ppn_available":false,"doctors_count":"20","rating":0,"avg_rating":0,"review_count":1,"rating_count":1,"reviews":"120","accreditions":"NA","treatment_cost":"NA","customer_expense":"NA","stay_duration":"NA","primary_phone":"8886718181","additional_phone":"7793922253","last_updated_at":"2021-11-19 00:00:00","ppn_benefits":{"ppn_spoc_phone_no":null,"nbhi_non_payable_waiver":null,"discount_on_opd_consultation":null,"discount_on_opd_investigation":null,"discount_on_health_check_up":null,"free_ambulance":null,"ppn_spoc_name":null},"poc":null,"ir":null},{"id":25583,"provider_id":"81654","name":"KMR Universal Hospital","address":"Nh-65 D.No.4-22/1 Beside Maruthi Car Showroom Raithupeta Nandigama","city":"Krishna","state":"Andhra Pradesh","postal_code":521185,"logo":"https://rules.nivabupa.com/media/default_hospital.svg","latitude":0,"longitude":0,"beds_count":"100","email_id":"kmruniversalhospital@gamil.com","website":null,"ppn_available":false,"doctors_count":"20","rating":0,"avg_rating":0,"review_count":"NA","rating_count":"NA","reviews":"120","accreditions":"NA","treatment_cost":"NA","customer_expense":"NA","stay_duration":"NA","primary_phone":"8678294678","additional_phone":"9059106677","last_updated_at":"2021-11-24 00:00:00","ppn_benefits":{"ppn_spoc_phone_no":null,"nbhi_non_payable_waiver":null,"discount_on_opd_consultation":null,"discount_on_opd_investigation":null,"discount_on_health_check_up":null,"free_ambulance":null,"ppn_spoc_name":null},"poc":null,"ir":null},{"id":19615,"provider_id":"31302","name":"Vijay Orthopaedic & Accident Care","address":"#29-5-7 Cherukupalli Vari Street, Near Sapthagiri College, Governerpet, Vijayawada","city":"Krishna","state":"Andhra Pradesh","postal_code":520002,"logo":"https://rules.nivabupa.com/media/default_hospital.svg","latitude":16.506238,"longitude":80.648014,"beds_count":"50","email_id":"vijayorthovza@gmail.com","website":null,"ppn_available":false,"doctors_count":"15","rating":0,"avg_rating":0,"review_count":"NA","rating_count":"NA","reviews":"120","accreditions":"NABH Entry Level","treatment_cost":"NA","customer_expense":"NA","stay_duration":"NA","primary_phone":"8666633108","additional_phone":"8666633108","last_updated_at":"2021-02-22 00:00:00","ppn_benefits":{"ppn_spoc_phone_no":null,"nbhi_non_payable_waiver":null,"discount_on_opd_consultation":null,"discount_on_opd_investigation":null,"discount_on_health_check_up":null,"free_ambulance":null,"ppn_spoc_name":null},"poc":null,"ir":null},{"id":25417,"provider_id":"80316","name":"Gayatri Super Speciality Hospital","address":"D.No. 27-31-7 Opp.Raghavaiah Park M.G. Road Governorpet","city":"Krishna","state":"Andhra Pradesh","postal_code":520002,"logo":"https://rules.nivabupa.com/media/default_hospital.svg","latitude":0,"longitude":0,"beds_count":"100","email_id":"gayatrisuperspecialityhospital@gmail.com","website":null,"ppn_available":false,"doctors_count":"10","rating":0,"avg_rating":0,"review_count":"NA","rating_count":"NA","reviews":"120","accreditions":"NA","treatment_cost":"NA","customer_expense":"NA","stay_duration":"NA","primary_phone":"8662499899","additional_phone":"9948390949","last_updated_at":"2021-10-27 00:00:00","ppn_benefits":{"ppn_spoc_phone_no":null,"nbhi_non_payable_waiver":null,"discount_on_opd_consultation":null,"discount_on_opd_investigation":null,"discount_on_health_check_up":null,"free_ambulance":null,"ppn_spoc_name":null},"poc":null,"ir":null},{"id":20419,"provider_id":"37600","name":"Sateesh Gastro & Liver Centre","address":"29-14-37 5 Route, Prakasam Road, Suryaraopet, Vijayawada","city":"Krishna","state":"Andhra Pradesh","postal_code":520002,"logo":"https://rules.nivabupa.com/media/default_hospital.svg","latitude":16.509889,"longitude":80.635466,"beds_count":"50","email_id":"sateeshglc@gmail.com","website":null,"ppn_available":false,"doctors_count":"25","rating":0,"avg_rating":0,"review_count":"NA","rating_count":"NA","reviews":"120","accreditions":"NA","treatment_cost":"NA","customer_expense":"NA","stay_duration":"NA","primary_phone":"8442442348","additional_phone":"7799039044","last_updated_at":"2021-03-31 00:00:00","ppn_benefits":{"ppn_spoc_phone_no":null,"nbhi_non_payable_waiver":null,"discount_on_opd_consultation":null,"discount_on_opd_investigation":null,"discount_on_health_check_up":null,"free_ambulance":null,"ppn_spoc_name":null},"poc":null,"ir":null},{"id":20422,"provider_id":"37754","name":"Liberty Hospitals","address":"74-1-2 King Square Complex, Opp: Autonagar Bus Terminal, Mg Road Patamata, Vijayawada","city":"Krishna","state":"Andhra Pradesh","postal_code":520007,"logo":"https://rules.nivabupa.com/media/default_hospital.svg","latitude":16.48993,"longitude":80.671548,"beds_count":"100","email_id":"libertyhospitals.1@gmail.com","website":"http://www.libertyhospitals.com/","ppn_available":false,"doctors_count":"42","rating":0,"avg_rating":0,"review_count":"NA","rating_count":"NA","reviews":"120","accreditions":"NA","treatment_cost":"NA","customer_expense":"NA","stay_duration":"NA","primary_phone":"8666664333","additional_phone":"8666664333","last_updated_at":"2021-01-18 00:00:00","ppn_benefits":{"ppn_spoc_phone_no":null,"nbhi_non_payable_waiver":null,"discount_on_opd_consultation":null,"discount_on_opd_investigation":null,"discount_on_health_check_up":null,"free_ambulance":null,"ppn_spoc_name":null},"poc":null,"ir":null},{"id":26182,"provider_id":"86727","name":"City Neuro Center","address":"D No.29-14/41/1 Kalleswara Rao Road, Near Pushpa Hotel Suryaraopet","city":"Krishna","state":"Andhra Pradesh","postal_code":520002,"logo":"https://rules.nivabupa.com/media/default_hospital.svg","latitude":null,"longitude":null,"beds_count":"56","email_id":"cityneurohospitals@gmail.com","website":null,"ppn_available":false,"doctors_count":"5","rating":0,"avg_rating":0,"review_count":"NA","rating_count":"NA","reviews":"120","accreditions":"NA","treatment_cost":"NA","customer_expense":"NA","stay_duration":"NA","primary_phone":"8662432066","additional_phone":"8522916606","last_updated_at":"2022-02-26 00:00:00","ppn_benefits":{"ppn_spoc_phone_no":null,"nbhi_non_payable_waiver":null,"discount_on_opd_consultation":null,"discount_on_opd_investigation":null,"discount_on_health_check_up":null,"free_ambulance":null,"ppn_spoc_name":null},"poc":null,"ir":null},{"id":26324,"provider_id":"88013","name":"Manvi Hospitals LLP","address":"D No. 29-12-43 Venkataratnam Street 4Th Line, Nakkala Road Suryaraopet","city":"Krishna","state":"Andhra Pradesh","postal_code":520002,"logo":"https://rules.nivabupa.com/media/default_hospital.svg","latitude":null,"longitude":null,"beds_count":"50","email_id":"manvihospitalcashless@gmail.com","website":null,"ppn_available":false,"doctors_count":"22","rating":0,"avg_rating":0,"review_count":"NA","rating_count":"NA","reviews":"120","accreditions":"NA","treatment_cost":"NA","customer_expense":"NA","stay_duration":"NA","primary_phone":"8662438999","additional_phone":"9381695467","last_updated_at":"2022-03-25 00:00:00","ppn_benefits":{"ppn_spoc_phone_no":null,"nbhi_non_payable_waiver":null,"discount_on_opd_consultation":null,"discount_on_opd_investigation":null,"discount_on_health_check_up":null,"free_ambulance":null,"ppn_spoc_name":null},"poc":null,"ir":null},{"id":26346,"provider_id":"88164","name":"Sri Bhavani Hospital - Vijayawada","address":"# 75-7-29 Nagarjuna Street Bhavanipuram Vijayawada","city":"Krishna","state":"Andhra Pradesh","postal_code":520012,"logo":"https://rules.nivabupa.com/media/default_hospital.svg","latitude":null,"longitude":null,"beds_count":"100","email_id":"sribhavanihospitalinsurance@gmail.com","website":null,"ppn_available":false,"doctors_count":"5","rating":0,"avg_rating":0,"review_count":"NA","rating_count":"NA","reviews":"120","accreditions":"NA","treatment_cost":"NA","customer_expense":"NA","stay_duration":"NA","primary_phone":"8662411499","additional_phone":"6281041702","last_updated_at":"2022-03-28 00:00:00","ppn_benefits":{"ppn_spoc_phone_no":null,"nbhi_non_payable_waiver":null,"discount_on_opd_consultation":null,"discount_on_opd_investigation":null,"discount_on_health_check_up":null,"free_ambulance":null,"ppn_spoc_name":null},"poc":null,"ir":null},{"id":26469,"provider_id":"89525","name":"Aarogya Hospitals","address":"#25/163 Opp. Idbi Bank Junction Road Nuzvidu","city":"Krishna","state":"Andhra Pradesh","postal_code":521201,"logo":"https://rules.nivabupa.com/media/default_hospital.svg","latitude":null,"longitude":null,"beds_count":"NA","email_id":"aarogyainsurance2021@gmail.com","website":null,"ppn_available":false,"doctors_count":"NA","rating":0,"avg_rating":0,"review_count":"NA","rating_count":"NA","reviews":"120","accreditions":"NA","treatment_cost":"NA","customer_expense":"NA","stay_duration":"NA","primary_phone":"8656233399","additional_phone":"9160808090","last_updated_at":"NA","ppn_benefits":{"ppn_spoc_phone_no":null,"nbhi_non_payable_waiver":null,"discount_on_opd_consultation":null,"discount_on_opd_investigation":null,"discount_on_health_check_up":null,"free_ambulance":null,"ppn_spoc_name":null},"poc":null,"ir":null},{"id":26470,"provider_id":"89548","name":"Lakshmi Sandhya Health Care Pvt.Ltd.","address":"29-13-90 Kaleswararao Road Suryarapet Vijayawada","city":"Krishna","state":"Andhra Pradesh","postal_code":520004,"logo":"https://rules.nivabupa.com/media/default_hospital.svg","latitude":null,"longitude":null,"beds_count":"NA","email_id":"sandhyahealthcare22@gmail.com","website":null,"ppn_available":false,"doctors_count":"NA","rating":0,"avg_rating":0,"review_count":"NA","rating_count":"NA","reviews":"120","accreditions":"NA","treatment_cost":"NA","customer_expense":"NA","stay_duration":"NA","primary_phone":"9692899999","additional_phone":"9692899999","last_updated_at":"NA","ppn_benefits":{"ppn_spoc_phone_no":null,"nbhi_non_payable_waiver":null,"discount_on_opd_consultation":null,"discount_on_opd_investigation":null,"discount_on_health_check_up":null,"free_ambulance":null,"ppn_spoc_name":null},"poc":null,"ir":null},{"id":47558,"provider_id":"103475","name":"Maxi Vision Eye Hospital Pvt Ltd","address":"H No. 40-1-48, Sri Krishna Sai Bhavan, Opposite- Hotel Dv Manor, Mg Road, Labbipet, Vijayawada","city":"Krishna","state":"Andhra Pradesh","postal_code":520010,"logo":"https://rules.nivabupa.com/media/default_hospital.svg","latitude":null,"longitude":null,"beds_count":"NA","email_id":"insurance@maxivisioneyehospital.com","website":"https://www.maxivisioneyehospital.com/","ppn_available":false,"doctors_count":"NA","rating":0,"avg_rating":1,"review_count":"NA","rating_count":"NA","reviews":"120","accreditions":"NA","treatment_cost":"NA","customer_expense":"NA","stay_duration":"NA","primary_phone":"9390035972","additional_phone":null,"last_updated_at":"NA","ppn_benefits":{"ppn_spoc_phone_no":null,"nbhi_non_payable_waiver":null,"discount_on_opd_consultation":null,"discount_on_opd_investigation":null,"discount_on_health_check_up":null,"free_ambulance":null,"ppn_spoc_name":null},"poc":null,"ir":null},{"id":47460,"provider_id":"103436","name":"Isha Multispeciality Hospital","address":"H.No:22-51/2, Yarlagadda Mallikarjuna Gari Veedhi, Kakani Nagar, Chanderlapadu Road, Nandigama","city":"Krishna","state":"Andhra Pradesh","postal_code":521185,"logo":"https://rules.nivabupa.com/media/default_hospital.svg","latitude":null,"longitude":null,"beds_count":"NA","email_id":"ishamultispecialityhospital.in@gmail.com","website":"http://www.ishamultispecilityhospital.com/","ppn_available":false,"doctors_count":"NA","rating":0,"avg_rating":1,"review_count":"NA","rating_count":"NA","reviews":"120","accreditions":"NA","treatment_cost":"NA","customer_expense":"NA","stay_duration":"NA","primary_phone":"9888174444","additional_phone":"9989365119","last_updated_at":"NA","ppn_benefits":{"ppn_spoc_phone_no":null,"nbhi_non_payable_waiver":null,"discount_on_opd_consultation":null,"discount_on_opd_investigation":null,"discount_on_health_check_up":null,"free_ambulance":null,"ppn_spoc_name":null},"poc":null,"ir":null},{"id":47412,"provider_id":"103116","name":"Akkineni Womens Hospitals Pvt Ltd","address":"#54-20/10-12, Srinagar Colony, Bharathi Nagar Service Road, Vijayawada, Ntr District","city":"Krishna","state":"Andhra Pradesh","postal_code":520008,"logo":"https://rules.nivabupa.com/media/default_hospital.svg","latitude":null,"longitude":null,"beds_count":"NA","email_id":"awhinsurance@awhospital.in","website":null,"ppn_available":false,"doctors_count":"NA","rating":0,"avg_rating":1,"review_count":"NA","rating_count":"NA","reviews":"120","accreditions":"NA","treatment_cost":"NA","customer_expense":"NA","stay_duration":"NA","primary_phone":"0866-2955589","additional_phone":"9703132607","last_updated_at":"NA","ppn_benefits":{"ppn_spoc_phone_no":null,"nbhi_non_payable_waiver":null,"discount_on_opd_consultation":null,"discount_on_opd_investigation":null,"discount_on_health_check_up":null,"free_ambulance":null,"ppn_spoc_name":null},"poc":null,"ir":null},{"id":47294,"provider_id":"102453","name":"Dr. Agarwals Eye Hospital Ltd - Vijayawada","address":"27-37-62, Opposite Raghavaiah Park, Mg Road, Governerpet, Vijaywada","city":"Krishna","state":"Andhra Pradesh","postal_code":520010,"logo":"https://rules.nivabupa.com/media/default_hospital.svg","latitude":null,"longitude":null,"beds_count":"NA","email_id":"vijayawada@dragarwal.com","website":"https://www.dragarwal.com/","ppn_available":false,"doctors_count":"NA","rating":0,"avg_rating":1,"review_count":"NA","rating_count":"NA","reviews":"120","accreditions":"NA","treatment_cost":"NA","customer_expense":"NA","stay_duration":"NA","primary_phone":"044-39916600","additional_phone":"9444448621","last_updated_at":"NA","ppn_benefits":{"ppn_spoc_phone_no":null,"nbhi_non_payable_waiver":null,"discount_on_opd_consultation":null,"discount_on_opd_investigation":null,"discount_on_health_check_up":null,"free_ambulance":null,"ppn_spoc_name":null},"poc":null,"ir":null},{"id":47187,"provider_id":"102320","name":"Venkatrama Hospitals","address":"Javvarpet, Machilipatnam","city":"Krishna","state":"Andhra Pradesh","postal_code":521001,"logo":"https://rules.nivabupa.com/media/default_hospital.svg","latitude":null,"longitude":null,"beds_count":"NA","email_id":"venkatramahospitals2018@gmail.com","website":null,"ppn_available":false,"doctors_count":"NA","rating":0,"avg_rating":1,"review_count":"NA","rating_count":"NA","reviews":"120","accreditions":"NA","treatment_cost":"NA","customer_expense":"NA","stay_duration":"NA","primary_phone":"8099569999","additional_phone":null,"last_updated_at":"NA","ppn_benefits":{"ppn_spoc_phone_no":null,"nbhi_non_payable_waiver":null,"discount_on_opd_consultation":null,"discount_on_opd_investigation":null,"discount_on_health_check_up":null,"free_ambulance":null,"ppn_spoc_name":null},"poc":null,"ir":null},{"id":47413,"provider_id":"103119","name":"AIMS For Child Health","address":"#29-23-31/1,Tadepalli Vari Street, Dornakal Road, Opp Andhra Bank, Surayaopet, Vijayawada","city":"Krishna","state":"Andhra Pradesh","postal_code":520002,"logo":"https://rules.nivabupa.com/media/default_hospital.svg","latitude":null,"longitude":null,"beds_count":"NA","email_id":"aimscashless@gmail.com","website":null,"ppn_available":false,"doctors_count":"NA","rating":0,"avg_rating":1,"review_count":"NA","rating_count":"NA","reviews":"120","accreditions":"NA","treatment_cost":"NA","customer_expense":"NA","stay_duration":"NA","primary_phone":"0866-2437969","additional_phone":"9440260155","last_updated_at":"NA","ppn_benefits":{"ppn_spoc_phone_no":null,"nbhi_non_payable_waiver":null,"discount_on_opd_consultation":null,"discount_on_opd_investigation":null,"discount_on_health_check_up":null,"free_ambulance":null,"ppn_spoc_name":null},"poc":null,"ir":null}]}