{"links":{"next":null,"previous":"https://rules.nivabupa.com/api/v1/hospital_rater/get_hospital_list/?city=Ahmed+Nagar&format=json&page=2"},"count":85,"total_pages":3,"results":[{"id":24934,"provider_id":"76584","name":"Balaji Pediatric and Dental Hospital","address":"Old Pathak Hospital Opp Bedekar Classes, Ghumare Galli","city":"Ahmed Nagar","state":"Maharashtra","postal_code":414001,"logo":"https://rules.nivabupa.com/media/default_hospital.svg","latitude":19.09489,"longitude":74.73809,"beds_count":"35","email_id":"mediclaim.balajihospital@gmail.com","website":null,"ppn_available":false,"doctors_count":"12","rating":0,"avg_rating":0,"review_count":1,"rating_count":1,"reviews":"120","accreditions":"NABH Entry Level","treatment_cost":"NA","customer_expense":"NA","stay_duration":"NA","primary_phone":"9096446697","additional_phone":"9096446697","last_updated_at":"2021-08-16 00:00:00","ppn_benefits":{"ppn_spoc_phone_no":null,"nbhi_non_payable_waiver":null,"discount_on_opd_consultation":null,"discount_on_opd_investigation":null,"discount_on_health_check_up":null,"free_ambulance":null,"ppn_spoc_name":null},"poc":null,"ir":null},{"id":25036,"provider_id":"77113","name":"Saraswati Hospital Maternity Home and Advanced Laparoscopy Centre","address":"Krushnai Bhopale Lane, Near Vishal Ganapat Temple, Maliwada","city":"Ahmed Nagar","state":"Maharashtra","postal_code":414001,"logo":"https://rules.nivabupa.com/media/default_hospital.svg","latitude":26.14057,"longitude":85.36795,"beds_count":"16","email_id":"sarswatihospital17@gmail.com","website":null,"ppn_available":false,"doctors_count":"10","rating":0,"avg_rating":0,"review_count":"NA","rating_count":"NA","reviews":"120","accreditions":"NA","treatment_cost":"NA","customer_expense":"NA","stay_duration":"NA","primary_phone":"9766066275","additional_phone":"9595654454","last_updated_at":"2021-08-26 00:00:00","ppn_benefits":{"ppn_spoc_phone_no":null,"nbhi_non_payable_waiver":null,"discount_on_opd_consultation":null,"discount_on_opd_investigation":null,"discount_on_health_check_up":null,"free_ambulance":null,"ppn_spoc_name":null},"poc":null,"ir":null},{"id":19704,"provider_id":"31701","name":"Sartak Hospital","address":"Doctors Colony Opp Karachiwalaga, Godawane Burudgaon Road","city":"Ahmed Nagar","state":"Maharashtra","postal_code":414001,"logo":"https://rules.nivabupa.com/media/default_hospital.svg","latitude":19.079315,"longitude":74.737402,"beds_count":"30","email_id":"sarthakhospital05@gmail.com","website":null,"ppn_available":false,"doctors_count":"15","rating":0,"avg_rating":0,"review_count":"NA","rating_count":"NA","reviews":"120","accreditions":"NA","treatment_cost":"NA","customer_expense":"NA","stay_duration":"NA","primary_phone":"0241-2324460","additional_phone":"9420802430","last_updated_at":"2021-07-20 00:00:00","ppn_benefits":{"ppn_spoc_phone_no":null,"nbhi_non_payable_waiver":null,"discount_on_opd_consultation":null,"discount_on_opd_investigation":null,"discount_on_health_check_up":null,"free_ambulance":null,"ppn_spoc_name":null},"poc":null,"ir":null},{"id":19720,"provider_id":"31783","name":"Dr Bakul Palwe Accident and Surgical Hospital","address":"Vasant Tekade Shriram Chowk, Pipeline Road","city":"Ahmed Nagar","state":"Maharashtra","postal_code":414003,"logo":"https://rules.nivabupa.com/media/default_hospital.svg","latitude":19.125246,"longitude":74.749731,"beds_count":"30","email_id":"drbakulpalwe@gmail.com","website":null,"ppn_available":false,"doctors_count":"15","rating":0,"avg_rating":0,"review_count":"NA","rating_count":"NA","reviews":"120","accreditions":"NA","treatment_cost":"NA","customer_expense":"NA","stay_duration":"NA","primary_phone":"0241-2425351","additional_phone":"9822434721","last_updated_at":"2021-07-20 00:00:00","ppn_benefits":{"ppn_spoc_phone_no":null,"nbhi_non_payable_waiver":null,"discount_on_opd_consultation":null,"discount_on_opd_investigation":null,"discount_on_health_check_up":null,"free_ambulance":null,"ppn_spoc_name":null},"poc":null,"ir":null},{"id":22070,"provider_id":"60063","name":"Sukhakarta Multicare Hospital","address":"Tirupati Ideal Park, Shani Shinganapur Road, Sonai Tal - Newasa","city":"Ahmed Nagar","state":"Maharashtra","postal_code":414105,"logo":"https://rules.nivabupa.com/media/default_hospital.svg","latitude":19.39392,"longitude":74.82356,"beds_count":"30","email_id":"dryogeshwagh@gmail.com","website":null,"ppn_available":false,"doctors_count":"2","rating":0,"avg_rating":0,"review_count":1,"rating_count":1,"reviews":"120","accreditions":"NA","treatment_cost":"NA","customer_expense":"NA","stay_duration":"NA","primary_phone":"9822329439","additional_phone":"9822329439","last_updated_at":"2021-03-31 00:00:00","ppn_benefits":{"ppn_spoc_phone_no":null,"nbhi_non_payable_waiver":null,"discount_on_opd_consultation":null,"discount_on_opd_investigation":null,"discount_on_health_check_up":null,"free_ambulance":null,"ppn_spoc_name":null},"poc":null,"ir":null},{"id":20389,"provider_id":"36470","name":"Dr Khalkar Hospital","address":"Plot No 16 Front Of Ymca Ground, Satha Colony, Station Road","city":"Ahmed Nagar","state":"Maharashtra","postal_code":414001,"logo":"https://rules.nivabupa.com/media/default_hospital.svg","latitude":18.507775,"longitude":73.855506,"beds_count":"40","email_id":"khalkarhospital@gmail.com","website":null,"ppn_available":false,"doctors_count":"2","rating":0,"avg_rating":0,"review_count":"NA","rating_count":"NA","reviews":"120","accreditions":"NABH Entry Level","treatment_cost":"NA","customer_expense":"NA","stay_duration":"4","primary_phone":"0241-2452395","additional_phone":"0241-2452395","last_updated_at":"2021-02-15 00:00:00","ppn_benefits":{"ppn_spoc_phone_no":null,"nbhi_non_payable_waiver":null,"discount_on_opd_consultation":null,"discount_on_opd_investigation":null,"discount_on_health_check_up":null,"free_ambulance":null,"ppn_spoc_name":null},"poc":null,"ir":null},{"id":20847,"provider_id":"45558","name":"Om Gagangiri Hospital*","address":"Opp. New Prant Office, New Nagar Road","city":"Ahmed Nagar","state":"Maharashtra","postal_code":422605,"logo":"https://rules.nivabupa.com/media/default_hospital.svg","latitude":19.106568,"longitude":73.003094,"beds_count":"35","email_id":"dhirajg386@gmail.com","website":null,"ppn_available":false,"doctors_count":"16","rating":0,"avg_rating":0,"review_count":"NA","rating_count":"NA","reviews":"120","accreditions":"NA","treatment_cost":"NA","customer_expense":"NA","stay_duration":"6","primary_phone":"0242-5222535","additional_phone":"9730204131","last_updated_at":"2021-03-31 00:00:00","ppn_benefits":{"ppn_spoc_phone_no":null,"nbhi_non_payable_waiver":null,"discount_on_opd_consultation":null,"discount_on_opd_investigation":null,"discount_on_health_check_up":null,"free_ambulance":null,"ppn_spoc_name":null},"poc":null,"ir":null},{"id":20857,"provider_id":"45616","name":"Saisuman Hrudayalaya and Crtical Care","address":"Sawant Buliding, Tajane Mala, New Nagar Road, Sangamner","city":"Ahmed Nagar","state":"Maharashtra","postal_code":422605,"logo":"https://rules.nivabupa.com/media/default_hospital.svg","latitude":19.56934,"longitude":74.20011,"beds_count":"50","email_id":"saigirishsawant@gmail.com","website":null,"ppn_available":false,"doctors_count":"23","rating":0,"avg_rating":0,"review_count":1,"rating_count":1,"reviews":"120","accreditions":"NA","treatment_cost":"NA","customer_expense":"NA","stay_duration":"6","primary_phone":"0242-5222101","additional_phone":"8625867460","last_updated_at":"2021-07-20 00:00:00","ppn_benefits":{"ppn_spoc_phone_no":null,"nbhi_non_payable_waiver":null,"discount_on_opd_consultation":null,"discount_on_opd_investigation":null,"discount_on_health_check_up":null,"free_ambulance":null,"ppn_spoc_name":null},"poc":null,"ir":null},{"id":21248,"provider_id":"48282","name":"Niramay Hospital Ahmed Nagar","address":"Supa Parner Road, Supa, Tal.Parner","city":"Ahmed Nagar","state":"Maharashtra","postal_code":414302,"logo":"https://rules.nivabupa.com/media/default_hospital.svg","latitude":18.550283,"longitude":73.924776,"beds_count":"50","email_id":"rahulthorat23071992@gmail.com","website":"http://www.niramayhospital.co.in/","ppn_available":false,"doctors_count":"26","rating":0,"avg_rating":0,"review_count":"NA","rating_count":"NA","reviews":"120","accreditions":"NA","treatment_cost":"NA","customer_expense":"NA","stay_duration":"NA","primary_phone":"0248-8213390","additional_phone":"8888718272","last_updated_at":"2021-03-25 00:00:00","ppn_benefits":{"ppn_spoc_phone_no":null,"nbhi_non_payable_waiver":null,"discount_on_opd_consultation":null,"discount_on_opd_investigation":null,"discount_on_health_check_up":null,"free_ambulance":null,"ppn_spoc_name":null},"poc":null,"ir":null},{"id":21501,"provider_id":"50907","name":"Samartha Hospital","address":"Rajur Road, Kotul, Tal.Akole","city":"Ahmed Nagar","state":"Maharashtra","postal_code":422610,"logo":"https://rules.nivabupa.com/media/default_hospital.svg","latitude":19.43719,"longitude":73.96883,"beds_count":"41","email_id":"samarthahospitalkotul@gmail.com","website":null,"ppn_available":false,"doctors_count":"22","rating":0,"avg_rating":0,"review_count":"NA","rating_count":"NA","reviews":"120","accreditions":"NA","treatment_cost":"NA","customer_expense":"NA","stay_duration":"NA","primary_phone":"7030799560","additional_phone":"9922224218","last_updated_at":"2021-03-31 00:00:00","ppn_benefits":{"ppn_spoc_phone_no":null,"nbhi_non_payable_waiver":null,"discount_on_opd_consultation":null,"discount_on_opd_investigation":null,"discount_on_health_check_up":null,"free_ambulance":null,"ppn_spoc_name":null},"poc":null,"ir":null},{"id":22018,"provider_id":"59603","name":"Satalkar Lotus Super Specliality Hospital","address":"Gruhashilpa Housing Society, Near Delhi Gate Ahmednagar","city":"Ahmed Nagar","state":"Maharashtra","postal_code":414002,"logo":"https://rules.nivabupa.com/media/default_hospital.svg","latitude":19.10524,"longitude":74.73202,"beds_count":"20","email_id":"satalkarlotus.ahmednagar@gmail.com","website":null,"ppn_available":false,"doctors_count":"4","rating":0,"avg_rating":0,"review_count":"NA","rating_count":"NA","reviews":"120","accreditions":"NA","treatment_cost":"NA","customer_expense":"NA","stay_duration":"9","primary_phone":"9890886971","additional_phone":"9890886971","last_updated_at":"2021-03-31 00:00:00","ppn_benefits":{"ppn_spoc_phone_no":null,"nbhi_non_payable_waiver":null,"discount_on_opd_consultation":null,"discount_on_opd_investigation":null,"discount_on_health_check_up":null,"free_ambulance":null,"ppn_spoc_name":null},"poc":null,"ir":null},{"id":22034,"provider_id":"59651","name":"Dr. Bade Hospital Surgical and Maternity Home","address":"Opp. Hotel Oberoi, Near Swami Samarth Mandir Savedi Road","city":"Ahmed Nagar","state":"Maharashtra","postal_code":414003,"logo":"https://rules.nivabupa.com/media/default_hospital.svg","latitude":19.11276,"longitude":74.73174,"beds_count":"15","email_id":"dr.badehospital@gmail.com","website":null,"ppn_available":false,"doctors_count":"5","rating":0,"avg_rating":0,"review_count":"NA","rating_count":"NA","reviews":"120","accreditions":"NABH Entry Level","treatment_cost":"NA","customer_expense":"NA","stay_duration":"4","primary_phone":"9890350985","additional_phone":"9011046794","last_updated_at":"2021-05-31 00:00:00","ppn_benefits":{"ppn_spoc_phone_no":null,"nbhi_non_payable_waiver":null,"discount_on_opd_consultation":null,"discount_on_opd_investigation":null,"discount_on_health_check_up":null,"free_ambulance":null,"ppn_spoc_name":null},"poc":null,"ir":null},{"id":22037,"provider_id":"59685","name":"Shree Sainath Hospital","address":"Behind New State Bank, Janata Raja Road, Sangamner","city":"Ahmed Nagar","state":"Maharashtra","postal_code":422605,"logo":"https://rules.nivabupa.com/media/default_hospital.svg","latitude":19.57475,"longitude":74.20981,"beds_count":"25","email_id":"shrisainath.hospi@gmail.com","website":null,"ppn_available":false,"doctors_count":"4","rating":0,"avg_rating":0,"review_count":"NA","rating_count":"NA","reviews":"120","accreditions":"NA","treatment_cost":"NA","customer_expense":"NA","stay_duration":"7","primary_phone":"9860014730","additional_phone":"9860014730","last_updated_at":"2021-03-31 00:00:00","ppn_benefits":{"ppn_spoc_phone_no":null,"nbhi_non_payable_waiver":null,"discount_on_opd_consultation":null,"discount_on_opd_investigation":null,"discount_on_health_check_up":null,"free_ambulance":null,"ppn_spoc_name":null},"poc":null,"ir":null},{"id":23563,"provider_id":"67126","name":"Gore Eye Hospital","address":"Rainbow House, Opp Drdeepak Hospital, Near Zopadi Canteen Savedi","city":"Ahmed Nagar","state":"Maharashtra","postal_code":414003,"logo":"https://rules.nivabupa.com/media/default_hospital.svg","latitude":19.11329,"longitude":74.73067,"beds_count":"4","email_id":"darshangore5@yahoo.in","website":null,"ppn_available":false,"doctors_count":"2","rating":0,"avg_rating":0,"review_count":"NA","rating_count":"NA","reviews":"120","accreditions":"NABH Entry Level","treatment_cost":"NA","customer_expense":"NA","stay_duration":"NA","primary_phone":"9422229810","additional_phone":"9422229810","last_updated_at":"2021-02-25 00:00:00","ppn_benefits":{"ppn_spoc_phone_no":null,"nbhi_non_payable_waiver":null,"discount_on_opd_consultation":null,"discount_on_opd_investigation":null,"discount_on_health_check_up":null,"free_ambulance":null,"ppn_spoc_name":null},"poc":null,"ir":null},{"id":23567,"provider_id":"67133","name":"Siddhakala Hospital Sangamner","address":"Pimparne Road Sangamner Khurd, Sangamner","city":"Ahmed Nagar","state":"Maharashtra","postal_code":422605,"logo":"https://rules.nivabupa.com/media/default_hospital.svg","latitude":19.55643,"longitude":74.21325,"beds_count":"100","email_id":"cashlesssiddhakala@gmail.com","website":null,"ppn_available":false,"doctors_count":"42","rating":0,"avg_rating":0,"review_count":"NA","rating_count":"NA","reviews":"120","accreditions":"NA","treatment_cost":"NA","customer_expense":"NA","stay_duration":"NA","primary_phone":"8421913635","additional_phone":"8087657879","last_updated_at":"2020-12-21 00:00:00","ppn_benefits":{"ppn_spoc_phone_no":null,"nbhi_non_payable_waiver":null,"discount_on_opd_consultation":null,"discount_on_opd_investigation":null,"discount_on_health_check_up":null,"free_ambulance":null,"ppn_spoc_name":null},"poc":null,"ir":null},{"id":20885,"provider_id":"45746","name":"Aarogyam Agrawal Hospital","address":"Near Swami Samarth Mandir, Savedi Road","city":"Ahmed Nagar","state":"Maharashtra","postal_code":414003,"logo":"https://rules.nivabupa.com/media/default_hospital.svg","latitude":19.113725,"longitude":74.731927,"beds_count":"42","email_id":"sparvez0313@gmail.com","website":null,"ppn_available":false,"doctors_count":"8","rating":0,"avg_rating":0,"review_count":2,"rating_count":2,"reviews":"120","accreditions":"NABH Entry Level","treatment_cost":"NA","customer_expense":"NA","stay_duration":"4","primary_phone":"0241-2421661","additional_phone":"9840006580","last_updated_at":"2021-01-05 00:00:00","ppn_benefits":{"ppn_spoc_phone_no":null,"nbhi_non_payable_waiver":null,"discount_on_opd_consultation":null,"discount_on_opd_investigation":null,"discount_on_health_check_up":null,"free_ambulance":null,"ppn_spoc_name":null},"poc":null,"ir":null},{"id":21174,"provider_id":"47765","name":"Pranav Hospital Multispeciality and ICU Centre","address":"Near Shahu Nagar Bus Stop, Kedgaon (Devi)","city":"Ahmed Nagar","state":"Maharashtra","postal_code":414005,"logo":"https://rules.nivabupa.com/media/default_hospital.svg","latitude":19.062963,"longitude":74.697792,"beds_count":"100","email_id":"pranavmultiandicucenter@gmail.com","website":null,"ppn_available":false,"doctors_count":"28","rating":0,"avg_rating":0,"review_count":"NA","rating_count":"NA","reviews":"120","accreditions":"NABH Entry Level","treatment_cost":"NA","customer_expense":"NA","stay_duration":"5","primary_phone":"0241-2550307","additional_phone":"9890904458","last_updated_at":"2021-03-31 00:00:00","ppn_benefits":{"ppn_spoc_phone_no":null,"nbhi_non_payable_waiver":null,"discount_on_opd_consultation":null,"discount_on_opd_investigation":null,"discount_on_health_check_up":null,"free_ambulance":null,"ppn_spoc_name":null},"poc":null,"ir":null},{"id":20030,"provider_id":"32923","name":"Chavan Accident Hospital & Dental Clinic","address":"Infront Mula Plahra, Rajkar Nagar Belapur Road","city":"Ahmed Nagar","state":"Maharashtra","postal_code":413709,"logo":"https://rules.nivabupa.com/media/default_hospital.svg","latitude":19.643372,"longitude":74.634188,"beds_count":"10","email_id":"prashantchavan@gmail.com","website":null,"ppn_available":false,"doctors_count":"5","rating":0,"avg_rating":0,"review_count":"NA","rating_count":"NA","reviews":"120","accreditions":"NA","treatment_cost":"NA","customer_expense":"NA","stay_duration":"8","primary_phone":"0242-2225001","additional_phone":"92266002222","last_updated_at":"2021-03-31 00:00:00","ppn_benefits":{"ppn_spoc_phone_no":null,"nbhi_non_payable_waiver":null,"discount_on_opd_consultation":null,"discount_on_opd_investigation":null,"discount_on_health_check_up":null,"free_ambulance":null,"ppn_spoc_name":null},"poc":null,"ir":null},{"id":20421,"provider_id":"37731","name":"Naik Peadiatric Surgery Center","address":"Near Savedivillage, Kaman And Parichay Hotel, Nagar Shirdi Road, Savedi","city":"Ahmed Nagar","state":"Maharashtra","postal_code":414003,"logo":"https://rules.nivabupa.com/media/default_hospital.svg","latitude":19.131182,"longitude":74.739559,"beds_count":"30","email_id":"naikhospital08@gmail.com","website":null,"ppn_available":false,"doctors_count":"15","rating":0,"avg_rating":0,"review_count":"NA","rating_count":"NA","reviews":"120","accreditions":"NA","treatment_cost":"NA","customer_expense":"NA","stay_duration":"NA","primary_phone":"0241-2429898","additional_phone":"9822977854","last_updated_at":"2021-03-31 00:00:00","ppn_benefits":{"ppn_spoc_phone_no":null,"nbhi_non_payable_waiver":null,"discount_on_opd_consultation":null,"discount_on_opd_investigation":null,"discount_on_health_check_up":null,"free_ambulance":null,"ppn_spoc_name":null},"poc":null,"ir":null},{"id":19758,"provider_id":"32010","name":"Akshay Childrens Hospital and Maternity Home","address":"Near Cosmic Housing Society, Bali Kashram Road","city":"Ahmed Nagar","state":"Maharashtra","postal_code":414001,"logo":"https://rules.nivabupa.com/media/default_hospital.svg","latitude":19.104074,"longitude":74.730739,"beds_count":"15","email_id":"ugitay@yahoo.in","website":null,"ppn_available":false,"doctors_count":"20","rating":0,"avg_rating":0,"review_count":1,"rating_count":1,"reviews":"120","accreditions":"NABH Entry Level","treatment_cost":"NA","customer_expense":"NA","stay_duration":"6","primary_phone":"0241-6957309","additional_phone":"9422740888","last_updated_at":"2021-01-05 00:00:00","ppn_benefits":{"ppn_spoc_phone_no":null,"nbhi_non_payable_waiver":null,"discount_on_opd_consultation":null,"discount_on_opd_investigation":null,"discount_on_health_check_up":null,"free_ambulance":null,"ppn_spoc_name":null},"poc":null,"ir":null},{"id":19803,"provider_id":"32226","name":"Wagh Nursing Home Ahmed Nagar","address":"Burud Gaon Road, Behind Hotel Vaibhav, Chanakya Chowk","city":"Ahmed Nagar","state":"Maharashtra","postal_code":414001,"logo":"https://rules.nivabupa.com/media/default_hospital.svg","latitude":19.082342,"longitude":74.735505,"beds_count":"20","email_id":"drsagarwagh24@gmail.com","website":null,"ppn_available":false,"doctors_count":"11","rating":0,"avg_rating":0,"review_count":"NA","rating_count":"NA","reviews":"120","accreditions":"NA","treatment_cost":"NA","customer_expense":"NA","stay_duration":"6","primary_phone":"0241-2452242","additional_phone":"9422791933","last_updated_at":"2021-07-20 00:00:00","ppn_benefits":{"ppn_spoc_phone_no":null,"nbhi_non_payable_waiver":null,"discount_on_opd_consultation":null,"discount_on_opd_investigation":null,"discount_on_health_check_up":null,"free_ambulance":null,"ppn_spoc_name":null},"poc":null,"ir":null},{"id":19891,"provider_id":"32558","name":"Dr Anbhule Multispeciality Hospital","address":"Premdan Chowk, Sauedi Road","city":"Ahmed Nagar","state":"Maharashtra","postal_code":414001,"logo":"https://rules.nivabupa.com/media/default_hospital.svg","latitude":19.095208,"longitude":74.749592,"beds_count":"50","email_id":"anbhulemultispeciality@yahoo.com","website":null,"ppn_available":false,"doctors_count":"23","rating":0,"avg_rating":0,"review_count":"NA","rating_count":"NA","reviews":"120","accreditions":"NA","treatment_cost":"NA","customer_expense":"NA","stay_duration":"NA","primary_phone":"0241-2426092","additional_phone":"9822288804","last_updated_at":"2021-03-31 00:00:00","ppn_benefits":{"ppn_spoc_phone_no":null,"nbhi_non_payable_waiver":null,"discount_on_opd_consultation":null,"discount_on_opd_investigation":null,"discount_on_health_check_up":null,"free_ambulance":null,"ppn_spoc_name":null},"poc":null,"ir":null},{"id":19893,"provider_id":"32567","name":"Lokmanya Hospital Ahmednagar","address":"Kashti Taluka Shrigonda, Nagar Baramati Road, Kashti","city":"Ahmed Nagar","state":"Maharashtra","postal_code":414701,"logo":"https://rules.nivabupa.com/media/default_hospital.svg","latitude":19.095208,"longitude":74.749592,"beds_count":"20","email_id":"lokmanyakashti@gmail.com","website":null,"ppn_available":false,"doctors_count":"10","rating":0,"avg_rating":0,"review_count":1,"rating_count":1,"reviews":"120","accreditions":"NABH Entry Level","treatment_cost":"NA","customer_expense":"NA","stay_duration":"NA","primary_phone":"0248-7231303","additional_phone":"9420750377","last_updated_at":"2021-02-18 00:00:00","ppn_benefits":{"ppn_spoc_phone_no":null,"nbhi_non_payable_waiver":null,"discount_on_opd_consultation":null,"discount_on_opd_investigation":null,"discount_on_health_check_up":null,"free_ambulance":null,"ppn_spoc_name":null},"poc":null,"ir":null},{"id":19191,"provider_id":"28374","name":"Swasthya Hospital Medical Research Center","address":"Laltaki Road Anna Bhau Sathe Chowk","city":"Ahmed Nagar","state":"Maharashtra","postal_code":414001,"logo":"https://rules.nivabupa.com/media/default_hospital.svg","latitude":19.104493,"longitude":74.734667,"beds_count":"62","email_id":"swasthyahospitalcashless@gmail.com","website":null,"ppn_available":false,"doctors_count":"26","rating":0,"avg_rating":0,"review_count":2,"rating_count":2,"reviews":"120","accreditions":"NABH Higher Level","treatment_cost":"NA","customer_expense":"NA","stay_duration":"9","primary_phone":"0241-2344301","additional_phone":"9270161668","last_updated_at":"2021-01-18 00:00:00","ppn_benefits":{"ppn_spoc_phone_no":null,"nbhi_non_payable_waiver":null,"discount_on_opd_consultation":null,"discount_on_opd_investigation":null,"discount_on_health_check_up":null,"free_ambulance":null,"ppn_spoc_name":null},"poc":null,"ir":null},{"id":47554,"provider_id":"103461","name":"Haral Hospital","address":"Opp. Jadhav Petrol Pump, Nagar -Kalyan Road","city":"Ahmed Nagar","state":"Maharashtra","postal_code":414001,"logo":"https://rules.nivabupa.com/media/default_hospital.svg","latitude":null,"longitude":null,"beds_count":"NA","email_id":"haralhospital@gmail.com","website":null,"ppn_available":false,"doctors_count":"NA","rating":0,"avg_rating":1,"review_count":"NA","rating_count":"NA","reviews":"120","accreditions":"NA","treatment_cost":"NA","customer_expense":"NA","stay_duration":"NA","primary_phone":"9404755355","additional_phone":null,"last_updated_at":"NA","ppn_benefits":{"ppn_spoc_phone_no":null,"nbhi_non_payable_waiver":null,"discount_on_opd_consultation":null,"discount_on_opd_investigation":null,"discount_on_health_check_up":null,"free_ambulance":null,"ppn_spoc_name":null},"poc":null,"ir":null}]}