{"links":{"next":null,"previous":"https://rules.nivabupa.com/api/v1/hospital_rater/get_hospital_list/?city=Mumbai&format=json&page=8"},"count":256,"total_pages":9,"results":[{"id":19837,"provider_id":"32376","name":"Shakuntala Memorial Hospital","address":"Plot 182 Shere Punjab Colony, Mahakali Road, Andheri East","city":"Mumbai","state":"Maharashtra","postal_code":400093,"logo":"https://rules.nivabupa.com/media/default_hospital.svg","latitude":19.128282,"longitude":72.868151,"beds_count":"20","email_id":"lalitprabha@hotmail.com","website":null,"ppn_available":false,"doctors_count":"10","rating":0,"avg_rating":0,"review_count":"NA","rating_count":"NA","reviews":"120","accreditions":"NA","treatment_cost":"NA","customer_expense":"NA","stay_duration":"NA","primary_phone":"022-28362995","additional_phone":"022-28362995","last_updated_at":"2021-07-20 00:00:00","ppn_benefits":{"ppn_spoc_phone_no":null,"nbhi_non_payable_waiver":null,"discount_on_opd_consultation":null,"discount_on_opd_investigation":null,"discount_on_health_check_up":null,"free_ambulance":null,"ppn_spoc_name":null},"poc":null,"ir":null},{"id":19888,"provider_id":"32552","name":"Thombare Hospital","address":"1St Floor Riddhi Chs, Shop 116-119, Sector-13 Khada Colony, New Panvel (W)","city":"Mumbai","state":"Maharashtra","postal_code":410206,"logo":"https://rules.nivabupa.com/media/default_hospital.svg","latitude":19.017615,"longitude":72.856164,"beds_count":"15","email_id":"thobarehospital@yahoo.in","website":null,"ppn_available":false,"doctors_count":"15","rating":0,"avg_rating":0,"review_count":"NA","rating_count":"NA","reviews":"120","accreditions":"NABH Entry Level","treatment_cost":"NA","customer_expense":"NA","stay_duration":"7","primary_phone":"022-27482906","additional_phone":"8879214946","last_updated_at":"2021-07-20 00:00:00","ppn_benefits":{"ppn_spoc_phone_no":null,"nbhi_non_payable_waiver":null,"discount_on_opd_consultation":null,"discount_on_opd_investigation":null,"discount_on_health_check_up":null,"free_ambulance":null,"ppn_spoc_name":null},"poc":null,"ir":null},{"id":19990,"provider_id":"32831","name":"Phoenix Hospitals Pvt Ltd.","address":"Cts No 374 B/21, Padma Nagar, Chikuwadi, Borivali West","city":"Mumbai","state":"Maharashtra","postal_code":400092,"logo":"https://rules.nivabupa.com/media/default_hospital.svg","latitude":19.218097,"longitude":72.835872,"beds_count":"50","email_id":"info@phoenixhospitals.co.in","website":"http://www.phoenixhospitals.co.in/","ppn_available":false,"doctors_count":"29","rating":0,"avg_rating":0,"review_count":5,"rating_count":5,"reviews":"120","accreditions":"NA","treatment_cost":"NA","customer_expense":"NA","stay_duration":"6","primary_phone":"022-28985671","additional_phone":"9664204032","last_updated_at":"2021-03-31 00:00:00","ppn_benefits":{"ppn_spoc_phone_no":null,"nbhi_non_payable_waiver":null,"discount_on_opd_consultation":null,"discount_on_opd_investigation":null,"discount_on_health_check_up":null,"free_ambulance":null,"ppn_spoc_name":null},"poc":null,"ir":null},{"id":19960,"provider_id":"32765","name":"Asian Institute of Oncology Pvt Ltd.","address":"Ground Floor, Kj Somaiya Hospital, Off Eastern Express Highway, Everard Nagar Sion East","city":"Mumbai","state":"Maharashtra","postal_code":400022,"logo":"https://rules.nivabupa.com/media/default_hospital.svg","latitude":19.075984,"longitude":72.877656,"beds_count":"73","email_id":"r.datta@asianoncology.com","website":null,"ppn_available":false,"doctors_count":"31","rating":0,"avg_rating":0,"review_count":"NA","rating_count":"NA","reviews":"120","accreditions":"NA","treatment_cost":"NA","customer_expense":"NA","stay_duration":"NA","primary_phone":"022-24066800","additional_phone":"9821161005","last_updated_at":"2021-03-31 00:00:00","ppn_benefits":{"ppn_spoc_phone_no":null,"nbhi_non_payable_waiver":null,"discount_on_opd_consultation":null,"discount_on_opd_investigation":null,"discount_on_health_check_up":null,"free_ambulance":null,"ppn_spoc_name":null},"poc":null,"ir":null},{"id":19983,"provider_id":"32820","name":"Yash Hospital Mumbai","address":"Trimurti Arcade, Plot No 263 1St Floor, Uran Naka, Panvel","city":"Mumbai","state":"Maharashtra","postal_code":410206,"logo":"https://rules.nivabupa.com/media/default_hospital.svg","latitude":19.075984,"longitude":72.877656,"beds_count":"20","email_id":"yashhospital07@gmail.com","website":null,"ppn_available":false,"doctors_count":"8","rating":0,"avg_rating":0,"review_count":"NA","rating_count":"NA","reviews":"120","accreditions":"NA","treatment_cost":"NA","customer_expense":"NA","stay_duration":"NA","primary_phone":"022-64560107","additional_phone":"8108233909","last_updated_at":"2021-07-20 00:00:00","ppn_benefits":{"ppn_spoc_phone_no":null,"nbhi_non_payable_waiver":null,"discount_on_opd_consultation":null,"discount_on_opd_investigation":null,"discount_on_health_check_up":null,"free_ambulance":null,"ppn_spoc_name":null},"poc":null,"ir":null},{"id":19993,"provider_id":"32834","name":"Arpan General Hospital","address":"Arpan Arcade, 1St Floor, Cst Road, Kurla West","city":"Mumbai","state":"Maharashtra","postal_code":400070,"logo":"https://rules.nivabupa.com/media/default_hospital.svg","latitude":19.074251,"longitude":72.880295,"beds_count":"20","email_id":"shaikhnazeer30@gmail.com","website":null,"ppn_available":false,"doctors_count":"9","rating":0,"avg_rating":0,"review_count":"NA","rating_count":"NA","reviews":"120","accreditions":"NABH Entry Level","treatment_cost":"NA","customer_expense":"NA","stay_duration":"NA","primary_phone":"022-26500612","additional_phone":"9768459012","last_updated_at":"2021-07-20 00:00:00","ppn_benefits":{"ppn_spoc_phone_no":null,"nbhi_non_payable_waiver":null,"discount_on_opd_consultation":null,"discount_on_opd_investigation":null,"discount_on_health_check_up":null,"free_ambulance":null,"ppn_spoc_name":null},"poc":null,"ir":null},{"id":20063,"provider_id":"33000","name":"Criti Care ICCU Multispeciality and Trauma Centre","address":"Plot No. 2A, Swami Samarth Complex, Secter 16, Airoli","city":"Mumbai","state":"Maharashtra","postal_code":400708,"logo":"https://rules.nivabupa.com/media/default_hospital.svg","latitude":19.075984,"longitude":72.877656,"beds_count":"23","email_id":"criticareairoli@gmail.com","website":null,"ppn_available":false,"doctors_count":"10","rating":0,"avg_rating":0,"review_count":1,"rating_count":1,"reviews":"120","accreditions":"NA","treatment_cost":"NA","customer_expense":"NA","stay_duration":"5","primary_phone":"022-27794705","additional_phone":"022-27794705","last_updated_at":"2021-03-31 00:00:00","ppn_benefits":{"ppn_spoc_phone_no":null,"nbhi_non_payable_waiver":null,"discount_on_opd_consultation":null,"discount_on_opd_investigation":null,"discount_on_health_check_up":null,"free_ambulance":null,"ppn_spoc_name":null},"poc":null,"ir":null},{"id":20072,"provider_id":"33020","name":"Satyam Multispeciality Hospital & Trauma Centre","address":"Near D Mort, Sector 14, Navi Mumbai,","city":"Mumbai","state":"Maharashtra","postal_code":400709,"logo":"https://rules.nivabupa.com/media/default_hospital.svg","latitude":19.017617,"longitude":72.856129,"beds_count":"30","email_id":"satyamhospital6@gmail.com","website":null,"ppn_available":false,"doctors_count":"14","rating":0,"avg_rating":0,"review_count":3,"rating_count":3,"reviews":"120","accreditions":"NABH Entry Level","treatment_cost":"NA","customer_expense":"NA","stay_duration":"4","primary_phone":"022-27551010","additional_phone":"022-27551010","last_updated_at":"2021-05-31 00:00:00","ppn_benefits":{"ppn_spoc_phone_no":null,"nbhi_non_payable_waiver":null,"discount_on_opd_consultation":null,"discount_on_opd_investigation":null,"discount_on_health_check_up":null,"free_ambulance":null,"ppn_spoc_name":null},"poc":null,"ir":null},{"id":20126,"provider_id":"33133","name":"Sai Hospital-Chembur","address":"566 Vikas Building Shree Ganesh Chs, Sion Trombay Road, Vn Purav Marg, Chembur","city":"Mumbai","state":"Maharashtra","postal_code":400071,"logo":"https://rules.nivabupa.com/media/default_hospital.svg","latitude":19.020278,"longitude":72.904454,"beds_count":"25","email_id":"saihospital2007@yahoo.com","website":null,"ppn_available":false,"doctors_count":"15","rating":0,"avg_rating":0,"review_count":1,"rating_count":1,"reviews":"120","accreditions":"NA","treatment_cost":"NA","customer_expense":"NA","stay_duration":"4","primary_phone":"022-42252331","additional_phone":"022-42252331","last_updated_at":"2021-03-31 00:00:00","ppn_benefits":{"ppn_spoc_phone_no":null,"nbhi_non_payable_waiver":null,"discount_on_opd_consultation":null,"discount_on_opd_investigation":null,"discount_on_health_check_up":null,"free_ambulance":null,"ppn_spoc_name":null},"poc":null,"ir":null},{"id":20175,"provider_id":"33252","name":"Sai Hospital Mumbai","address":"1St 2Nd 3Rd And 4Th Floor Masiha Islampura Chs Ltd, Behind Sion Hospital, Near Dharavi Police Station, 9 Feet Road Kumbharwada","city":"Mumbai","state":"Maharashtra","postal_code":400017,"logo":"https://rules.nivabupa.com/media/default_hospital.svg","latitude":19.03991,"longitude":72.85473,"beds_count":"51","email_id":"khademangesh@gmail.com","website":"http://www.saihospitalindia.com/","ppn_available":false,"doctors_count":"14","rating":0,"avg_rating":0,"review_count":"NA","rating_count":"NA","reviews":"120","accreditions":"NA","treatment_cost":"NA","customer_expense":"NA","stay_duration":"5","primary_phone":"022-2422738","additional_phone":"9860123005","last_updated_at":"2021-03-31 00:00:00","ppn_benefits":{"ppn_spoc_phone_no":null,"nbhi_non_payable_waiver":null,"discount_on_opd_consultation":null,"discount_on_opd_investigation":null,"discount_on_health_check_up":null,"free_ambulance":null,"ppn_spoc_name":null},"poc":null,"ir":null},{"id":20216,"provider_id":"33451","name":"Kirti Nursing Home Mumbai","address":"Kedarnath Sector 7, Plot No 7 Near Charkop Bus Depot, Charkop, Kandivali West","city":"Mumbai","state":"Maharashtra","postal_code":400067,"logo":"https://rules.nivabupa.com/media/default_hospital.svg","latitude":19.208241,"longitude":72.813143,"beds_count":"25","email_id":"kirtinursinghome@gmail.com","website":null,"ppn_available":false,"doctors_count":"4","rating":0,"avg_rating":0,"review_count":4,"rating_count":4,"reviews":"120","accreditions":"NABH Entry Level","treatment_cost":"NA","customer_expense":"NA","stay_duration":"5","primary_phone":"022-28690174","additional_phone":"8898030124","last_updated_at":"2021-03-22 00:00:00","ppn_benefits":{"ppn_spoc_phone_no":null,"nbhi_non_payable_waiver":null,"discount_on_opd_consultation":null,"discount_on_opd_investigation":null,"discount_on_health_check_up":null,"free_ambulance":null,"ppn_spoc_name":null},"poc":null,"ir":null},{"id":19354,"provider_id":"28874","name":"Pooja Hospital Mumbai","address":"101 Onxy Towers 1St Floor Next To Reliance Energy Office S.V Road Goregaon (West)","city":"Mumbai","state":"Maharashtra","postal_code":400104,"logo":"https://rules.nivabupa.com/media/default_hospital.svg","latitude":19.15545,"longitude":72.84554,"beds_count":"20","email_id":"madhavinaidu_786@yahoo.in","website":"http://www.poojahospital.org/","ppn_available":false,"doctors_count":"9","rating":0,"avg_rating":0,"review_count":"NA","rating_count":"NA","reviews":"120","accreditions":"NA","treatment_cost":"NA","customer_expense":"NA","stay_duration":"3","primary_phone":"022-28791900","additional_phone":"8097717767","last_updated_at":"2021-07-20 00:00:00","ppn_benefits":{"ppn_spoc_phone_no":null,"nbhi_non_payable_waiver":null,"discount_on_opd_consultation":null,"discount_on_opd_investigation":null,"discount_on_health_check_up":null,"free_ambulance":null,"ppn_spoc_name":null},"poc":null,"ir":null},{"id":19355,"provider_id":"28875","name":"Dattatreya Nursing Home","address":"Datta Mandir Road Opp Bandhutva Chs Vakola Bridge Santacruz (East)","city":"Mumbai","state":"Maharashtra","postal_code":400055,"logo":"https://rules.nivabupa.com/media/default_hospital.svg","latitude":19.079998,"longitude":72.854502,"beds_count":"25","email_id":"dattatreyanh@gmail.com","website":null,"ppn_available":false,"doctors_count":"25","rating":0,"avg_rating":0,"review_count":"NA","rating_count":"NA","reviews":"120","accreditions":"NABH Entry Level","treatment_cost":"NA","customer_expense":"NA","stay_duration":"7","primary_phone":"022-26682841","additional_phone":"9820298198","last_updated_at":"2021-01-05 00:00:00","ppn_benefits":{"ppn_spoc_phone_no":null,"nbhi_non_payable_waiver":null,"discount_on_opd_consultation":null,"discount_on_opd_investigation":null,"discount_on_health_check_up":null,"free_ambulance":null,"ppn_spoc_name":null},"poc":null,"ir":null},{"id":20744,"provider_id":"44329","name":"Saarthi Hospital.","address":"Vakratunda Palace, Above Svc Bank Tank Road, Bhandup West","city":"Mumbai","state":"Maharashtra","postal_code":400078,"logo":"https://rules.nivabupa.com/media/default_hospital.svg","latitude":19.14673,"longitude":72.9348,"beds_count":"22","email_id":"saarthihospital@rediffmail.com","website":null,"ppn_available":false,"doctors_count":"12","rating":0,"avg_rating":0,"review_count":1,"rating_count":1,"reviews":"120","accreditions":"NABH Entry Level","treatment_cost":"NA","customer_expense":"NA","stay_duration":"5","primary_phone":"022-25949123","additional_phone":"022-25949123","last_updated_at":"2021-03-19 00:00:00","ppn_benefits":{"ppn_spoc_phone_no":null,"nbhi_non_payable_waiver":null,"discount_on_opd_consultation":null,"discount_on_opd_investigation":null,"discount_on_health_check_up":null,"free_ambulance":null,"ppn_spoc_name":null},"poc":null,"ir":null},{"id":20809,"provider_id":"45159","name":"Nephron (Mission Nephro-Uro Care Pvt Ltd.)","address":"Dr Gor'S Apartment 1St Floor, M.G Road, Mulund West","city":"Mumbai","state":"Maharashtra","postal_code":400080,"logo":"https://rules.nivabupa.com/media/default_hospital.svg","latitude":19.175314,"longitude":72.9532,"beds_count":"15","email_id":"deepdamse@gmail.com","website":null,"ppn_available":false,"doctors_count":"7","rating":0,"avg_rating":0,"review_count":"NA","rating_count":"NA","reviews":"120","accreditions":"NA","treatment_cost":"NA","customer_expense":"NA","stay_duration":"NA","primary_phone":"022-25602424","additional_phone":"9004661772","last_updated_at":"2021-07-20 00:00:00","ppn_benefits":{"ppn_spoc_phone_no":null,"nbhi_non_payable_waiver":null,"discount_on_opd_consultation":null,"discount_on_opd_investigation":null,"discount_on_health_check_up":null,"free_ambulance":null,"ppn_spoc_name":null},"poc":null,"ir":null},{"id":19568,"provider_id":"31049","name":"Shah Children Hospital Mumbai","address":"A Wing 1St Floor Arunoday Tower Kokan Nagar J.M Road Bhandup (West)","city":"Mumbai","state":"Maharashtra","postal_code":400078,"logo":"https://rules.nivabupa.com/media/default_hospital.svg","latitude":19.145548,"longitude":72.928825,"beds_count":"15","email_id":"sanjaypaed61@gmail.com","website":null,"ppn_available":false,"doctors_count":"5","rating":0,"avg_rating":0,"review_count":1,"rating_count":1,"reviews":"120","accreditions":"NABH Entry Level","treatment_cost":"NA","customer_expense":"NA","stay_duration":"7","primary_phone":"022-25941139","additional_phone":"9819721077","last_updated_at":"2021-02-22 00:00:00","ppn_benefits":{"ppn_spoc_phone_no":null,"nbhi_non_payable_waiver":null,"discount_on_opd_consultation":null,"discount_on_opd_investigation":null,"discount_on_health_check_up":null,"free_ambulance":null,"ppn_spoc_name":null},"poc":null,"ir":null}]}