{"links":{"next":null,"previous":"https://rules.nivabupa.com/api/v1/hospital_rater/get_hospital_list/?city=Nashik&format=json&page=4"},"count":132,"total_pages":5,"results":[{"id":23633,"provider_id":"67235","name":"Ganga Rishikesh Hospital","address":"9 Murkute Colony Opp Raodaheb Thorat Hall, Gangapur Road","city":"Nashik","state":"Maharashtra","postal_code":422002,"logo":"https://rules.nivabupa.com/media/default_hospital.svg","latitude":20.00585,"longitude":73.77585,"beds_count":"36","email_id":"gangarishihosp@gmail.com","website":null,"ppn_available":false,"doctors_count":"15","rating":0,"avg_rating":0,"review_count":1,"rating_count":1,"reviews":"120","accreditions":"NA","treatment_cost":"NA","customer_expense":"NA","stay_duration":"4","primary_phone":"9890031675","additional_phone":"9890031675","last_updated_at":"2021-02-22 00:00:00","ppn_benefits":{"ppn_spoc_phone_no":null,"nbhi_non_payable_waiver":null,"discount_on_opd_consultation":null,"discount_on_opd_investigation":null,"discount_on_health_check_up":null,"free_ambulance":null,"ppn_spoc_name":null},"poc":null,"ir":null},{"id":24500,"provider_id":"71600","name":"Kilbil Balrugnalaya","address":"Royal Hub First Floor, Opp. Court Camp Road Malegaon","city":"Nashik","state":"Maharashtra","postal_code":423203,"logo":"https://rules.nivabupa.com/media/default_hospital.svg","latitude":21.38583,"longitude":74.24554,"beds_count":"15","email_id":"dhirajzend94@gmail.com","website":null,"ppn_available":false,"doctors_count":"8","rating":0,"avg_rating":0,"review_count":1,"rating_count":1,"reviews":"120","accreditions":"NABH Entry Level","treatment_cost":"NA","customer_expense":"NA","stay_duration":"0","primary_phone":"9028109881","additional_phone":"9923372603","last_updated_at":"2021-04-20 00:00:00","ppn_benefits":{"ppn_spoc_phone_no":null,"nbhi_non_payable_waiver":null,"discount_on_opd_consultation":null,"discount_on_opd_investigation":null,"discount_on_health_check_up":null,"free_ambulance":null,"ppn_spoc_name":null},"poc":null,"ir":null},{"id":25461,"provider_id":"80684","name":"Janahit Hospital Nashik","address":"Near Sagar Sweet Opp. Govind Nagar-Jogging Track, Rajmata Jijau 1 Ft Road Govind Nagar","city":"Nashik","state":"Maharashtra","postal_code":422009,"logo":"https://rules.nivabupa.com/media/default_hospital.svg","latitude":0,"longitude":0,"beds_count":"30","email_id":"janahithospital@gmail com","website":null,"ppn_available":false,"doctors_count":"30","rating":0,"avg_rating":0,"review_count":1,"rating_count":1,"reviews":"120","accreditions":"NABH Entry Level","treatment_cost":"NA","customer_expense":"NA","stay_duration":"0","primary_phone":"0253-2471759","additional_phone":"7083538922","last_updated_at":"2021-11-03 00:00:00","ppn_benefits":{"ppn_spoc_phone_no":null,"nbhi_non_payable_waiver":null,"discount_on_opd_consultation":null,"discount_on_opd_investigation":null,"discount_on_health_check_up":null,"free_ambulance":null,"ppn_spoc_name":null},"poc":null,"ir":null},{"id":25472,"provider_id":"80927","name":"Shree Seva Hospital Nashik","address":"Bazar Peth Ojhar Mig Taluka Niphad","city":"Nashik","state":"Maharashtra","postal_code":422206,"logo":"https://rules.nivabupa.com/media/default_hospital.svg","latitude":0,"longitude":0,"beds_count":"30","email_id":"shreetpa07@gmail.com","website":null,"ppn_available":false,"doctors_count":"6","rating":0,"avg_rating":0,"review_count":1,"rating_count":1,"reviews":"120","accreditions":"NABH Entry Level","treatment_cost":"NA","customer_expense":"NA","stay_duration":"NA","primary_phone":"9850135999","additional_phone":"9850135999","last_updated_at":"2021-11-10 00:00:00","ppn_benefits":{"ppn_spoc_phone_no":null,"nbhi_non_payable_waiver":null,"discount_on_opd_consultation":null,"discount_on_opd_investigation":null,"discount_on_health_check_up":null,"free_ambulance":null,"ppn_spoc_name":null},"poc":null,"ir":null},{"id":25661,"provider_id":"82077","name":"Tirupati Multispeciality Hospital Pvt. Ltd.","address":"1St Floor Deepalaxmi Plaza Jadhav Township Opp. Bhor Township Chunchale Ambad","city":"Nashik","state":"Maharashtra","postal_code":422010,"logo":"https://rules.nivabupa.com/media/default_hospital.svg","latitude":0,"longitude":0,"beds_count":"32","email_id":"tiruaptimultihospitalclaim@gmail.com","website":null,"ppn_available":false,"doctors_count":"24","rating":0,"avg_rating":0,"review_count":2,"rating_count":2,"reviews":"120","accreditions":"NA","treatment_cost":"NA","customer_expense":"NA","stay_duration":"NA","primary_phone":"9028299311","additional_phone":"9028299311","last_updated_at":"2021-11-30 00:00:00","ppn_benefits":{"ppn_spoc_phone_no":null,"nbhi_non_payable_waiver":null,"discount_on_opd_consultation":null,"discount_on_opd_investigation":null,"discount_on_health_check_up":null,"free_ambulance":null,"ppn_spoc_name":null},"poc":null,"ir":null},{"id":20244,"provider_id":"34302","name":"R.K Memorial Hospital","address":"R. K. Memorial Colony, Behind Mahalaxmi Vahan Mela, Mumbai-Agra Road, Ozar (Mig)","city":"Nashik","state":"Maharashtra","postal_code":422206,"logo":"https://rules.nivabupa.com/media/default_hospital.svg","latitude":20.098942,"longitude":73.938921,"beds_count":"60","email_id":"rkmemorialhospi@gmail.com","website":null,"ppn_available":false,"doctors_count":"21","rating":0,"avg_rating":0,"review_count":"NA","rating_count":"NA","reviews":"120","accreditions":"NA","treatment_cost":"NA","customer_expense":"NA","stay_duration":"NA","primary_phone":"0255-0273111","additional_phone":"9881409030","last_updated_at":"2021-03-31 00:00:00","ppn_benefits":{"ppn_spoc_phone_no":null,"nbhi_non_payable_waiver":null,"discount_on_opd_consultation":null,"discount_on_opd_investigation":null,"discount_on_health_check_up":null,"free_ambulance":null,"ppn_spoc_name":null},"poc":null,"ir":null},{"id":21333,"provider_id":"48871","name":"Lokamnya Multisepciality and Accident Hospital","address":"Dhatrak Phata Near Bali Mandir, Panchavti, Nashik","city":"Nashik","state":"Maharashtra","postal_code":422003,"logo":"https://rules.nivabupa.com/media/default_hospital.svg","latitude":78.192489,"longitude":73.836121,"beds_count":"50","email_id":"hrlokmanya2017@gmail.com","website":"http://www.lokmanyahospitals.in/","ppn_available":false,"doctors_count":"40","rating":0,"avg_rating":0,"review_count":10,"rating_count":10,"reviews":"120","accreditions":"NABH Entry Level","treatment_cost":"10,000-15,000","customer_expense":"NA","stay_duration":"5","primary_phone":"0253-2303381","additional_phone":"7507530162","last_updated_at":"2021-05-24 00:00:00","ppn_benefits":{"ppn_spoc_phone_no":null,"nbhi_non_payable_waiver":null,"discount_on_opd_consultation":null,"discount_on_opd_investigation":null,"discount_on_health_check_up":null,"free_ambulance":null,"ppn_spoc_name":null},"poc":null,"ir":null},{"id":23242,"provider_id":"65885","name":"Uma Hospital and Critical Care Center","address":"Suyash Chember 1 St Floor, Above Wasan Bajaj Showroom, Abhiyanta Nagar Kamatwade","city":"Nashik","state":"Maharashtra","postal_code":421301,"logo":"https://rules.nivabupa.com/media/default_hospital.svg","latitude":0,"longitude":0,"beds_count":"35","email_id":"umahospital123@gmail.com","website":null,"ppn_available":false,"doctors_count":"15","rating":0,"avg_rating":0,"review_count":6,"rating_count":6,"reviews":"120","accreditions":"NA","treatment_cost":"NA","customer_expense":"NA","stay_duration":"6","primary_phone":"8888117778","additional_phone":"8888117778","last_updated_at":"2020-11-11 00:00:00","ppn_benefits":{"ppn_spoc_phone_no":null,"nbhi_non_payable_waiver":null,"discount_on_opd_consultation":null,"discount_on_opd_investigation":null,"discount_on_health_check_up":null,"free_ambulance":null,"ppn_spoc_name":null},"poc":null,"ir":null},{"id":25436,"provider_id":"80454","name":"Dr. Nimse Bal Rugunalaya Maternity and Nursing Home","address":"1St Floor Aanand Bazar Above Kadri Gas Agency, Behind Sanjay Medical Tilak Road Bitco Point Nashik Road","city":"Nashik","state":"Maharashtra","postal_code":422101,"logo":"https://rules.nivabupa.com/media/default_hospital.svg","latitude":0,"longitude":0,"beds_count":"15","email_id":"mediclaim.rammesh@gmail.com","website":null,"ppn_available":false,"doctors_count":"6","rating":0,"avg_rating":0,"review_count":2,"rating_count":2,"reviews":"120","accreditions":"NA","treatment_cost":"NA","customer_expense":"NA","stay_duration":"7","primary_phone":"0253-2459949","additional_phone":"9970623503","last_updated_at":"2021-10-29 00:00:00","ppn_benefits":{"ppn_spoc_phone_no":null,"nbhi_non_payable_waiver":null,"discount_on_opd_consultation":null,"discount_on_opd_investigation":null,"discount_on_health_check_up":null,"free_ambulance":null,"ppn_spoc_name":null},"poc":null,"ir":null},{"id":18281,"provider_id":"20528","name":"Deogaonkar Hospital","address":"Old Pandit Colony Gangapur Road, Near K.T.H.M College","city":"Nashik","state":"Maharashtra","postal_code":422002,"logo":"https://rules.nivabupa.com/media/default_hospital.svg","latitude":19.997472,"longitude":73.789799,"beds_count":"35","email_id":"mangesh.ashu@yahoo.com","website":null,"ppn_available":false,"doctors_count":"17","rating":0,"avg_rating":0,"review_count":1,"rating_count":1,"reviews":"120","accreditions":"NA","treatment_cost":"NA","customer_expense":"NA","stay_duration":"5","primary_phone":"0253-2570424","additional_phone":"9970017115","last_updated_at":"2021-03-31 00:00:00","ppn_benefits":{"ppn_spoc_phone_no":null,"nbhi_non_payable_waiver":null,"discount_on_opd_consultation":null,"discount_on_opd_investigation":null,"discount_on_health_check_up":null,"free_ambulance":null,"ppn_spoc_name":null},"poc":null,"ir":null},{"id":47661,"provider_id":"103360","name":"Shivmudra Multispeciality Hospital","address":"Bhatgaon Road, Vadaibhoi Taluka, Chandwad, Vadaibhoi","city":"Nashik","state":"Maharashtra","postal_code":423117,"logo":"https://rules.nivabupa.com/media/default_hospital.svg","latitude":null,"longitude":null,"beds_count":"NA","email_id":"shivmudrahos@gmail.com","website":null,"ppn_available":false,"doctors_count":"NA","rating":0,"avg_rating":1,"review_count":"NA","rating_count":"NA","reviews":"120","accreditions":"NA","treatment_cost":"NA","customer_expense":"NA","stay_duration":"NA","primary_phone":"0255-6270631","additional_phone":"7709280819","last_updated_at":"NA","ppn_benefits":{"ppn_spoc_phone_no":null,"nbhi_non_payable_waiver":null,"discount_on_opd_consultation":null,"discount_on_opd_investigation":null,"discount_on_health_check_up":null,"free_ambulance":null,"ppn_spoc_name":null},"poc":null,"ir":null},{"id":47553,"provider_id":"103463","name":"Saikrupa Hospital","address":"122, 5Th Main Road, Chamarajpet","city":"Nashik","state":"Maharashtra","postal_code":422009,"logo":"https://rules.nivabupa.com/media/default_hospital.svg","latitude":null,"longitude":null,"beds_count":"NA","email_id":"bholepusk@gmail.com","website":null,"ppn_available":false,"doctors_count":"NA","rating":0,"avg_rating":1,"review_count":"NA","rating_count":"NA","reviews":"120","accreditions":"NA","treatment_cost":"NA","customer_expense":"NA","stay_duration":"NA","primary_phone":"8806107709","additional_phone":null,"last_updated_at":"NA","ppn_benefits":{"ppn_spoc_phone_no":null,"nbhi_non_payable_waiver":null,"discount_on_opd_consultation":null,"discount_on_opd_investigation":null,"discount_on_health_check_up":null,"free_ambulance":null,"ppn_spoc_name":null},"poc":null,"ir":null}]}