{"links":{"next":null,"previous":"https://rules.nivabupa.com/api/v1/hospital_rater/get_hospital_list/?city=PUNE&format=json&page=10"},"count":306,"total_pages":11,"results":[{"id":18297,"provider_id":"20564","name":"Deendayal Memorial Hospital","address":"926 Fergusan College Road Shivajinagar","city":"Pune","state":"Maharashtra","postal_code":411004,"logo":"https://rules.nivabupa.com/media/default_hospital.svg","latitude":18.524539,"longitude":73.841321,"beds_count":"71","email_id":"dmhpune@hotmail.com","website":"http://www.deendayalhospital.com/","ppn_available":false,"doctors_count":"25","rating":0,"avg_rating":0,"review_count":1,"rating_count":1,"reviews":"120","accreditions":"NA","treatment_cost":"NA","customer_expense":"NA","stay_duration":"NA","primary_phone":"020-66498888","additional_phone":"020-66498888","last_updated_at":"2021-03-31 00:00:00","ppn_benefits":{"ppn_spoc_phone_no":null,"nbhi_non_payable_waiver":null,"discount_on_opd_consultation":null,"discount_on_opd_investigation":null,"discount_on_health_check_up":null,"free_ambulance":null,"ppn_spoc_name":null},"poc":null,"ir":null},{"id":18381,"provider_id":"20770","name":"Sanjeevani Nursing Home Pune","address":"Pune Solapur Road Gadital Hadapsar","city":"Pune","state":"Maharashtra","postal_code":411028,"logo":"https://rules.nivabupa.com/media/default_hospital.svg","latitude":18.500578,"longitude":73.942595,"beds_count":"30","email_id":"sanjiwanihospital@hotmail.com","website":"http://www.smfarc.org/","ppn_available":false,"doctors_count":"16","rating":0,"avg_rating":0,"review_count":"NA","rating_count":"NA","reviews":"120","accreditions":"NABH Entry Level","treatment_cost":"NA","customer_expense":"NA","stay_duration":"NA","primary_phone":"020-26991375","additional_phone":"020-26991375","last_updated_at":"2021-01-11 00:00:00","ppn_benefits":{"ppn_spoc_phone_no":null,"nbhi_non_payable_waiver":null,"discount_on_opd_consultation":null,"discount_on_opd_investigation":null,"discount_on_health_check_up":null,"free_ambulance":null,"ppn_spoc_name":null},"poc":null,"ir":null},{"id":18422,"provider_id":"20934","name":"ONP Tulip","address":"402/A Gokhalenagar Off Senapati Bapat Road Near Dominos Pizza","city":"Pune","state":"Maharashtra","postal_code":411016,"logo":"https://rules.nivabupa.com/media/default_hospital.svg","latitude":18.529439,"longitude":73.828479,"beds_count":"103","email_id":"mediclaim@onphospital.org","website":"http://www.onphospital.org/","ppn_available":false,"doctors_count":"42","rating":0,"avg_rating":0,"review_count":"NA","rating_count":"NA","reviews":"120","accreditions":"NA","treatment_cost":"NA","customer_expense":"NA","stay_duration":"4","primary_phone":"020-67216600","additional_phone":"020-67216600","last_updated_at":"2021-03-31 00:00:00","ppn_benefits":{"ppn_spoc_phone_no":null,"nbhi_non_payable_waiver":null,"discount_on_opd_consultation":null,"discount_on_opd_investigation":null,"discount_on_health_check_up":null,"free_ambulance":null,"ppn_spoc_name":null},"poc":null,"ir":null},{"id":18732,"provider_id":"22212","name":"Karne Hospital Pvt Ltd.","address":"Near Laxminarayan Theatre Satara Road","city":"Pune","state":"Maharashtra","postal_code":411037,"logo":"https://rules.nivabupa.com/media/default_hospital.svg","latitude":18.497304,"longitude":73.858035,"beds_count":"23","email_id":"njk@karnehospital.com","website":null,"ppn_available":false,"doctors_count":"6","rating":0,"avg_rating":0,"review_count":"NA","rating_count":"NA","reviews":"120","accreditions":"NA","treatment_cost":"NA","customer_expense":"NA","stay_duration":"5","primary_phone":"020-24265148","additional_phone":"7875446468","last_updated_at":"2021-03-31 00:00:00","ppn_benefits":{"ppn_spoc_phone_no":null,"nbhi_non_payable_waiver":null,"discount_on_opd_consultation":null,"discount_on_opd_investigation":null,"discount_on_health_check_up":null,"free_ambulance":null,"ppn_spoc_name":null},"poc":null,"ir":null},{"id":47552,"provider_id":"103458","name":"Healthshield Health Care LLP's Omkar Hospital","address":"422/2221, 202/1099, Sant Tukaram Nagar, Pimpri","city":"Pune","state":"Maharashtra","postal_code":411018,"logo":"https://rules.nivabupa.com/media/default_hospital.svg","latitude":null,"longitude":null,"beds_count":"NA","email_id":"omkarhospital108@gmail.com","website":null,"ppn_available":false,"doctors_count":"NA","rating":0,"avg_rating":1,"review_count":"NA","rating_count":"NA","reviews":"120","accreditions":"NA","treatment_cost":"NA","customer_expense":"NA","stay_duration":"NA","primary_phone":"9552202202","additional_phone":"7276251349","last_updated_at":"NA","ppn_benefits":{"ppn_spoc_phone_no":null,"nbhi_non_payable_waiver":null,"discount_on_opd_consultation":null,"discount_on_opd_investigation":null,"discount_on_health_check_up":null,"free_ambulance":null,"ppn_spoc_name":null},"poc":null,"ir":null},{"id":47160,"provider_id":"101936","name":"Eras Bharti Hospital","address":"Ganesham Commercial A Building, Shop No. 14,1,3 &Amp; 4Th Floor, Near Govind Yashada Chowk, Brt Link Road, Pimple Saudagar","city":"Pune","state":"Maharashtra","postal_code":411027,"logo":"https://rules.nivabupa.com/media/default_hospital.svg","latitude":null,"longitude":null,"beds_count":"NA","email_id":"insurance.erasbhartihospital@gmail.com","website":"https://www.bhartihospitalpune.com/","ppn_available":false,"doctors_count":"NA","rating":0,"avg_rating":1,"review_count":"NA","rating_count":"NA","reviews":"120","accreditions":"NA","treatment_cost":"NA","customer_expense":"NA","stay_duration":"NA","primary_phone":"9090919264","additional_phone":"9075051075","last_updated_at":"NA","ppn_benefits":{"ppn_spoc_phone_no":null,"nbhi_non_payable_waiver":null,"discount_on_opd_consultation":null,"discount_on_opd_investigation":null,"discount_on_health_check_up":null,"free_ambulance":null,"ppn_spoc_name":null},"poc":null,"ir":null}]}