{"links":{"next":null,"previous":"https://rules.nivabupa.com/api/v1/hospital_rater/get_hospital_list/?city=Thane&format=json&page=9"},"count":271,"total_pages":10,"results":[{"id":19086,"provider_id":"26546","name":"Jivdani Hospitals Pvt Ltd.","address":"C/O Alliance Hospital Tulinj Road Nallasopara","city":"Thane","state":"Maharashtra","postal_code":401209,"logo":"https://rules.nivabupa.com/media/default_hospital.svg","latitude":19.433936,"longitude":72.845535,"beds_count":"70","email_id":"alliancehospital@rediffmail.com","website":"http://www.alliancehospital.in/","ppn_available":false,"doctors_count":"25","rating":0,"avg_rating":0,"review_count":5,"rating_count":5,"reviews":"120","accreditions":"NABH Entry Level","treatment_cost":"NA","customer_expense":"NA","stay_duration":"4","primary_phone":"2506297777","additional_phone":"9096002928","last_updated_at":"2021-07-20 00:00:00","ppn_benefits":{"ppn_spoc_phone_no":null,"nbhi_non_payable_waiver":null,"discount_on_opd_consultation":null,"discount_on_opd_investigation":null,"discount_on_health_check_up":null,"free_ambulance":null,"ppn_spoc_name":null},"poc":null,"ir":null}]}