{"links":{"next":null,"previous":"https://rules.nivabupa.com/api/v1/hospital_rater/get_hospital_list/?city=Jaipur&format=json&page=6"},"count":203,"total_pages":7,"results":[{"id":25444,"provider_id":"80471","name":"Shri Brij Fracture Hospital","address":"143 Bal Vihar Near 200 Feet Bypass, Kalwar Road Jhotwara","city":"Jaipur","state":"Rajasthan","postal_code":302012,"logo":"https://rules.nivabupa.com/media/default_hospital.svg","latitude":0,"longitude":0,"beds_count":"30","email_id":"shribrijfracturehospital@gmail.com","website":null,"ppn_available":false,"doctors_count":"2","rating":0,"avg_rating":0,"review_count":"NA","rating_count":"NA","reviews":"120","accreditions":"NA","treatment_cost":"NA","customer_expense":"NA","stay_duration":"2","primary_phone":"0141-2349234","additional_phone":"6367443009","last_updated_at":"2021-10-29 00:00:00","ppn_benefits":{"ppn_spoc_phone_no":null,"nbhi_non_payable_waiver":null,"discount_on_opd_consultation":null,"discount_on_opd_investigation":null,"discount_on_health_check_up":null,"free_ambulance":null,"ppn_spoc_name":null},"poc":null,"ir":null},{"id":25453,"provider_id":"80513","name":"Deshbandhu ENT Hospital Jaipur","address":"67/1A Heera Path New Sanganer Road Near Shahid Bhagwan Singh Petrol Pump Mansarovar","city":"Jaipur","state":"Rajasthan","postal_code":302020,"logo":"https://rules.nivabupa.com/media/default_hospital.svg","latitude":0,"longitude":0,"beds_count":"30","email_id":"drdeshbandhujain@gmail.com","website":null,"ppn_available":false,"doctors_count":"10","rating":0,"avg_rating":0,"review_count":"NA","rating_count":"NA","reviews":"120","accreditions":"NA","treatment_cost":"NA","customer_expense":"NA","stay_duration":"NA","primary_phone":"9829242044","additional_phone":"9468883321","last_updated_at":"2021-10-30 00:00:00","ppn_benefits":{"ppn_spoc_phone_no":null,"nbhi_non_payable_waiver":null,"discount_on_opd_consultation":null,"discount_on_opd_investigation":null,"discount_on_health_check_up":null,"free_ambulance":null,"ppn_spoc_name":null},"poc":null,"ir":null},{"id":26390,"provider_id":"88268","name":"Apex Hospital Mansarovar Pvt Ltd.","address":"Vidhyanchal Marg Near Parshuram Bhavan, Sector - 5 Zone - 55 Rajat Path Mansarovar","city":"Jaipur","state":"Rajasthan","postal_code":302020,"logo":"https://rules.nivabupa.com/media/default_hospital.svg","latitude":null,"longitude":null,"beds_count":"50","email_id":"head.mns@apexhospitals.com","website":null,"ppn_available":false,"doctors_count":"15","rating":0,"avg_rating":0,"review_count":1,"rating_count":1,"reviews":"120","accreditions":"NABH Higher Level","treatment_cost":"NA","customer_expense":"NA","stay_duration":"NA","primary_phone":"0141-4109999","additional_phone":"8742079284","last_updated_at":"2022-03-29 00:00:00","ppn_benefits":{"ppn_spoc_phone_no":null,"nbhi_non_payable_waiver":null,"discount_on_opd_consultation":null,"discount_on_opd_investigation":null,"discount_on_health_check_up":null,"free_ambulance":null,"ppn_spoc_name":null},"poc":null,"ir":null},{"id":26590,"provider_id":"91147","name":"Siyaram Hospital and Research Centre Pvt Ltd.","address":"B - 22 Chand Bihari Nagar Khatipura","city":"Jaipur","state":"Rajasthan","postal_code":302012,"logo":"https://rules.nivabupa.com/media/default_hospital.svg","latitude":null,"longitude":null,"beds_count":"NA","email_id":"siyaramhospital6@gmail.com","website":null,"ppn_available":false,"doctors_count":"NA","rating":0,"avg_rating":0,"review_count":"NA","rating_count":"NA","reviews":"120","accreditions":"NA","treatment_cost":"NA","customer_expense":"NA","stay_duration":"NA","primary_phone":"9783069165","additional_phone":"9828955227","last_updated_at":"NA","ppn_benefits":{"ppn_spoc_phone_no":null,"nbhi_non_payable_waiver":null,"discount_on_opd_consultation":null,"discount_on_opd_investigation":null,"discount_on_health_check_up":null,"free_ambulance":null,"ppn_spoc_name":null},"poc":null,"ir":null},{"id":23637,"provider_id":"67241","name":"Jain Hospital","address":"605-606 Shanti Path Sindhi Colony Raja Park.","city":"Jaipur","state":"Rajasthan","postal_code":302004,"logo":"https://rules.nivabupa.com/media/default_hospital.svg","latitude":26.89676,"longitude":75.83735,"beds_count":"50","email_id":"jainpriti2711@gmail.com","website":null,"ppn_available":false,"doctors_count":"19","rating":0,"avg_rating":0,"review_count":1,"rating_count":1,"reviews":"120","accreditions":"NABH Entry Level","treatment_cost":"NA","customer_expense":"NA","stay_duration":"NA","primary_phone":"9829221121","additional_phone":"9829221121","last_updated_at":"2021-03-23 00:00:00","ppn_benefits":{"ppn_spoc_phone_no":null,"nbhi_non_payable_waiver":null,"discount_on_opd_consultation":null,"discount_on_opd_investigation":null,"discount_on_health_check_up":null,"free_ambulance":null,"ppn_spoc_name":null},"poc":null,"ir":null},{"id":25982,"provider_id":"85044","name":"Balaji Cure and Care Hospital Pvt. Ltd.","address":"20-E Pradhan Tower Ramnath Garden Meenawalal Sirsi Road Kanakpura Bus Stand","city":"Jaipur","state":"Rajasthan","postal_code":302012,"logo":"https://rules.nivabupa.com/media/default_hospital.svg","latitude":0,"longitude":0,"beds_count":"50","email_id":"yadav86sushil@gmail.com","website":"http://www.balajihospitals.in/","ppn_available":false,"doctors_count":"13","rating":0,"avg_rating":0,"review_count":"NA","rating_count":"NA","reviews":"120","accreditions":"NABH Entry Level","treatment_cost":"NA","customer_expense":"NA","stay_duration":"NA","primary_phone":"0141-2240633","additional_phone":"8104646566","last_updated_at":"2022-01-27 00:00:00","ppn_benefits":{"ppn_spoc_phone_no":null,"nbhi_non_payable_waiver":null,"discount_on_opd_consultation":null,"discount_on_opd_investigation":null,"discount_on_health_check_up":null,"free_ambulance":null,"ppn_spoc_name":null},"poc":null,"ir":null},{"id":26391,"provider_id":"88269","name":"Ratan Netralaya","address":"A-7 Vijay Path Opposite Gurjar Hostel Tilak Nagar","city":"Jaipur","state":"Rajasthan","postal_code":302004,"logo":"https://rules.nivabupa.com/media/default_hospital.svg","latitude":null,"longitude":null,"beds_count":"1","email_id":"ratannetralaya@gmail.com","website":null,"ppn_available":false,"doctors_count":"6","rating":0,"avg_rating":0,"review_count":1,"rating_count":1,"reviews":"120","accreditions":"NABH Entry Level","treatment_cost":"NA","customer_expense":"NA","stay_duration":"NA","primary_phone":"0141-2622882","additional_phone":"0141-2622882","last_updated_at":"2022-03-29 00:00:00","ppn_benefits":{"ppn_spoc_phone_no":null,"nbhi_non_payable_waiver":null,"discount_on_opd_consultation":null,"discount_on_opd_investigation":null,"discount_on_health_check_up":null,"free_ambulance":null,"ppn_spoc_name":null},"poc":null,"ir":null},{"id":18919,"provider_id":"23544","name":"Jain Eye Clinic & Hospital","address":"K4A Fatehtiba M.D. Road, Adarsh Nagar","city":"Jaipur","state":"Rajasthan","postal_code":302004,"logo":"https://rules.nivabupa.com/media/default_hospital.svg","latitude":26.908906,"longitude":75.823774,"beds_count":"27","email_id":"drmrjain55@gmail.com","website":"http://www.mar-jaineye.com/","ppn_available":false,"doctors_count":"15","rating":0,"avg_rating":0,"review_count":"NA","rating_count":"NA","reviews":"120","accreditions":"NA","treatment_cost":"NA","customer_expense":"NA","stay_duration":"NA","primary_phone":"0141-2611211","additional_phone":"9928073304","last_updated_at":"2021-03-31 00:00:00","ppn_benefits":{"ppn_spoc_phone_no":null,"nbhi_non_payable_waiver":null,"discount_on_opd_consultation":null,"discount_on_opd_investigation":null,"discount_on_health_check_up":null,"free_ambulance":null,"ppn_spoc_name":null},"poc":null,"ir":null},{"id":18902,"provider_id":"23390","name":"Shubh Hospital","address":"A-35 Vidyut Nagar Ajmer Road","city":"Jaipur","state":"Rajasthan","postal_code":302021,"logo":"https://rules.nivabupa.com/media/default_hospital.svg","latitude":26.897999,"longitude":75.752142,"beds_count":"40","email_id":"shbhhospital@gmail.com;","website":"http://www.shubhhospital.com/","ppn_available":false,"doctors_count":"24","rating":0,"avg_rating":0,"review_count":3,"rating_count":3,"reviews":"120","accreditions":"NABH Entry Level","treatment_cost":"NA","customer_expense":"NA","stay_duration":"4","primary_phone":"0141-2245987","additional_phone":"0141-2245987","last_updated_at":"2021-02-11 00:00:00","ppn_benefits":{"ppn_spoc_phone_no":null,"nbhi_non_payable_waiver":null,"discount_on_opd_consultation":null,"discount_on_opd_investigation":null,"discount_on_health_check_up":null,"free_ambulance":null,"ppn_spoc_name":null},"poc":null,"ir":null},{"id":18918,"provider_id":"23543","name":"Jyoti Nursing Home Pvt. Ltd.","address":"Opp. Sbi Bank Road No-4 Vkia","city":"Jaipur","state":"Rajasthan","postal_code":302013,"logo":"https://rules.nivabupa.com/media/default_hospital.svg","latitude":26.996469,"longitude":75.78656,"beds_count":"50","email_id":"jyoticashless@yahoo.in","website":"http://www.jyotinursinghome.in/","ppn_available":false,"doctors_count":"16","rating":0,"avg_rating":0,"review_count":4,"rating_count":4,"reviews":"120","accreditions":"NABH Higher Level","treatment_cost":"NA","customer_expense":"NA","stay_duration":"7","primary_phone":"0141-4047144","additional_phone":"9166839839","last_updated_at":"2021-04-01 00:00:00","ppn_benefits":{"ppn_spoc_phone_no":null,"nbhi_non_payable_waiver":null,"discount_on_opd_consultation":null,"discount_on_opd_investigation":null,"discount_on_health_check_up":null,"free_ambulance":null,"ppn_spoc_name":null},"poc":null,"ir":null},{"id":17999,"provider_id":"20096","name":"Dr. Agarwal's Eye Hospital Jaipur","address":"No. A-2, Jamnalal Bajaj Marg, C-Scheme","city":"Jaipur","state":"Rajasthan","postal_code":302001,"logo":"https://rules.nivabupa.com/media/hospital_images/20096.png","latitude":0,"longitude":0,"beds_count":"5","email_id":"tpa@dragarwal.com","website":"https://www.dragarwal.com/","ppn_available":false,"doctors_count":"2","rating":0,"avg_rating":0,"review_count":"NA","rating_count":"NA","reviews":"120","accreditions":"NA","treatment_cost":"NA","customer_expense":"NA","stay_duration":"1","primary_phone":"0141-5111851","additional_phone":"9829090916","last_updated_at":"2021-03-31 00:00:00","ppn_benefits":{"ppn_spoc_phone_no":null,"nbhi_non_payable_waiver":null,"discount_on_opd_consultation":null,"discount_on_opd_investigation":null,"discount_on_health_check_up":null,"free_ambulance":null,"ppn_spoc_name":null},"poc":null,"ir":null},{"id":18134,"provider_id":"20292","name":"Metro Hospital and Research Centre","address":"203 Officer'S Campus Sirsi Road, Khatipura","city":"Jaipur","state":"Rajasthan","postal_code":302012,"logo":"https://rules.nivabupa.com/media/default_hospital.svg","latitude":26.921231,"longitude":75.731225,"beds_count":"50","email_id":"dilipsinghmetro@yahoo.co.in","website":null,"ppn_available":false,"doctors_count":"2","rating":0,"avg_rating":0,"review_count":"NA","rating_count":"NA","reviews":"120","accreditions":"NA","treatment_cost":"NA","customer_expense":"NA","stay_duration":"0","primary_phone":"0141-2355948","additional_phone":"0141-2355948","last_updated_at":"2021-01-11 00:00:00","ppn_benefits":{"ppn_spoc_phone_no":null,"nbhi_non_payable_waiver":null,"discount_on_opd_consultation":null,"discount_on_opd_investigation":null,"discount_on_health_check_up":null,"free_ambulance":null,"ppn_spoc_name":null},"poc":null,"ir":null},{"id":18170,"provider_id":"20355","name":"Apex Hospital Jaipur4","address":"Sp 4 & 6 Malviya Industrial Area, Malviya Nagar","city":"Jaipur","state":"Rajasthan","postal_code":302017,"logo":"https://rules.nivabupa.com/media/default_hospital.svg","latitude":26.855034,"longitude":75.825054,"beds_count":"70","email_id":"myadav2006@yahoo.com","website":"http://www.apexhospital.in/","ppn_available":false,"doctors_count":"25","rating":0,"avg_rating":0,"review_count":9,"rating_count":9,"reviews":"120","accreditions":"NABH Higher Level","treatment_cost":"5,000-10,000","customer_expense":"NA","stay_duration":"4","primary_phone":"0141-2751871","additional_phone":"0141-2751871","last_updated_at":"2021-07-20 00:00:00","ppn_benefits":{"ppn_spoc_phone_no":null,"nbhi_non_payable_waiver":null,"discount_on_opd_consultation":null,"discount_on_opd_investigation":null,"discount_on_health_check_up":null,"free_ambulance":null,"ppn_spoc_name":null},"poc":null,"ir":null},{"id":18146,"provider_id":"20307","name":"Manu Hospital and Research Centre","address":"A-1 Shyam Nagar, Sodala","city":"Jaipur","state":"Rajasthan","postal_code":302019,"logo":"https://rules.nivabupa.com/media/default_hospital.svg","latitude":26.89793,"longitude":75.76797,"beds_count":"50","email_id":"dr_raviagrawal@rediffmail.com","website":null,"ppn_available":false,"doctors_count":"21","rating":0,"avg_rating":0,"review_count":"NA","rating_count":"NA","reviews":"120","accreditions":"NA","treatment_cost":"NA","customer_expense":"NA","stay_duration":"NA","primary_phone":"0141-2292530","additional_phone":"0141-2292530","last_updated_at":"2021-03-31 00:00:00","ppn_benefits":{"ppn_spoc_phone_no":null,"nbhi_non_payable_waiver":null,"discount_on_opd_consultation":null,"discount_on_opd_investigation":null,"discount_on_health_check_up":null,"free_ambulance":null,"ppn_spoc_name":null},"poc":null,"ir":null},{"id":18154,"provider_id":"20320","name":"Gopinath Hospital","address":"Pratap Nagar, Sanganer","city":"Jaipur","state":"Rajasthan","postal_code":302033,"logo":"https://rules.nivabupa.com/media/default_hospital.svg","latitude":26.852254,"longitude":75.77231,"beds_count":"50","email_id":"hospitalgopinath@gmail.com","website":null,"ppn_available":false,"doctors_count":"21","rating":0,"avg_rating":0,"review_count":"NA","rating_count":"NA","reviews":"120","accreditions":"NABH Entry Level","treatment_cost":"NA","customer_expense":"NA","stay_duration":"7","primary_phone":"0141-2793334","additional_phone":"0141-2793334","last_updated_at":"2021-01-11 00:00:00","ppn_benefits":{"ppn_spoc_phone_no":null,"nbhi_non_payable_waiver":null,"discount_on_opd_consultation":null,"discount_on_opd_investigation":null,"discount_on_health_check_up":null,"free_ambulance":null,"ppn_spoc_name":null},"poc":null,"ir":null},{"id":18159,"provider_id":"20327","name":"Bansal Hospital","address":"B-106 Janpath Shyam Nagar","city":"Jaipur","state":"Rajasthan","postal_code":302019,"logo":"https://rules.nivabupa.com/media/default_hospital.svg","latitude":26.89312,"longitude":75.76312,"beds_count":"50","email_id":"saratbansal@gmail.com","website":null,"ppn_available":false,"doctors_count":"21","rating":0,"avg_rating":0,"review_count":"NA","rating_count":"NA","reviews":"120","accreditions":"NA","treatment_cost":"NA","customer_expense":"NA","stay_duration":"NA","primary_phone":"0141-6453838","additional_phone":"9660000648","last_updated_at":"2021-03-31 00:00:00","ppn_benefits":{"ppn_spoc_phone_no":null,"nbhi_non_payable_waiver":null,"discount_on_opd_consultation":null,"discount_on_opd_investigation":null,"discount_on_health_check_up":null,"free_ambulance":null,"ppn_spoc_name":null},"poc":null,"ir":null},{"id":18185,"provider_id":"20381","name":"Aditi Hospital & Eye Centre","address":"B-9/632 Chitrakoot Scheme, Ajmer Road","city":"Jaipur","state":"Rajasthan","postal_code":302021,"logo":"https://rules.nivabupa.com/media/default_hospital.svg","latitude":26.894224,"longitude":75.821706,"beds_count":"15","email_id":"rkvophthal@rediffmail.com","website":null,"ppn_available":false,"doctors_count":"7","rating":0,"avg_rating":0,"review_count":"NA","rating_count":"NA","reviews":"120","accreditions":"NA","treatment_cost":"NA","customer_expense":"NA","stay_duration":"NA","primary_phone":"0141-2441575","additional_phone":"9829059970","last_updated_at":"2021-03-31 00:00:00","ppn_benefits":{"ppn_spoc_phone_no":null,"nbhi_non_payable_waiver":null,"discount_on_opd_consultation":null,"discount_on_opd_investigation":null,"discount_on_health_check_up":null,"free_ambulance":null,"ppn_spoc_name":null},"poc":null,"ir":null},{"id":18169,"provider_id":"20354","name":"Bhandari Hospital & Research Centre","address":"138-A Vasundhara Colony, Gopalpura By-Pass Tonk Road","city":"Jaipur","state":"Rajasthan","postal_code":302018,"logo":"https://rules.nivabupa.com/media/default_hospital.svg","latitude":15.495602,"longitude":73.825209,"beds_count":"150","email_id":"contact@bhandarihospital.net","website":"http://www.bhandarihospital.net/","ppn_available":false,"doctors_count":"53","rating":0,"avg_rating":0,"review_count":4,"rating_count":4,"reviews":"120","accreditions":"NABH Higher Level","treatment_cost":"NA","customer_expense":"NA","stay_duration":"5","primary_phone":"0141-2703851","additional_phone":"0141-2703851","last_updated_at":"2021-07-20 00:00:00","ppn_benefits":{"ppn_spoc_phone_no":null,"nbhi_non_payable_waiver":null,"discount_on_opd_consultation":null,"discount_on_opd_investigation":null,"discount_on_health_check_up":null,"free_ambulance":null,"ppn_spoc_name":null},"poc":null,"ir":null},{"id":18200,"provider_id":"20408","name":"Soni Hospital","address":"38 Kanota Bagh Jln Marg","city":"Jaipur","state":"Rajasthan","postal_code":302004,"logo":"https://rules.nivabupa.com/media/default_hospital.svg","latitude":26.968972,"longitude":75.773303,"beds_count":"150","email_id":"vasudev.janyani@sonihospitals.com","website":null,"ppn_available":false,"doctors_count":"53","rating":0,"avg_rating":0,"review_count":3,"rating_count":3,"reviews":"120","accreditions":"NABH Higher Level","treatment_cost":"NA","customer_expense":"NA","stay_duration":"10","primary_phone":"0141-5163795","additional_phone":"9785728808","last_updated_at":"2021-07-20 00:00:00","ppn_benefits":{"ppn_spoc_phone_no":null,"nbhi_non_payable_waiver":null,"discount_on_opd_consultation":null,"discount_on_opd_investigation":null,"discount_on_health_check_up":null,"free_ambulance":null,"ppn_spoc_name":null},"poc":null,"ir":null},{"id":18208,"provider_id":"20419","name":"Heart & General Hospital","address":"7-Vivekanand Marg C-Scheme","city":"Jaipur","state":"Rajasthan","postal_code":302001,"logo":"https://rules.nivabupa.com/media/default_hospital.svg","latitude":26.908284,"longitude":75.811939,"beds_count":"100","email_id":"hnghmediclaim@gmail.com","website":null,"ppn_available":false,"doctors_count":"42","rating":0,"avg_rating":0,"review_count":1,"rating_count":1,"reviews":"120","accreditions":"NABH Higher Level","treatment_cost":"NA","customer_expense":"NA","stay_duration":"4","primary_phone":"0141-2370271","additional_phone":"0141-2370271","last_updated_at":"2021-02-25 00:00:00","ppn_benefits":{"ppn_spoc_phone_no":null,"nbhi_non_payable_waiver":null,"discount_on_opd_consultation":null,"discount_on_opd_investigation":null,"discount_on_health_check_up":null,"free_ambulance":null,"ppn_spoc_name":null},"poc":null,"ir":null},{"id":18217,"provider_id":"20439","name":"Dhanwantri Hospital & Research Centre","address":"67/56-A Near Mandra Bus Stand, New Sanganer Road Mansarovar","city":"Jaipur","state":"Rajasthan","postal_code":302020,"logo":"https://rules.nivabupa.com/media/default_hospital.svg","latitude":26.871856,"longitude":75.756912,"beds_count":"150","email_id":"dhanwantri_hospital@yahoo.com","website":"http://www.dhanwantrihospital.com/","ppn_available":false,"doctors_count":"53","rating":0,"avg_rating":0,"review_count":"NA","rating_count":"NA","reviews":"120","accreditions":"NABH Entry Level","treatment_cost":"NA","customer_expense":"NA","stay_duration":"5","primary_phone":"0141-2780760","additional_phone":"0141-2780760","last_updated_at":"2021-07-20 00:00:00","ppn_benefits":{"ppn_spoc_phone_no":null,"nbhi_non_payable_waiver":null,"discount_on_opd_consultation":null,"discount_on_opd_investigation":null,"discount_on_health_check_up":null,"free_ambulance":null,"ppn_spoc_name":null},"poc":null,"ir":null},{"id":47527,"provider_id":"103250","name":"Anupam Eye Hospital And Research Centre Private Limited","address":"C-30, Pankaj Singhvi Marg, Vidhan Sabha Road, Lal Kothi","city":"Jaipur","state":"Rajasthan","postal_code":302015,"logo":"https://rules.nivabupa.com/media/default_hospital.svg","latitude":null,"longitude":null,"beds_count":"NA","email_id":"anupamhospital2002@gmail.com","website":"https://anupameyehospital.com/","ppn_available":false,"doctors_count":"NA","rating":0,"avg_rating":1,"review_count":"NA","rating_count":"NA","reviews":"120","accreditions":"NA","treatment_cost":"NA","customer_expense":"NA","stay_duration":"NA","primary_phone":"0141-2744010","additional_phone":"9799560868","last_updated_at":"NA","ppn_benefits":{"ppn_spoc_phone_no":null,"nbhi_non_payable_waiver":null,"discount_on_opd_consultation":null,"discount_on_opd_investigation":null,"discount_on_health_check_up":null,"free_ambulance":null,"ppn_spoc_name":null},"poc":null,"ir":null},{"id":47523,"provider_id":"103134","name":"Amar Jain Hospital","address":"C-374, Amarapali Circle, Vaishali Nagar","city":"Jaipur","state":"Rajasthan","postal_code":302021,"logo":"https://rules.nivabupa.com/media/default_hospital.svg","latitude":null,"longitude":null,"beds_count":"NA","email_id":"tpa.ajh@whcglobal.in","website":null,"ppn_available":false,"doctors_count":"NA","rating":0,"avg_rating":1,"review_count":"NA","rating_count":"NA","reviews":"120","accreditions":"NA","treatment_cost":"NA","customer_expense":"NA","stay_duration":"NA","primary_phone":"9549219991","additional_phone":null,"last_updated_at":"NA","ppn_benefits":{"ppn_spoc_phone_no":null,"nbhi_non_payable_waiver":null,"discount_on_opd_consultation":null,"discount_on_opd_investigation":null,"discount_on_health_check_up":null,"free_ambulance":null,"ppn_spoc_name":null},"poc":null,"ir":null}]}