{"links":{"next":null,"previous":"https://rules.nivabupa.com/api/v1/hospital_rater/get_hospital_list/?city=AHMEDABAD&format=json&page=4"},"count":147,"total_pages":5,"results":[{"id":19301,"provider_id":"28801","name":"Bopal Eye Care Centre","address":"Office No: Bs 22 To 25 Second Floor Amrapali Mall","city":"Ahmedabad","state":"Gujarat","postal_code":380058,"logo":"https://rules.nivabupa.com/media/default_hospital.svg","latitude":23.028871,"longitude":72.477541,"beds_count":"2","email_id":"alpeshshahahd@yahoo.com","website":null,"ppn_available":false,"doctors_count":"1","rating":0,"avg_rating":0,"review_count":1,"rating_count":1,"reviews":"120","accreditions":"NABH Entry Level","treatment_cost":"NA","customer_expense":"NA","stay_duration":"1","primary_phone":"2717231390","additional_phone":"2717231390","last_updated_at":"2021-01-08 00:00:00","ppn_benefits":{"ppn_spoc_phone_no":null,"nbhi_non_payable_waiver":null,"discount_on_opd_consultation":null,"discount_on_opd_investigation":null,"discount_on_health_check_up":null,"free_ambulance":null,"ppn_spoc_name":null},"poc":null,"ir":null},{"id":19441,"provider_id":"29153","name":"Tulip Hospital","address":"Kala Tirth Above Hdfc Bank Prerenatorth Derasar Road Jodhpur","city":"Ahmedabad","state":"Gujarat","postal_code":380015,"logo":"https://rules.nivabupa.com/media/default_hospital.svg","latitude":23.020064,"longitude":72.51886,"beds_count":"10","email_id":"tulipwomenshospital@gmail.com","website":"http://www.tulipwomenshospital.com/","ppn_available":false,"doctors_count":"2","rating":0,"avg_rating":0,"review_count":1,"rating_count":1,"reviews":"120","accreditions":"NA","treatment_cost":"NA","customer_expense":"NA","stay_duration":"NA","primary_phone":"079-40062060","additional_phone":"9725040647","last_updated_at":"2021-01-07 00:00:00","ppn_benefits":{"ppn_spoc_phone_no":null,"nbhi_non_payable_waiver":null,"discount_on_opd_consultation":null,"discount_on_opd_investigation":null,"discount_on_health_check_up":null,"free_ambulance":null,"ppn_spoc_name":null},"poc":null,"ir":null},{"id":18337,"provider_id":"20642","name":"Krishna Heart & Super Specialty Institute Ghuma","address":"319, Green City, Ghuma,","city":"Ahmedabad","state":"Gujarat","postal_code":380058,"logo":"https://rules.nivabupa.com/media/default_hospital.svg","latitude":0,"longitude":0,"beds_count":"60","email_id":"mediclaim.krishna@shalby.org","website":"http://www.krishnaheart.org/","ppn_available":false,"doctors_count":"25","rating":0,"avg_rating":0,"review_count":2,"rating_count":2,"reviews":"120","accreditions":"NABH Higher Level","treatment_cost":"NA","customer_expense":"NA","stay_duration":"3","primary_phone":"02717-230877","additional_phone":"9898500570","last_updated_at":"2021-07-20 00:00:00","ppn_benefits":{"ppn_spoc_phone_no":null,"nbhi_non_payable_waiver":null,"discount_on_opd_consultation":null,"discount_on_opd_investigation":null,"discount_on_health_check_up":null,"free_ambulance":null,"ppn_spoc_name":null},"poc":null,"ir":null},{"id":19066,"provider_id":"26290","name":"Vasan Eye Care Hospital Ahmedabad","address":"Panchavati Circle Law Garden Road Ahmedabad","city":"Ahmedabad","state":"Gujarat","postal_code":380007,"logo":"https://rules.nivabupa.com/media/default_hospital.svg","latitude":23.02363,"longitude":72.55758,"beds_count":"5","email_id":"cashless.vasan@gmail.com","website":null,"ppn_available":false,"doctors_count":"3","rating":0,"avg_rating":0,"review_count":"NA","rating_count":"NA","reviews":"120","accreditions":"NA","treatment_cost":"NA","customer_expense":"NA","stay_duration":"NA","primary_phone":"079-30929200","additional_phone":"9925043836","last_updated_at":"2021-07-20 00:00:00","ppn_benefits":{"ppn_spoc_phone_no":null,"nbhi_non_payable_waiver":null,"discount_on_opd_consultation":null,"discount_on_opd_investigation":null,"discount_on_health_check_up":null,"free_ambulance":null,"ppn_spoc_name":null},"poc":null,"ir":null},{"id":25405,"provider_id":"80259","name":"Livewell Hospital","address":"B-502 Rudra Arcade B Nr. Helmet Circle, Drive In Road 132 Ring Road Memnagar","city":"Ahmedabad","state":"Gujarat","postal_code":380052,"logo":"https://rules.nivabupa.com/media/default_hospital.svg","latitude":0,"longitude":0,"beds_count":"15","email_id":"livewellhospital@gmail.com","website":null,"ppn_available":false,"doctors_count":"8","rating":0,"avg_rating":0,"review_count":3,"rating_count":3,"reviews":"120","accreditions":"NABH Entry Level","treatment_cost":"NA","customer_expense":"NA","stay_duration":"NA","primary_phone":"9016290799","additional_phone":"9016290799","last_updated_at":"2021-10-26 00:00:00","ppn_benefits":{"ppn_spoc_phone_no":null,"nbhi_non_payable_waiver":null,"discount_on_opd_consultation":null,"discount_on_opd_investigation":null,"discount_on_health_check_up":null,"free_ambulance":null,"ppn_spoc_name":null},"poc":null,"ir":null},{"id":25786,"provider_id":"83337","name":"Babycare Children Hospital","address":"D 303 304 306 309 To 312 Galaxy Arcade, Near Amts Bus Stand Opp Galaxy Cinema","city":"Ahmedabad","state":"Gujarat","postal_code":382330,"logo":"https://rules.nivabupa.com/media/default_hospital.svg","latitude":0,"longitude":0,"beds_count":"36","email_id":"babycare.am@gmail.com","website":null,"ppn_available":false,"doctors_count":"16","rating":0,"avg_rating":0,"review_count":1,"rating_count":1,"reviews":"120","accreditions":"NABH Entry Level","treatment_cost":"NA","customer_expense":"NA","stay_duration":"NA","primary_phone":"079-22816065","additional_phone":"9924536381","last_updated_at":"2021-12-27 00:00:00","ppn_benefits":{"ppn_spoc_phone_no":null,"nbhi_non_payable_waiver":null,"discount_on_opd_consultation":null,"discount_on_opd_investigation":null,"discount_on_health_check_up":null,"free_ambulance":null,"ppn_spoc_name":null},"poc":null,"ir":null},{"id":25824,"provider_id":"83560","name":"Shree Eye and Dental Hospital","address":"G.F Panchamrut House Nr. Panchamrut Ii Bunglows, Science City Road Nr.Sola Over Bridge Sola","city":"Ahmedabad","state":"Gujarat","postal_code":380060,"logo":"https://rules.nivabupa.com/media/default_hospital.svg","latitude":0,"longitude":0,"beds_count":"2","email_id":"cashless.shreeeye@gmail.com","website":null,"ppn_available":false,"doctors_count":"1","rating":0,"avg_rating":0,"review_count":"NA","rating_count":"NA","reviews":"120","accreditions":"NABH Entry Level","treatment_cost":"NA","customer_expense":"NA","stay_duration":"NA","primary_phone":"9913141958","additional_phone":"9879265370","last_updated_at":"2021-12-30 00:00:00","ppn_benefits":{"ppn_spoc_phone_no":null,"nbhi_non_payable_waiver":null,"discount_on_opd_consultation":null,"discount_on_opd_investigation":null,"discount_on_health_check_up":null,"free_ambulance":null,"ppn_spoc_name":null},"poc":null,"ir":null},{"id":25954,"provider_id":"84921","name":"Care and Cure Hospital","address":"First Floor-1 Changodar City Centre, Above Anil Pharmacy","city":"Ahmedabad","state":"Gujarat","postal_code":382213,"logo":"https://rules.nivabupa.com/media/default_hospital.svg","latitude":0,"longitude":0,"beds_count":"48","email_id":"careandcurehospital.changodar@gmail.com","website":null,"ppn_available":false,"doctors_count":"12","rating":0,"avg_rating":0,"review_count":"NA","rating_count":"NA","reviews":"120","accreditions":"NA","treatment_cost":"NA","customer_expense":"NA","stay_duration":"NA","primary_phone":"9904453230","additional_phone":"7043934697","last_updated_at":"2022-01-24 00:00:00","ppn_benefits":{"ppn_spoc_phone_no":null,"nbhi_non_payable_waiver":null,"discount_on_opd_consultation":null,"discount_on_opd_investigation":null,"discount_on_health_check_up":null,"free_ambulance":null,"ppn_spoc_name":null},"poc":null,"ir":null},{"id":23920,"provider_id":"68538","name":"Apollo Cvhf Heart Institute","address":"Opp.Gnfc Tower, Pakwan Cross Road, S G Highway Bodakdev","city":"Ahmedabad","state":"Gujarat","postal_code":380059,"logo":"https://rules.nivabupa.com/media/hospital_images/68538.png","latitude":23.04086,"longitude":72.5124,"beds_count":"64","email_id":"billing.ahd@apollocvhf.com","website":"http://www.apollocvhf.com/","ppn_available":false,"doctors_count":"16","rating":0,"avg_rating":0,"review_count":4,"rating_count":4,"reviews":"120","accreditions":"NABH Higher Level","treatment_cost":"NA","customer_expense":"NA","stay_duration":"5","primary_phone":"7202011165","additional_phone":"7202011197","last_updated_at":"2021-03-08 00:00:00","ppn_benefits":{"ppn_spoc_phone_no":null,"nbhi_non_payable_waiver":null,"discount_on_opd_consultation":null,"discount_on_opd_investigation":null,"discount_on_health_check_up":null,"free_ambulance":null,"ppn_spoc_name":null},"poc":null,"ir":null},{"id":20932,"provider_id":"46088","name":"Chintan Orthopaedic Hospital","address":"16 Anuradha Society, Opp Gnanda Society, Jivraj Park","city":"Ahmedabad","state":"Gujarat","postal_code":380051,"logo":"https://rules.nivabupa.com/media/default_hospital.svg","latitude":23.007171,"longitude":72.536332,"beds_count":"22","email_id":"chintancashless@gmail.com","website":"http://www.chintanhospital.com/","ppn_available":false,"doctors_count":"12","rating":0,"avg_rating":0,"review_count":2,"rating_count":2,"reviews":"120","accreditions":"NABH Entry Level","treatment_cost":"NA","customer_expense":"NA","stay_duration":"2","primary_phone":"079-26637840","additional_phone":"8980800100","last_updated_at":"2021-03-31 00:00:00","ppn_benefits":{"ppn_spoc_phone_no":null,"nbhi_non_payable_waiver":null,"discount_on_opd_consultation":null,"discount_on_opd_investigation":null,"discount_on_health_check_up":null,"free_ambulance":null,"ppn_spoc_name":null},"poc":null,"ir":null},{"id":19678,"provider_id":"31579","name":"Medistar Hospital Pvt Ltd.","address":"Trimurti Avenue Sahkari Jin Road N.H-8 Himatnagar","city":"Ahmedabad","state":"Gujarat","postal_code":383001,"logo":"https://rules.nivabupa.com/media/default_hospital.svg","latitude":23.580537,"longitude":72.975052,"beds_count":"100","email_id":"medistarhospital@gmail.com","website":"http://www.medistarhospital.com/","ppn_available":false,"doctors_count":"18","rating":0,"avg_rating":0,"review_count":"NA","rating_count":"NA","reviews":"120","accreditions":"NABH Higher Level","treatment_cost":"NA","customer_expense":"NA","stay_duration":"NA","primary_phone":"0277-2246108","additional_phone":"0277-2246108","last_updated_at":"2021-01-02 00:00:00","ppn_benefits":{"ppn_spoc_phone_no":null,"nbhi_non_payable_waiver":null,"discount_on_opd_consultation":null,"discount_on_opd_investigation":null,"discount_on_health_check_up":null,"free_ambulance":null,"ppn_spoc_name":null},"poc":null,"ir":null},{"id":25580,"provider_id":"81646","name":"Param Maternity Ganaec and Surgical Hospital","address":"2 Nd Floor Sahyog Plaza Opp. Govt Eng. College Motera","city":"Ahmedabad","state":"Gujarat","postal_code":380005,"logo":"https://rules.nivabupa.com/media/default_hospital.svg","latitude":0,"longitude":0,"beds_count":"15","email_id":"hospitalcashless@gmail.com","website":null,"ppn_available":false,"doctors_count":"12","rating":0,"avg_rating":0,"review_count":2,"rating_count":2,"reviews":"120","accreditions":"NABH Entry Level","treatment_cost":"NA","customer_expense":"NA","stay_duration":"NA","primary_phone":"9825745054","additional_phone":"9909894966","last_updated_at":"2021-11-24 00:00:00","ppn_benefits":{"ppn_spoc_phone_no":null,"nbhi_non_payable_waiver":null,"discount_on_opd_consultation":null,"discount_on_opd_investigation":null,"discount_on_health_check_up":null,"free_ambulance":null,"ppn_spoc_name":null},"poc":null,"ir":null},{"id":25442,"provider_id":"80468","name":"Crystal Eye Care","address":"303 Radhe Krishna Arista Opp Haribhai Tower, Uttam Nagar Maninagar","city":"Ahmedabad","state":"Gujarat","postal_code":380008,"logo":"https://rules.nivabupa.com/media/default_hospital.svg","latitude":0,"longitude":0,"beds_count":"2","email_id":"cashless.crystaleye@gmail.com","website":null,"ppn_available":false,"doctors_count":"1","rating":0,"avg_rating":0,"review_count":"NA","rating_count":"NA","reviews":"120","accreditions":"NA","treatment_cost":"NA","customer_expense":"NA","stay_duration":"NA","primary_phone":"9727063320","additional_phone":"9879265370","last_updated_at":"2021-10-29 00:00:00","ppn_benefits":{"ppn_spoc_phone_no":null,"nbhi_non_payable_waiver":null,"discount_on_opd_consultation":null,"discount_on_opd_investigation":null,"discount_on_health_check_up":null,"free_ambulance":null,"ppn_spoc_name":null},"poc":null,"ir":null},{"id":25443,"provider_id":"80469","name":"Solar Hospital","address":"Binani-B Complex Opp. Torrent Power Office Opp. Aec Cross Roads","city":"Ahmedabad","state":"Gujarat","postal_code":380013,"logo":"https://rules.nivabupa.com/media/default_hospital.svg","latitude":0,"longitude":0,"beds_count":"40","email_id":"cashless.solar@gmail.com","website":"http://www.solarhospital.in/","ppn_available":false,"doctors_count":"12","rating":0,"avg_rating":0,"review_count":"NA","rating_count":"NA","reviews":"120","accreditions":"NABH Entry Level","treatment_cost":"NA","customer_expense":"NA","stay_duration":"NA","primary_phone":"079-27477400","additional_phone":"8490042026","last_updated_at":"2021-10-29 00:00:00","ppn_benefits":{"ppn_spoc_phone_no":null,"nbhi_non_payable_waiver":null,"discount_on_opd_consultation":null,"discount_on_opd_investigation":null,"discount_on_health_check_up":null,"free_ambulance":null,"ppn_spoc_name":null},"poc":null,"ir":null},{"id":20140,"provider_id":"33186","name":"Manish Eye Hospital","address":"A 3-4 Sushmita Flat, Near Mehta Chawana, Opp Vasna Bus Stop","city":"Ahmedabad","state":"Gujarat","postal_code":380007,"logo":"https://rules.nivabupa.com/media/default_hospital.svg","latitude":23.039568,"longitude":72.566004,"beds_count":"5","email_id":"dipu_yagnik@yahoo.com","website":null,"ppn_available":false,"doctors_count":"5","rating":0,"avg_rating":0,"review_count":"NA","rating_count":"NA","reviews":"120","accreditions":"NA","treatment_cost":"NA","customer_expense":"NA","stay_duration":"2","primary_phone":"079-26639621","additional_phone":"9898088268","last_updated_at":"2021-01-12 00:00:00","ppn_benefits":{"ppn_spoc_phone_no":null,"nbhi_non_payable_waiver":null,"discount_on_opd_consultation":null,"discount_on_opd_investigation":null,"discount_on_health_check_up":null,"free_ambulance":null,"ppn_spoc_name":null},"poc":null,"ir":null},{"id":22497,"provider_id":"62483","name":"Anant Orthopaedics and Superspeciality Hospital","address":"5, Santoshbaug Opp Carrefour Hotel, Near Nagari Hospital Gujarat College Road, Ellisbridge","city":"Ahmedabad","state":"Gujarat","postal_code":380006,"logo":"https://rules.nivabupa.com/media/default_hospital.svg","latitude":23.02531,"longitude":72.56557,"beds_count":"30","email_id":"ananthospitalsceo@gmail.com","website":null,"ppn_available":false,"doctors_count":"15","rating":0,"avg_rating":0,"review_count":"NA","rating_count":"NA","reviews":"120","accreditions":"NABH Entry Level","treatment_cost":"NA","customer_expense":"NA","stay_duration":"2","primary_phone":"8401973507","additional_phone":"9825031553","last_updated_at":"2021-03-23 00:00:00","ppn_benefits":{"ppn_spoc_phone_no":null,"nbhi_non_payable_waiver":null,"discount_on_opd_consultation":null,"discount_on_opd_investigation":null,"discount_on_health_check_up":null,"free_ambulance":null,"ppn_spoc_name":null},"poc":null,"ir":null},{"id":19216,"provider_id":"28630","name":"Kaizen Hospital","address":"132 Ft Ring Road Helmet Memnagr","city":"Ahmedabad","state":"Gujarat","postal_code":380052,"logo":"https://rules.nivabupa.com/media/default_hospital.svg","latitude":23.047078,"longitude":72.543751,"beds_count":"50","email_id":"kaizenhospital@gmail.com","website":"http://www.kaizenhospital.com/","ppn_available":false,"doctors_count":"25","rating":0,"avg_rating":0,"review_count":2,"rating_count":2,"reviews":"120","accreditions":"NABH Higher Level","treatment_cost":"NA","customer_expense":"NA","stay_duration":"3","primary_phone":"079-27914444","additional_phone":"9687656599","last_updated_at":"2021-07-20 00:00:00","ppn_benefits":{"ppn_spoc_phone_no":null,"nbhi_non_payable_waiver":null,"discount_on_opd_consultation":null,"discount_on_opd_investigation":null,"discount_on_health_check_up":null,"free_ambulance":null,"ppn_spoc_name":null},"poc":null,"ir":null},{"id":26434,"provider_id":"88428","name":"RIMS Healthcare","address":"1St Floor Rupala Complex Opp Icici Bank, Near Ghodasar Brts Stop","city":"Ahmedabad","state":"Gujarat","postal_code":380050,"logo":"https://rules.nivabupa.com/media/default_hospital.svg","latitude":null,"longitude":null,"beds_count":"15","email_id":"cashless.rimshealthcare@gmail.com","website":null,"ppn_available":false,"doctors_count":"10","rating":0,"avg_rating":0,"review_count":"NA","rating_count":"NA","reviews":"120","accreditions":"NA","treatment_cost":"NA","customer_expense":"NA","stay_duration":"NA","primary_phone":"6351401109","additional_phone":"9726593890","last_updated_at":"2022-03-31 00:00:00","ppn_benefits":{"ppn_spoc_phone_no":null,"nbhi_non_payable_waiver":null,"discount_on_opd_consultation":null,"discount_on_opd_investigation":null,"discount_on_health_check_up":null,"free_ambulance":null,"ppn_spoc_name":null},"poc":null,"ir":null},{"id":26654,"provider_id":"93224","name":"Revaba Infertility Clinics Pvt Ltd","address":"17 Sun Rise Park, Nr. Vastrapur Lakebodakdev","city":"Ahmedabad","state":"Gujarat","postal_code":380054,"logo":"https://rules.nivabupa.com/media/default_hospital.svg","latitude":null,"longitude":null,"beds_count":"NA","email_id":"tpawingshospital@gmail.com","website":null,"ppn_available":false,"doctors_count":"NA","rating":0,"avg_rating":0,"review_count":"NA","rating_count":"NA","reviews":"120","accreditions":"NA","treatment_cost":"NA","customer_expense":"NA","stay_duration":"NA","primary_phone":"7600848484","additional_phone":"7878777222","last_updated_at":"NA","ppn_benefits":{"ppn_spoc_phone_no":null,"nbhi_non_payable_waiver":null,"discount_on_opd_consultation":null,"discount_on_opd_investigation":null,"discount_on_health_check_up":null,"free_ambulance":null,"ppn_spoc_name":null},"poc":null,"ir":null},{"id":26634,"provider_id":"61713","name":"JK Multispeciality Hospital","address":"4Th Floor, Aakar Arcade, Above Sbi, Banksanad Viramgam Highway","city":"Ahmedabad","state":"Gujarat","postal_code":382110,"logo":"https://rules.nivabupa.com/media/default_hospital.svg","latitude":null,"longitude":null,"beds_count":"30","email_id":"jkmshospital@gmail.com","website":null,"ppn_available":false,"doctors_count":"14","rating":0,"avg_rating":0,"review_count":"NA","rating_count":"NA","reviews":"120","accreditions":"NA","treatment_cost":"NA","customer_expense":"NA","stay_duration":"NA","primary_phone":"8828989890","additional_phone":null,"last_updated_at":"2021-03-31 00:00:00","ppn_benefits":{"ppn_spoc_phone_no":null,"nbhi_non_payable_waiver":null,"discount_on_opd_consultation":null,"discount_on_opd_investigation":null,"discount_on_health_check_up":null,"free_ambulance":null,"ppn_spoc_name":null},"poc":null,"ir":null},{"id":18922,"provider_id":"23566","name":"Niramay Hospital Ahmedabad","address":"Nr. Anandnagar Cross Road","city":"Ahmedabad","state":"Gujarat","postal_code":380015,"logo":"https://rules.nivabupa.com/media/default_hospital.svg","latitude":23.02716,"longitude":72.5192,"beds_count":"250","email_id":"dr.vijayjagtap4u@gmail.com","website":"http://www.niramayhospital.org/","ppn_available":false,"doctors_count":"103","rating":0,"avg_rating":0,"review_count":"NA","rating_count":"NA","reviews":"120","accreditions":"NA","treatment_cost":"NA","customer_expense":"NA","stay_duration":"NA","primary_phone":"02428-213390","additional_phone":"8888718272","last_updated_at":"2021-03-31 00:00:00","ppn_benefits":{"ppn_spoc_phone_no":null,"nbhi_non_payable_waiver":null,"discount_on_opd_consultation":null,"discount_on_opd_investigation":null,"discount_on_health_check_up":null,"free_ambulance":null,"ppn_spoc_name":null},"poc":null,"ir":null},{"id":18128,"provider_id":"20281","name":"Apollo Hospital City Center","address":"1 Tulsibaug Society, Opp Doctor House, Ellisbridge","city":"Ahmedabad","state":"Gujarat","postal_code":380006,"logo":"https://rules.nivabupa.com/media/hospital_images/20281.png","latitude":23.01729,"longitude":73.55578,"beds_count":"50","email_id":"info_ahcc@apolloahd.com","website":null,"ppn_available":false,"doctors_count":"18","rating":0,"avg_rating":0,"review_count":1,"rating_count":1,"reviews":"120","accreditions":"NA","treatment_cost":"NA","customer_expense":"NA","stay_duration":"NA","primary_phone":"079-66305803","additional_phone":"079-66305803","last_updated_at":"2021-07-20 00:00:00","ppn_benefits":{"ppn_spoc_phone_no":null,"nbhi_non_payable_waiver":null,"discount_on_opd_consultation":null,"discount_on_opd_investigation":null,"discount_on_health_check_up":null,"free_ambulance":null,"ppn_spoc_name":null},"poc":null,"ir":null},{"id":18171,"provider_id":"20356","name":"Panchshil Hospital","address":"Highway Ramnagar, Sabarmati","city":"Ahmedabad","state":"Gujarat","postal_code":380005,"logo":"https://rules.nivabupa.com/media/default_hospital.svg","latitude":23.093312,"longitude":72.592112,"beds_count":"52","email_id":"pan_hos@hotmail.com","website":"http://www.panchshilhospital.com/","ppn_available":false,"doctors_count":"49","rating":0,"avg_rating":0,"review_count":1,"rating_count":1,"reviews":"120","accreditions":"NA","treatment_cost":"NA","customer_expense":"NA","stay_duration":"10","primary_phone":"079-27506336","additional_phone":"9428911123","last_updated_at":"2021-03-31 00:00:00","ppn_benefits":{"ppn_spoc_phone_no":null,"nbhi_non_payable_waiver":null,"discount_on_opd_consultation":null,"discount_on_opd_investigation":null,"discount_on_health_check_up":null,"free_ambulance":null,"ppn_spoc_name":null},"poc":null,"ir":null},{"id":18201,"provider_id":"20409","name":"Sanjivani Super Speciality Hospitals Pvt. Ltd.","address":"Vastrapur Lake","city":"Ahmedabad","state":"Gujarat","postal_code":380015,"logo":"https://rules.nivabupa.com/media/default_hospital.svg","latitude":23.036474,"longitude":72.529418,"beds_count":"65","email_id":"sanjivanissh@yahoo.com","website":"http://www.sanjivanihospitals.com/","ppn_available":false,"doctors_count":"40","rating":0,"avg_rating":0,"review_count":3,"rating_count":3,"reviews":"120","accreditions":"NABH Entry Level","treatment_cost":"NA","customer_expense":"NA","stay_duration":"7","primary_phone":"079-26305610","additional_phone":"9712232324","last_updated_at":"2021-01-25 00:00:00","ppn_benefits":{"ppn_spoc_phone_no":null,"nbhi_non_payable_waiver":null,"discount_on_opd_consultation":null,"discount_on_opd_investigation":null,"discount_on_health_check_up":null,"free_ambulance":null,"ppn_spoc_name":null},"poc":null,"ir":null},{"id":18223,"provider_id":"20446","name":"Sal Hospital & Medical Institute","address":"Opp: Doordarshan Drive-In Road","city":"Ahmedabad","state":"Gujarat","postal_code":380054,"logo":"https://rules.nivabupa.com/media/default_hospital.svg","latitude":23.049438,"longitude":72.524363,"beds_count":"250","email_id":"agm.marketing@salhospital.com","website":"http://www.salhospital.com/","ppn_available":false,"doctors_count":"103","rating":0,"avg_rating":0,"review_count":5,"rating_count":5,"reviews":"120","accreditions":"NABH Higher Level","treatment_cost":"NA","customer_expense":"NA","stay_duration":"6","primary_phone":"079-66115781","additional_phone":"9925195602","last_updated_at":"2021-03-31 00:00:00","ppn_benefits":{"ppn_spoc_phone_no":null,"nbhi_non_payable_waiver":null,"discount_on_opd_consultation":null,"discount_on_opd_investigation":null,"discount_on_health_check_up":null,"free_ambulance":null,"ppn_spoc_name":null},"poc":null,"ir":null},{"id":47526,"provider_id":"103246","name":"Vision Eye Care Hospital","address":"501/B, 5Th Floor, Real Aura Building No -1, Near Tolnaka Brts Stand, Near Sabarmati Police Station, Opp. Baronet Complex, Tollnaka, Ram Nagar Sabarmati","city":"Ahmedabad","state":"Gujarat","postal_code":380005,"logo":"https://rules.nivabupa.com/media/default_hospital.svg","latitude":null,"longitude":null,"beds_count":"NA","email_id":"visioneyecarehospital679@gmail.com","website":"https://www.afternic.com/","ppn_available":false,"doctors_count":"NA","rating":0,"avg_rating":1,"review_count":"NA","rating_count":"NA","reviews":"120","accreditions":"NA","treatment_cost":"NA","customer_expense":"NA","stay_duration":"NA","primary_phone":"9558105533","additional_phone":null,"last_updated_at":"NA","ppn_benefits":{"ppn_spoc_phone_no":null,"nbhi_non_payable_waiver":null,"discount_on_opd_consultation":null,"discount_on_opd_investigation":null,"discount_on_health_check_up":null,"free_ambulance":null,"ppn_spoc_name":null},"poc":null,"ir":null},{"id":47259,"provider_id":"102339","name":"Insight Eye Care Hospital","address":"F/3, Dev Aditya Arcade, Near. Bagban Party Plot, Thaltej - Shilaj Road, Thaltej","city":"Ahmedabad","state":"Gujarat","postal_code":380054,"logo":"https://rules.nivabupa.com/media/default_hospital.svg","latitude":null,"longitude":null,"beds_count":"NA","email_id":"insighteyecare.ahm@gmail.com","website":null,"ppn_available":false,"doctors_count":"NA","rating":0,"avg_rating":1,"review_count":"NA","rating_count":"NA","reviews":"120","accreditions":"NA","treatment_cost":"NA","customer_expense":"NA","stay_duration":"NA","primary_phone":"9825134557","additional_phone":"9825134557","last_updated_at":"NA","ppn_benefits":{"ppn_spoc_phone_no":null,"nbhi_non_payable_waiver":null,"discount_on_opd_consultation":null,"discount_on_opd_investigation":null,"discount_on_health_check_up":null,"free_ambulance":null,"ppn_spoc_name":null},"poc":null,"ir":null}]}