{"links":{"next":null,"previous":"https://rules.nivabupa.com/api/v1/hospital_rater/get_hospital_list/?city=Surat&format=json&page=4"},"count":124,"total_pages":5,"results":[{"id":20802,"provider_id":"45012","name":"Orkid Medilife Pvt Ltd.","address":"5Th Floor Western Vesu Point, Near S.D Jain School, Vesu","city":"Surat","state":"Gujarat","postal_code":395007,"logo":"https://rules.nivabupa.com/media/default_hospital.svg","latitude":21.14938,"longitude":72.772765,"beds_count":"30","email_id":"admin@orkidmedilife.com","website":"http://www.orkidmedilife.com/","ppn_available":false,"doctors_count":"5","rating":0,"avg_rating":0,"review_count":3,"rating_count":3,"reviews":"120","accreditions":"NA","treatment_cost":"NA","customer_expense":"NA","stay_duration":"3","primary_phone":"0261-2215630","additional_phone":"7299978917","last_updated_at":"2021-03-04 00:00:00","ppn_benefits":{"ppn_spoc_phone_no":null,"nbhi_non_payable_waiver":null,"discount_on_opd_consultation":null,"discount_on_opd_investigation":null,"discount_on_health_check_up":null,"free_ambulance":null,"ppn_spoc_name":null},"poc":null,"ir":null},{"id":19842,"provider_id":"32400","name":"Sanjeevani Multispecialty Hospital Surat","address":"(A Group Of Vedanshi Health Care) 2Nd Floor Western Business Park, Opp. S D Jain School, Vesu Char Rasta, Vesu","city":"Surat","state":"Gujarat","postal_code":395007,"logo":"https://rules.nivabupa.com/media/default_hospital.svg","latitude":21.1506,"longitude":72.77299,"beds_count":"35","email_id":"smshospital17@gmail.com","website":null,"ppn_available":false,"doctors_count":"30","rating":0,"avg_rating":0,"review_count":13,"rating_count":13,"reviews":"120","accreditions":"NABH Entry Level","treatment_cost":"5,000-10,000","customer_expense":"NA","stay_duration":"5","primary_phone":"0261-2215777","additional_phone":"8140215777","last_updated_at":"2021-01-11 00:00:00","ppn_benefits":{"ppn_spoc_phone_no":null,"nbhi_non_payable_waiver":null,"discount_on_opd_consultation":null,"discount_on_opd_investigation":null,"discount_on_health_check_up":null,"free_ambulance":null,"ppn_spoc_name":null},"poc":null,"ir":null},{"id":24710,"provider_id":"74631","name":"Niramay Surgical Hospital and Laparoscopy Centre","address":"405 Cross Road Shopping Centre, Opp Cng Pump, Opp J.V. Modern School, Near Jalaram Petrol Pump, Sayan Road, Amroli","city":"Surat","state":"Gujarat","postal_code":394107,"logo":"https://rules.nivabupa.com/media/default_hospital.svg","latitude":21.2414,"longitude":72.85164,"beds_count":"15","email_id":"drmukesh910@gmail.com","website":"http://www.niramaysurgicalhospital.com/","ppn_available":false,"doctors_count":"25","rating":0,"avg_rating":0,"review_count":1,"rating_count":1,"reviews":"120","accreditions":"NA","treatment_cost":"NA","customer_expense":"NA","stay_duration":"4","primary_phone":"9909159709","additional_phone":"9265234057","last_updated_at":"2021-06-29 00:00:00","ppn_benefits":{"ppn_spoc_phone_no":null,"nbhi_non_payable_waiver":null,"discount_on_opd_consultation":null,"discount_on_opd_investigation":null,"discount_on_health_check_up":null,"free_ambulance":null,"ppn_spoc_name":null},"poc":null,"ir":null},{"id":20980,"provider_id":"46503","name":"Female First Hospital (Surat)","address":"Hanuman Sheri, Chamunda Restaurant Lane, Opposite Sub Jail, Ring Road Sagrampura","city":"Surat","state":"Gujarat","postal_code":395002,"logo":"https://rules.nivabupa.com/media/default_hospital.svg","latitude":21.18246,"longitude":72.8264,"beds_count":"20","email_id":"paritalatmiya79@gmail.com","website":"http://www.femalefirsthospital.com/","ppn_available":false,"doctors_count":"10","rating":0,"avg_rating":0,"review_count":4,"rating_count":4,"reviews":"120","accreditions":"NA","treatment_cost":"NA","customer_expense":"NA","stay_duration":"5","primary_phone":"0261-2334040","additional_phone":"9408930932","last_updated_at":"2021-03-31 00:00:00","ppn_benefits":{"ppn_spoc_phone_no":null,"nbhi_non_payable_waiver":null,"discount_on_opd_consultation":null,"discount_on_opd_investigation":null,"discount_on_health_check_up":null,"free_ambulance":null,"ppn_spoc_name":null},"poc":null,"ir":null}]}