{"links":{"next":null,"previous":"https://rules.nivabupa.com/api/v1/hospital_rater/get_hospital_list/?city=Vadodara&format=json&page=3"},"count":102,"total_pages":4,"results":[{"id":25827,"provider_id":"83564","name":"Somani Hospital Vadodra","address":"Sf-208/216 Sakar Complex Opp Siddharth Magnum Complex, Somatalav Tarsali Ring Road Danteshwar","city":"Vadodara","state":"Gujarat","postal_code":390009,"logo":"https://rules.nivabupa.com/media/default_hospital.svg","latitude":0,"longitude":0,"beds_count":"15","email_id":"somanihospital20005@gmail.com","website":null,"ppn_available":false,"doctors_count":"2","rating":0,"avg_rating":0,"review_count":1,"rating_count":1,"reviews":"120","accreditions":"NABH Entry Level","treatment_cost":"NA","customer_expense":"NA","stay_duration":"0","primary_phone":"7265020005","additional_phone":"7265020005","last_updated_at":"2021-12-30 00:00:00","ppn_benefits":{"ppn_spoc_phone_no":null,"nbhi_non_payable_waiver":null,"discount_on_opd_consultation":null,"discount_on_opd_investigation":null,"discount_on_health_check_up":null,"free_ambulance":null,"ppn_spoc_name":null},"poc":null,"ir":null},{"id":20917,"provider_id":"45972","name":"Vinayak Hospital","address":"101 Gangasagar Complex, Sussen- Tarsali Road, Tarsali","city":"Vadodara","state":"Gujarat","postal_code":390009,"logo":"https://rules.nivabupa.com/media/default_hospital.svg","latitude":22.255377,"longitude":73.211126,"beds_count":"22","email_id":"dr_bhagade@yahoo.co.in","website":null,"ppn_available":false,"doctors_count":"2","rating":0,"avg_rating":0,"review_count":7,"rating_count":7,"reviews":"120","accreditions":"NA","treatment_cost":"NA","customer_expense":"NA","stay_duration":"5","primary_phone":"0265-2657565","additional_phone":"9825032684","last_updated_at":"2021-01-13 00:00:00","ppn_benefits":{"ppn_spoc_phone_no":null,"nbhi_non_payable_waiver":null,"discount_on_opd_consultation":null,"discount_on_opd_investigation":null,"discount_on_health_check_up":null,"free_ambulance":null,"ppn_spoc_name":null},"poc":null,"ir":null},{"id":18254,"provider_id":"20493","name":"Sterling Hospital - Vadodara","address":"Race Course Circle (West)","city":"Vadodara","state":"Gujarat","postal_code":390007,"logo":"https://rules.nivabupa.com/media/default_hospital.svg","latitude":22.312967,"longitude":73.158817,"beds_count":"110","email_id":"credit.baroda@sterlinghospitals.com","website":null,"ppn_available":false,"doctors_count":"45","rating":0,"avg_rating":0,"review_count":12,"rating_count":12,"reviews":"120","accreditions":"NABH Higher Level","treatment_cost":"5,000-10,000","customer_expense":"NA","stay_duration":"10","primary_phone":"9624015874","additional_phone":"9558374525","last_updated_at":"2021-07-20 00:00:00","ppn_benefits":{"ppn_spoc_phone_no":null,"nbhi_non_payable_waiver":null,"discount_on_opd_consultation":null,"discount_on_opd_investigation":null,"discount_on_health_check_up":null,"free_ambulance":null,"ppn_spoc_name":null},"poc":null,"ir":null},{"id":26442,"provider_id":"88727","name":"Kokilaben Orthopedic and Lung Hospital","address":"4Th Floor Arom Complex Somatalav Char Rasta","city":"Vadodara","state":"Gujarat","postal_code":390025,"logo":"https://rules.nivabupa.com/media/default_hospital.svg","latitude":null,"longitude":null,"beds_count":"NA","email_id":"kokilabenhospitalvadodara@gmail.com","website":null,"ppn_available":false,"doctors_count":"NA","rating":0,"avg_rating":0,"review_count":1,"rating_count":1,"reviews":"120","accreditions":"NA","treatment_cost":"NA","customer_expense":"NA","stay_duration":"NA","primary_phone":"9512700617","additional_phone":"9512700617","last_updated_at":"NA","ppn_benefits":{"ppn_spoc_phone_no":null,"nbhi_non_payable_waiver":null,"discount_on_opd_consultation":null,"discount_on_opd_investigation":null,"discount_on_health_check_up":null,"free_ambulance":null,"ppn_spoc_name":null},"poc":null,"ir":null},{"id":18261,"provider_id":"20502","name":"Baroda Hospital","address":"1St Floor Anant Apartment, Beside Aradhana Cinema, Tilak Road","city":"Vadodara","state":"Gujarat","postal_code":390001,"logo":"https://rules.nivabupa.com/media/default_hospital.svg","latitude":22.30731,"longitude":73.181098,"beds_count":"21","email_id":"bmp_barodahospital@gmail.com","website":null,"ppn_available":false,"doctors_count":"9","rating":0,"avg_rating":0,"review_count":4,"rating_count":4,"reviews":"120","accreditions":"NA","treatment_cost":"NA","customer_expense":"NA","stay_duration":"3","primary_phone":"0265-2429262","additional_phone":"0265-2429262","last_updated_at":"2021-03-31 00:00:00","ppn_benefits":{"ppn_spoc_phone_no":null,"nbhi_non_payable_waiver":null,"discount_on_opd_consultation":null,"discount_on_opd_investigation":null,"discount_on_health_check_up":null,"free_ambulance":null,"ppn_spoc_name":null},"poc":null,"ir":null},{"id":18242,"provider_id":"20481","name":"Baroda Heart Institute & Research Centre","address":"44 Haribhakti Colony Old Padra Road","city":"Vadodara","state":"Gujarat","postal_code":390007,"logo":"https://rules.nivabupa.com/media/default_hospital.svg","latitude":22.297304,"longitude":73.164127,"beds_count":"60","email_id":"info@bhirc.com","website":"http://www.bhire.com/","ppn_available":false,"doctors_count":"25","rating":0,"avg_rating":0,"review_count":3,"rating_count":3,"reviews":"120","accreditions":"NABH Higher Level","treatment_cost":"NA","customer_expense":"NA","stay_duration":"6","primary_phone":"0265-2322021","additional_phone":"0265-2322021","last_updated_at":"2021-07-20 00:00:00","ppn_benefits":{"ppn_spoc_phone_no":null,"nbhi_non_payable_waiver":null,"discount_on_opd_consultation":null,"discount_on_opd_investigation":null,"discount_on_health_check_up":null,"free_ambulance":null,"ppn_spoc_name":null},"poc":null,"ir":null},{"id":18259,"provider_id":"20500","name":"Bankers Heart Institute","address":"Nr. Surya Kiran Complex, Old Padra Road","city":"Vadodara","state":"Gujarat","postal_code":390015,"logo":"https://rules.nivabupa.com/media/default_hospital.svg","latitude":22.29807,"longitude":73.164261,"beds_count":"60","email_id":"info@bankersheart.com","website":null,"ppn_available":false,"doctors_count":"25","rating":0,"avg_rating":0,"review_count":1,"rating_count":1,"reviews":"120","accreditions":"NABH Higher Level","treatment_cost":"NA","customer_expense":"NA","stay_duration":"NA","primary_phone":"0265-2343095","additional_phone":"0265-2343095","last_updated_at":"2021-07-20 00:00:00","ppn_benefits":{"ppn_spoc_phone_no":null,"nbhi_non_payable_waiver":null,"discount_on_opd_consultation":null,"discount_on_opd_investigation":null,"discount_on_health_check_up":null,"free_ambulance":null,"ppn_spoc_name":null},"poc":null,"ir":null},{"id":18305,"provider_id":"20575","name":"Sunshine Global Hospital","address":"Near Shereyas Vidhyalaya Nalini House, Manjalpur","city":"Vadodara","state":"Gujarat","postal_code":390011,"logo":"https://rules.nivabupa.com/media/default_hospital.svg","latitude":22.27647,"longitude":73.199593,"beds_count":"120","email_id":"recovery.manjalpur@sunshineglobalhospitals.com","website":"http://www.globalbarodahospital.com/","ppn_available":false,"doctors_count":"49","rating":0,"avg_rating":0,"review_count":14,"rating_count":14,"reviews":"120","accreditions":"NABH Higher Level","treatment_cost":"10,000-15,000","customer_expense":"NA","stay_duration":"5","primary_phone":"0265-2632044","additional_phone":"7574849485","last_updated_at":"2021-07-20 00:00:00","ppn_benefits":{"ppn_spoc_phone_no":null,"nbhi_non_payable_waiver":null,"discount_on_opd_consultation":null,"discount_on_opd_investigation":null,"discount_on_health_check_up":null,"free_ambulance":null,"ppn_spoc_name":null},"poc":null,"ir":null},{"id":18707,"provider_id":"22090","name":"Bhumi Nursing Home","address":"Opp-Karelibaug Police Station, Khadi Gramodhyog, Khadi Gramodhyog, Hujarat Paga Road","city":"Vadodara","state":"Gujarat","postal_code":390001,"logo":"https://rules.nivabupa.com/media/default_hospital.svg","latitude":22.30355,"longitude":73.20417,"beds_count":"25","email_id":"bhuminh@gmail.com","website":null,"ppn_available":false,"doctors_count":"10","rating":0,"avg_rating":0,"review_count":4,"rating_count":4,"reviews":"120","accreditions":"NA","treatment_cost":"NA","customer_expense":"NA","stay_duration":"5","primary_phone":"0265-2426318","additional_phone":"0265-2426318","last_updated_at":"2021-07-20 00:00:00","ppn_benefits":{"ppn_spoc_phone_no":null,"nbhi_non_payable_waiver":null,"discount_on_opd_consultation":null,"discount_on_opd_investigation":null,"discount_on_health_check_up":null,"free_ambulance":null,"ppn_spoc_name":null},"poc":null,"ir":null},{"id":22259,"provider_id":"61285","name":"Ami Hospital","address":"A-11/12, Cactus Park Soc B/S Canara Bank, Near Abhilasha Chaar Rasta New Sama Road","city":"Vadodara","state":"Gujarat","postal_code":390024,"logo":"https://rules.nivabupa.com/media/default_hospital.svg","latitude":22.34224,"longitude":73.18473,"beds_count":"15","email_id":"amihospitalvadodara@gmail.com","website":null,"ppn_available":false,"doctors_count":"10","rating":0,"avg_rating":0,"review_count":"NA","rating_count":"NA","reviews":"120","accreditions":"NA","treatment_cost":"NA","customer_expense":"NA","stay_duration":"NA","primary_phone":"9898011680","additional_phone":"9898011680","last_updated_at":"2021-01-26 00:00:00","ppn_benefits":{"ppn_spoc_phone_no":null,"nbhi_non_payable_waiver":null,"discount_on_opd_consultation":null,"discount_on_opd_investigation":null,"discount_on_health_check_up":null,"free_ambulance":null,"ppn_spoc_name":null},"poc":null,"ir":null},{"id":18827,"provider_id":"22469","name":"Spandan Multispecialty Hospital","address":"Sindhwai Mata Road Manjalpur","city":"Vadodara","state":"Gujarat","postal_code":390011,"logo":"https://rules.nivabupa.com/media/default_hospital.svg","latitude":22.280519,"longitude":73.20308,"beds_count":"100","email_id":"tpa.spandan@gmail.com","website":"http://www.spandanhospitalbrd.com/","ppn_available":false,"doctors_count":"35","rating":0,"avg_rating":0,"review_count":5,"rating_count":5,"reviews":"120","accreditions":"NABH Higher Level","treatment_cost":"NA","customer_expense":"NA","stay_duration":"6","primary_phone":"0265-2631300","additional_phone":"9899968682","last_updated_at":"2021-07-20 00:00:00","ppn_benefits":{"ppn_spoc_phone_no":null,"nbhi_non_payable_waiver":null,"discount_on_opd_consultation":null,"discount_on_opd_investigation":null,"discount_on_health_check_up":null,"free_ambulance":null,"ppn_spoc_name":null},"poc":null,"ir":null},{"id":19033,"provider_id":"25751","name":"Shashwat Nursing Home","address":"D/14 Amar Nagar Society Arunachal Road Subhanpura","city":"Vadodara","state":"Gujarat","postal_code":390023,"logo":"https://rules.nivabupa.com/media/default_hospital.svg","latitude":22.323088,"longitude":73.15055,"beds_count":"20","email_id":"snh.vadodara@gmail.com","website":null,"ppn_available":false,"doctors_count":"9","rating":0,"avg_rating":0,"review_count":"NA","rating_count":"NA","reviews":"120","accreditions":"NA","treatment_cost":"NA","customer_expense":"NA","stay_duration":"NA","primary_phone":"0265-2388443","additional_phone":"9978079908","last_updated_at":"2021-03-31 00:00:00","ppn_benefits":{"ppn_spoc_phone_no":null,"nbhi_non_payable_waiver":null,"discount_on_opd_consultation":null,"discount_on_opd_investigation":null,"discount_on_health_check_up":null,"free_ambulance":null,"ppn_spoc_name":null},"poc":null,"ir":null}]}