{"links":{"next":null,"previous":"https://rules.nivabupa.com/api/v1/hospital_rater/get_hospital_list/?city=Bhopal&format=json&page=3"},"count":105,"total_pages":4,"results":[{"id":25873,"provider_id":"84269","name":"Shri Siddhivinayak Hospital","address":"Plot No.6 Chanakyapuri J.K. Road Near Minal Gate No.1","city":"Bhopal","state":"Madhya Pradesh","postal_code":462023,"logo":"https://rules.nivabupa.com/media/default_hospital.svg","latitude":0,"longitude":0,"beds_count":"16","email_id":"siddhivinayak.ssvh@gmail.com","website":null,"ppn_available":false,"doctors_count":"3","rating":0,"avg_rating":0,"review_count":"NA","rating_count":"NA","reviews":"120","accreditions":"NABH Entry Level","treatment_cost":"NA","customer_expense":"NA","stay_duration":"NA","primary_phone":"0755-4221978","additional_phone":"9981817165","last_updated_at":"2022-01-11 00:00:00","ppn_benefits":{"ppn_spoc_phone_no":null,"nbhi_non_payable_waiver":null,"discount_on_opd_consultation":null,"discount_on_opd_investigation":null,"discount_on_health_check_up":null,"free_ambulance":null,"ppn_spoc_name":null},"poc":null,"ir":null},{"id":19651,"provider_id":"31436","name":"Suditi Hospital","address":"6-C Vijay Nagar Airport Road, Near Railway Crossing, Lalghati","city":"Bhopal","state":"Madhya Pradesh","postal_code":462030,"logo":"https://rules.nivabupa.com/media/default_hospital.svg","latitude":23.277127,"longitude":77.365698,"beds_count":"30","email_id":"mail@sudithospital.com","website":"http://www.suditihospital.com/","ppn_available":false,"doctors_count":"36","rating":0,"avg_rating":0,"review_count":1,"rating_count":1,"reviews":"120","accreditions":"NABH Entry Level","treatment_cost":"NA","customer_expense":"NA","stay_duration":"4","primary_phone":"0755-2666660","additional_phone":"9039215133","last_updated_at":"2021-04-12 00:00:00","ppn_benefits":{"ppn_spoc_phone_no":null,"nbhi_non_payable_waiver":null,"discount_on_opd_consultation":null,"discount_on_opd_investigation":null,"discount_on_health_check_up":null,"free_ambulance":null,"ppn_spoc_name":null},"poc":null,"ir":null},{"id":26306,"provider_id":"87976","name":"Anupam Hospital","address":"Akbarpur Vineet Kunj Main Kolar Road","city":"Bhopal","state":"Madhya Pradesh","postal_code":462042,"logo":"https://rules.nivabupa.com/media/default_hospital.svg","latitude":null,"longitude":null,"beds_count":"20","email_id":"valechani29@gmail.com","website":null,"ppn_available":false,"doctors_count":"6","rating":0,"avg_rating":0,"review_count":"NA","rating_count":"NA","reviews":"120","accreditions":"NA","treatment_cost":"NA","customer_expense":"NA","stay_duration":"NA","primary_phone":"9826441166","additional_phone":"9826441166","last_updated_at":"2022-03-25 00:00:00","ppn_benefits":{"ppn_spoc_phone_no":null,"nbhi_non_payable_waiver":null,"discount_on_opd_consultation":null,"discount_on_opd_investigation":null,"discount_on_health_check_up":null,"free_ambulance":null,"ppn_spoc_name":null},"poc":null,"ir":null},{"id":22169,"provider_id":"60602","name":"Bhopal Care Hospital","address":"86 Motiya Talab Road, In Front Of Tajul Mashid","city":"Bhopal","state":"Madhya Pradesh","postal_code":462001,"logo":"https://rules.nivabupa.com/media/default_hospital.svg","latitude":23.26279,"longitude":77.3939,"beds_count":"40","email_id":"bhopalcarehospital.corp@gmail.com","website":null,"ppn_available":false,"doctors_count":"8","rating":0,"avg_rating":0,"review_count":"NA","rating_count":"NA","reviews":"120","accreditions":"NABH Higher Level","treatment_cost":"NA","customer_expense":"NA","stay_duration":"NA","primary_phone":"0755-2679181","additional_phone":"0755-2679181","last_updated_at":"2021-03-31 00:00:00","ppn_benefits":{"ppn_spoc_phone_no":null,"nbhi_non_payable_waiver":null,"discount_on_opd_consultation":null,"discount_on_opd_investigation":null,"discount_on_health_check_up":null,"free_ambulance":null,"ppn_spoc_name":null},"poc":null,"ir":null},{"id":22187,"provider_id":"60657","name":"Bhopal Care Hospital","address":"E-8/38 12 No. Stop Arera Colony","city":"Bhopal","state":"Madhya Pradesh","postal_code":462016,"logo":"https://rules.nivabupa.com/media/default_hospital.svg","latitude":23.20273,"longitude":77.4375,"beds_count":"22","email_id":"bhopalcarehospital1@gmail.com","website":null,"ppn_available":false,"doctors_count":"6","rating":0,"avg_rating":0,"review_count":"NA","rating_count":"NA","reviews":"120","accreditions":"NABH Entry Level","treatment_cost":"NA","customer_expense":"NA","stay_duration":"3","primary_phone":"9111914230","additional_phone":"0755-4221121","last_updated_at":"2021-03-31 00:00:00","ppn_benefits":{"ppn_spoc_phone_no":null,"nbhi_non_payable_waiver":null,"discount_on_opd_consultation":null,"discount_on_opd_investigation":null,"discount_on_health_check_up":null,"free_ambulance":null,"ppn_spoc_name":null},"poc":null,"ir":null},{"id":25936,"provider_id":"84750","name":"Peoples Hospital","address":"Peoples Campus, Ayodhya Bypass, Bhanpur","city":"Bhopal","state":"Madhya Pradesh","postal_code":462037,"logo":"https://rules.nivabupa.com/media/default_hospital.svg","latitude":0,"longitude":0,"beds_count":"1150","email_id":"tpapleopleshospital@gmail.com","website":null,"ppn_available":false,"doctors_count":"471","rating":0,"avg_rating":0,"review_count":"NA","rating_count":"NA","reviews":"120","accreditions":"NABH Entry Level","treatment_cost":"NA","customer_expense":"NA","stay_duration":"NA","primary_phone":"0755-4005200","additional_phone":"7880131340","last_updated_at":"2022-01-20 00:00:00","ppn_benefits":{"ppn_spoc_phone_no":null,"nbhi_non_payable_waiver":null,"discount_on_opd_consultation":null,"discount_on_opd_investigation":null,"discount_on_health_check_up":null,"free_ambulance":null,"ppn_spoc_name":null},"poc":null,"ir":null},{"id":21408,"provider_id":"50126","name":"Noble Multispeciality Hospital","address":"Plot No.269/1 Opp Misrod Police Station, Misrod, Bhopal","city":"Bhopal","state":"Madhya Pradesh","postal_code":462026,"logo":"https://rules.nivabupa.com/media/default_hospital.svg","latitude":23.188293,"longitude":77.488649,"beds_count":"110","email_id":"pankajsood@noblebhopal.com","website":"http://www.noblebhopal.com/","ppn_available":false,"doctors_count":"80","rating":0,"avg_rating":0,"review_count":3,"rating_count":3,"reviews":"120","accreditions":"NABH Higher Level","treatment_cost":"NA","customer_expense":"NA","stay_duration":"8","primary_phone":"0755-7110711","additional_phone":"0755-7110711","last_updated_at":"2021-03-19 00:00:00","ppn_benefits":{"ppn_spoc_phone_no":null,"nbhi_non_payable_waiver":null,"discount_on_opd_consultation":null,"discount_on_opd_investigation":null,"discount_on_health_check_up":null,"free_ambulance":null,"ppn_spoc_name":null},"poc":null,"ir":null},{"id":20499,"provider_id":"38333","name":"Central Hospital Bhopal","address":"B-123 Indravihar Colony, Airport Road, Lalghati","city":"Bhopal","state":"Madhya Pradesh","postal_code":462030,"logo":"https://rules.nivabupa.com/media/default_hospital.svg","latitude":23.281757,"longitude":77.359305,"beds_count":"30","email_id":"dr.kkmeena2000@gmail.com","website":"http://www.centralhospitalbhopal.com/","ppn_available":false,"doctors_count":"14","rating":0,"avg_rating":0,"review_count":"NA","rating_count":"NA","reviews":"120","accreditions":"NABH Higher Level","treatment_cost":"NA","customer_expense":"NA","stay_duration":"NA","primary_phone":"0755-4285588","additional_phone":"9079063245","last_updated_at":"2021-03-31 00:00:00","ppn_benefits":{"ppn_spoc_phone_no":null,"nbhi_non_payable_waiver":null,"discount_on_opd_consultation":null,"discount_on_opd_investigation":null,"discount_on_health_check_up":null,"free_ambulance":null,"ppn_spoc_name":null},"poc":null,"ir":null},{"id":26315,"provider_id":"87997","name":"Gayatri Multispeciality Hospital","address":"17 Patel Nagar Raisen Road Infront Of Oriental Collage","city":"Bhopal","state":"Madhya Pradesh","postal_code":462022,"logo":"https://rules.nivabupa.com/media/default_hospital.svg","latitude":null,"longitude":null,"beds_count":"47","email_id":"gaytrimultispecialitybhopal@gmail.com","website":null,"ppn_available":false,"doctors_count":"26","rating":0,"avg_rating":0,"review_count":1,"rating_count":1,"reviews":"120","accreditions":"NA","treatment_cost":"NA","customer_expense":"NA","stay_duration":"NA","primary_phone":"0755-490755-","additional_phone":"9893343788","last_updated_at":"2022-03-25 00:00:00","ppn_benefits":{"ppn_spoc_phone_no":null,"nbhi_non_payable_waiver":null,"discount_on_opd_consultation":null,"discount_on_opd_investigation":null,"discount_on_health_check_up":null,"free_ambulance":null,"ppn_spoc_name":null},"poc":null,"ir":null},{"id":26338,"provider_id":"88142","name":"Apple Children's Hospital","address":"Ward No 67 Chhatrapati Nagar Narela Shankari, Infront Of Sagar Avenue Colony Ayodhya Bypass Road","city":"Bhopal","state":"Madhya Pradesh","postal_code":462022,"logo":"https://rules.nivabupa.com/media/default_hospital.svg","latitude":null,"longitude":null,"beds_count":"20","email_id":"applehospitalbhopal@gmail.com","website":null,"ppn_available":false,"doctors_count":"9","rating":0,"avg_rating":0,"review_count":"NA","rating_count":"NA","reviews":"120","accreditions":"NA","treatment_cost":"NA","customer_expense":"NA","stay_duration":"NA","primary_phone":"0755-3570852","additional_phone":"7049855446","last_updated_at":"2022-03-28 00:00:00","ppn_benefits":{"ppn_spoc_phone_no":null,"nbhi_non_payable_waiver":null,"discount_on_opd_consultation":null,"discount_on_opd_investigation":null,"discount_on_health_check_up":null,"free_ambulance":null,"ppn_spoc_name":null},"poc":null,"ir":null},{"id":26342,"provider_id":"88156","name":"Care and Cure Multispeciality Hospital","address":"Plot No 5/6 Infront Of V Mart, Near Hanuman Mandir Karond Square, New Jail Road","city":"Bhopal","state":"Madhya Pradesh","postal_code":462001,"logo":"https://rules.nivabupa.com/media/default_hospital.svg","latitude":null,"longitude":null,"beds_count":"50","email_id":"accounts@ccmhbhopal.com","website":"http://www.ccmhbhopal.com/","ppn_available":false,"doctors_count":"20","rating":0,"avg_rating":0,"review_count":"NA","rating_count":"NA","reviews":"120","accreditions":"NA","treatment_cost":"NA","customer_expense":"NA","stay_duration":"NA","primary_phone":"0755-6644900","additional_phone":"9165182646","last_updated_at":"2022-03-28 00:00:00","ppn_benefits":{"ppn_spoc_phone_no":null,"nbhi_non_payable_waiver":null,"discount_on_opd_consultation":null,"discount_on_opd_investigation":null,"discount_on_health_check_up":null,"free_ambulance":null,"ppn_spoc_name":null},"poc":null,"ir":null},{"id":47559,"provider_id":"103476","name":"Jeevandan Multicare Hospital","address":"Bhel Sangam Chouraha, Danish Nagar, Bagswaniya","city":"Bhopal","state":"Madhya Pradesh","postal_code":462043,"logo":"https://rules.nivabupa.com/media/default_hospital.svg","latitude":null,"longitude":null,"beds_count":"NA","email_id":"corporate.jmh@gmail.com","website":null,"ppn_available":false,"doctors_count":"NA","rating":0,"avg_rating":1,"review_count":"NA","rating_count":"NA","reviews":"120","accreditions":"NA","treatment_cost":"NA","customer_expense":"NA","stay_duration":"NA","primary_phone":"0755-4290355","additional_phone":"6261421614","last_updated_at":"NA","ppn_benefits":{"ppn_spoc_phone_no":null,"nbhi_non_payable_waiver":null,"discount_on_opd_consultation":null,"discount_on_opd_investigation":null,"discount_on_health_check_up":null,"free_ambulance":null,"ppn_spoc_name":null},"poc":null,"ir":null},{"id":47438,"provider_id":"103318","name":"Central Hospital IVF, Laproscopy And Maternity Unit","address":"C-33, Bda Colony Koh-E-Fiza","city":"Bhopal","state":"Madhya Pradesh","postal_code":462001,"logo":"https://rules.nivabupa.com/media/default_hospital.svg","latitude":null,"longitude":null,"beds_count":"NA","email_id":"centralhospital2088@gmail.com","website":null,"ppn_available":false,"doctors_count":"NA","rating":0,"avg_rating":1,"review_count":"NA","rating_count":"NA","reviews":"120","accreditions":"NA","treatment_cost":"NA","customer_expense":"NA","stay_duration":"NA","primary_phone":"0755-4030410","additional_phone":"9301170597","last_updated_at":"NA","ppn_benefits":{"ppn_spoc_phone_no":null,"nbhi_non_payable_waiver":null,"discount_on_opd_consultation":null,"discount_on_opd_investigation":null,"discount_on_health_check_up":null,"free_ambulance":null,"ppn_spoc_name":null},"poc":null,"ir":null},{"id":47431,"provider_id":"103260","name":"R.A. Stone And Surgical Care","address":"48 Old Mla Quarters, Jawahar Chowk","city":"Bhopal","state":"Madhya Pradesh","postal_code":462003,"logo":"https://rules.nivabupa.com/media/default_hospital.svg","latitude":null,"longitude":null,"beds_count":"NA","email_id":"drcharusaxena@gmail.com","website":null,"ppn_available":false,"doctors_count":"NA","rating":0,"avg_rating":1,"review_count":"NA","rating_count":"NA","reviews":"120","accreditions":"NA","treatment_cost":"NA","customer_expense":"NA","stay_duration":"NA","primary_phone":"9424439418","additional_phone":null,"last_updated_at":"NA","ppn_benefits":{"ppn_spoc_phone_no":null,"nbhi_non_payable_waiver":null,"discount_on_opd_consultation":null,"discount_on_opd_investigation":null,"discount_on_health_check_up":null,"free_ambulance":null,"ppn_spoc_name":null},"poc":null,"ir":null},{"id":47434,"provider_id":"103266","name":"Zindal Hospital","address":"Ayodhya Bypass Road, Damkheda","city":"Bhopal","state":"Madhya Pradesh","postal_code":462041,"logo":"https://rules.nivabupa.com/media/default_hospital.svg","latitude":null,"longitude":null,"beds_count":"NA","email_id":"tpazindalbhopal@gmail.com","website":null,"ppn_available":false,"doctors_count":"NA","rating":0,"avg_rating":1,"review_count":"NA","rating_count":"NA","reviews":"120","accreditions":"NA","treatment_cost":"NA","customer_expense":"NA","stay_duration":"NA","primary_phone":"0755-4848100","additional_phone":"6232246004","last_updated_at":"NA","ppn_benefits":{"ppn_spoc_phone_no":null,"nbhi_non_payable_waiver":null,"discount_on_opd_consultation":null,"discount_on_opd_investigation":null,"discount_on_health_check_up":null,"free_ambulance":null,"ppn_spoc_name":null},"poc":null,"ir":null}]}