{"links":{"next":null,"previous":"https://rules.nivabupa.com/api/v1/hospital_rater/get_hospital_list/?city=Indore&format=json&page=2"},"count":90,"total_pages":3,"results":[{"id":18804,"provider_id":"22321","name":"Vasan Eye Care Hospital Indore","address":"No.19 Dimond Colony Janjeerwala Square","city":"Indore","state":"Madhya Pradesh","postal_code":452001,"logo":"https://rules.nivabupa.com/media/default_hospital.svg","latitude":22.72545,"longitude":75.88188,"beds_count":"30","email_id":"recovery.tpa@vasaneye.in","website":"http://vasaneye.com/","ppn_available":false,"doctors_count":"16","rating":0,"avg_rating":0,"review_count":"NA","rating_count":"NA","reviews":"120","accreditions":"NA","treatment_cost":"NA","customer_expense":"NA","stay_duration":"NA","primary_phone":"0731-3989000","additional_phone":"7697569651","last_updated_at":"2021-03-31 00:00:00","ppn_benefits":{"ppn_spoc_phone_no":null,"nbhi_non_payable_waiver":null,"discount_on_opd_consultation":null,"discount_on_opd_investigation":null,"discount_on_health_check_up":null,"free_ambulance":null,"ppn_spoc_name":null},"poc":null,"ir":null},{"id":19142,"provider_id":"27377","name":"CHL- CBCC Cancer Center","address":"Lig Square Near Chl Hospital Ab Road","city":"Indore","state":"Madhya Pradesh","postal_code":452008,"logo":"https://rules.nivabupa.com/media/default_hospital.svg","latitude":22.732095,"longitude":75.889817,"beds_count":"100","email_id":"vmishra@chlhospitals.com","website":"http://www.chlhospitals.com/","ppn_available":false,"doctors_count":"35","rating":0,"avg_rating":0,"review_count":1,"rating_count":1,"reviews":"120","accreditions":"NA","treatment_cost":"NA","customer_expense":"NA","stay_duration":"NA","primary_phone":"0731-6632222","additional_phone":"0731-6632222","last_updated_at":"2021-03-31 00:00:00","ppn_benefits":{"ppn_spoc_phone_no":null,"nbhi_non_payable_waiver":null,"discount_on_opd_consultation":null,"discount_on_opd_investigation":null,"discount_on_health_check_up":null,"free_ambulance":null,"ppn_spoc_name":null},"poc":null,"ir":null},{"id":25018,"provider_id":"77044","name":"Aditya Lifeline Pvt. Ltd.","address":"315 - Usha Nagar Ext. Indore (Nagar Nigam)","city":"Indore","state":"Madhya Pradesh","postal_code":452009,"logo":"https://rules.nivabupa.com/media/default_hospital.svg","latitude":22.69779,"longitude":75.83373,"beds_count":"48","email_id":"adityahospital.tpa@gmail.com","website":"http://www.adityahospitalindore.com/","ppn_available":false,"doctors_count":"19","rating":0,"avg_rating":0,"review_count":2,"rating_count":2,"reviews":"120","accreditions":"NABH Entry Level","treatment_cost":"NA","customer_expense":"NA","stay_duration":"5","primary_phone":"7747007001","additional_phone":"7747007001","last_updated_at":"2021-08-25 00:00:00","ppn_benefits":{"ppn_spoc_phone_no":null,"nbhi_non_payable_waiver":null,"discount_on_opd_consultation":null,"discount_on_opd_investigation":null,"discount_on_health_check_up":null,"free_ambulance":null,"ppn_spoc_name":null},"poc":null,"ir":null},{"id":45367,"provider_id":"95592","name":"Getwell Hospital","address":"147 A.B Road, Chana Godam Mhow","city":"Indore","state":"Madhya Pradesh","postal_code":453441,"logo":"https://rules.nivabupa.com/media/default_hospital.svg","latitude":null,"longitude":null,"beds_count":"NA","email_id":"getwellhospital@yahoo.com","website":null,"ppn_available":false,"doctors_count":"NA","rating":0,"avg_rating":0,"review_count":1,"rating_count":1,"reviews":"120","accreditions":"NA","treatment_cost":"NA","customer_expense":"NA","stay_duration":"NA","primary_phone":"0732-4275300","additional_phone":"7509867788","last_updated_at":"NA","ppn_benefits":{"ppn_spoc_phone_no":null,"nbhi_non_payable_waiver":null,"discount_on_opd_consultation":null,"discount_on_opd_investigation":null,"discount_on_health_check_up":null,"free_ambulance":null,"ppn_spoc_name":null},"poc":null,"ir":null},{"id":45556,"provider_id":"96839","name":"M.N.H. Care Hospital","address":"1774, Dr. Abdul Gafoor Road, Mhow","city":"Indore","state":"Madhya Pradesh","postal_code":453441,"logo":"https://rules.nivabupa.com/media/default_hospital.svg","latitude":null,"longitude":null,"beds_count":"NA","email_id":"tpamnhcare@gmail.com","website":"https://www.mnhcare.com/","ppn_available":false,"doctors_count":"NA","rating":0,"avg_rating":0,"review_count":1,"rating_count":1,"reviews":"120","accreditions":"NA","treatment_cost":"NA","customer_expense":"NA","stay_duration":"NA","primary_phone":"07324-273924","additional_phone":"7324273924","last_updated_at":"NA","ppn_benefits":{"ppn_spoc_phone_no":null,"nbhi_non_payable_waiver":null,"discount_on_opd_consultation":null,"discount_on_opd_investigation":null,"discount_on_health_check_up":null,"free_ambulance":null,"ppn_spoc_name":null},"poc":null,"ir":null},{"id":19536,"provider_id":"30962","name":"Arpan Hospital and Research Centre","address":"151/2 Imli Bazaar Rajwada","city":"Indore","state":"Madhya Pradesh","postal_code":452001,"logo":"https://rules.nivabupa.com/media/default_hospital.svg","latitude":22.718958,"longitude":75.855746,"beds_count":"65","email_id":"arpan22komal@gmail.com","website":"http://www.arpannurshinghome.com/","ppn_available":false,"doctors_count":"27","rating":0,"avg_rating":0,"review_count":"NA","rating_count":"NA","reviews":"120","accreditions":"NA","treatment_cost":"NA","customer_expense":"NA","stay_duration":"NA","primary_phone":"0731-2530200","additional_phone":"9827270634","last_updated_at":"2021-03-31 00:00:00","ppn_benefits":{"ppn_spoc_phone_no":null,"nbhi_non_payable_waiver":null,"discount_on_opd_consultation":null,"discount_on_opd_investigation":null,"discount_on_health_check_up":null,"free_ambulance":null,"ppn_spoc_name":null},"poc":null,"ir":null},{"id":22572,"provider_id":"62910","name":"Motherhood Hospital - Indore","address":"Plot No.35 36 38 39 Scheme No 54, Mechanic Nagar","city":"Indore","state":"Madhya Pradesh","postal_code":452001,"logo":"https://rules.nivabupa.com/media/default_hospital.svg","latitude":22.74315,"longitude":75.8907,"beds_count":"50","email_id":"tpa.indore@motherhoodindia.com","website":"https://www.motherhoodindia.com/","ppn_available":false,"doctors_count":"26","rating":0,"avg_rating":0,"review_count":2,"rating_count":2,"reviews":"120","accreditions":"NABH Entry Level","treatment_cost":"NA","customer_expense":"NA","stay_duration":"4","primary_phone":"9340676403","additional_phone":"7489272820","last_updated_at":"2021-02-15 00:00:00","ppn_benefits":{"ppn_spoc_phone_no":null,"nbhi_non_payable_waiver":null,"discount_on_opd_consultation":null,"discount_on_opd_investigation":null,"discount_on_health_check_up":null,"free_ambulance":null,"ppn_spoc_name":null},"poc":null,"ir":null},{"id":25316,"provider_id":"79598","name":"SRJ Netralaya","address":"4 Anoop Nagar Opp. Srj-Cbcc Cancer Hospital, A.B. Road Indore ( Nagar Nigam )","city":"Indore","state":"Madhya Pradesh","postal_code":452018,"logo":"https://rules.nivabupa.com/media/default_hospital.svg","latitude":0,"longitude":0,"beds_count":"25","email_id":"accounts@srjnetralaya.com","website":"http://www.srjnetralaya.com/","ppn_available":false,"doctors_count":"4","rating":0,"avg_rating":0,"review_count":"NA","rating_count":"NA","reviews":"120","accreditions":"NA","treatment_cost":"NA","customer_expense":"NA","stay_duration":"1","primary_phone":"0731-3515100","additional_phone":"9977054233","last_updated_at":"2021-10-13 00:00:00","ppn_benefits":{"ppn_spoc_phone_no":null,"nbhi_non_payable_waiver":null,"discount_on_opd_consultation":null,"discount_on_opd_investigation":null,"discount_on_health_check_up":null,"free_ambulance":null,"ppn_spoc_name":null},"poc":null,"ir":null},{"id":18269,"provider_id":"20511","name":"Life Line Hospital","address":"14 Anoop Nagar Lig Circle A. B. Road","city":"Indore","state":"Madhya Pradesh","postal_code":452008,"logo":"https://rules.nivabupa.com/media/default_hospital.svg","latitude":0,"longitude":0,"beds_count":"70","email_id":"sohail.ashrf@gmail.com","website":null,"ppn_available":false,"doctors_count":"25","rating":0,"avg_rating":0,"review_count":"NA","rating_count":"NA","reviews":"120","accreditions":"NA","treatment_cost":"NA","customer_expense":"NA","stay_duration":"NA","primary_phone":"0731-2443411","additional_phone":"090099-13786","last_updated_at":"2021-03-31 00:00:00","ppn_benefits":{"ppn_spoc_phone_no":null,"nbhi_non_payable_waiver":null,"discount_on_opd_consultation":null,"discount_on_opd_investigation":null,"discount_on_health_check_up":null,"free_ambulance":null,"ppn_spoc_name":null},"poc":null,"ir":null},{"id":18357,"provider_id":"20703","name":"Choithram Hospital and Research Centre","address":"Manik Bagh Road","city":"Indore","state":"Madhya Pradesh","postal_code":452014,"logo":"https://rules.nivabupa.com/media/default_hospital.svg","latitude":22.687746,"longitude":75.853706,"beds_count":"250","email_id":"insurance@choithram.org","website":"http://www.choithram.org/","ppn_available":false,"doctors_count":"103","rating":0,"avg_rating":0,"review_count":5,"rating_count":5,"reviews":"120","accreditions":"NABH Higher Level","treatment_cost":"<5,000","customer_expense":"NA","stay_duration":"11","primary_phone":"0731-2362491","additional_phone":"9977600880","last_updated_at":"2021-07-20 00:00:00","ppn_benefits":{"ppn_spoc_phone_no":null,"nbhi_non_payable_waiver":null,"discount_on_opd_consultation":null,"discount_on_opd_investigation":null,"discount_on_health_check_up":null,"free_ambulance":null,"ppn_spoc_name":null},"poc":null,"ir":null},{"id":18429,"provider_id":"20951","name":"Bombay Hospital Indore","address":"Ida Scheme No. 94/95 Ring Road","city":"Indore","state":"Madhya Pradesh","postal_code":452010,"logo":"https://rules.nivabupa.com/media/default_hospital.svg","latitude":22.75433,"longitude":75.903301,"beds_count":"250","email_id":"firozbombayhospital@gmail.com","website":"http://www.bombayhospitalindore.com/","ppn_available":false,"doctors_count":"98","rating":0,"avg_rating":0,"review_count":13,"rating_count":13,"reviews":"120","accreditions":"NABH Higher Level","treatment_cost":"10,000-15,000","customer_expense":"NA","stay_duration":"5","primary_phone":"0731-2558866","additional_phone":"0731-2558866","last_updated_at":"2021-07-20 00:00:00","ppn_benefits":{"ppn_spoc_phone_no":null,"nbhi_non_payable_waiver":null,"discount_on_opd_consultation":null,"discount_on_opd_investigation":null,"discount_on_health_check_up":null,"free_ambulance":null,"ppn_spoc_name":null},"poc":null,"ir":null},{"id":17869,"provider_id":"92283","name":"A.N.S. Hospital","address":"12F And 13F, Shramik Colony, A.B. Road Rau","city":"Indore","state":"Madhya Pradesh","postal_code":453331,"logo":"https://rules.nivabupa.com/media/default_hospital.svg","latitude":null,"longitude":null,"beds_count":"NA","email_id":"ans.hospital.indore@gmail.com","website":null,"ppn_available":false,"doctors_count":"NA","rating":0,"avg_rating":0,"review_count":1,"rating_count":1,"reviews":"120","accreditions":"NA","treatment_cost":"NA","customer_expense":"NA","stay_duration":"NA","primary_phone":"7312995103","additional_phone":"9826390138","last_updated_at":"NA","ppn_benefits":{"ppn_spoc_phone_no":null,"nbhi_non_payable_waiver":null,"discount_on_opd_consultation":null,"discount_on_opd_investigation":null,"discount_on_health_check_up":null,"free_ambulance":null,"ppn_spoc_name":null},"poc":null,"ir":null},{"id":20694,"provider_id":"43676","name":"Mayank Hospital.","address":"11/1 Manorama Ganj, Near Canara Bank","city":"Indore","state":"Madhya Pradesh","postal_code":452001,"logo":"https://rules.nivabupa.com/media/default_hospital.svg","latitude":22.722892,"longitude":75.888306,"beds_count":"35","email_id":"manager@mayankhospital.org","website":null,"ppn_available":false,"doctors_count":"16","rating":0,"avg_rating":0,"review_count":"NA","rating_count":"NA","reviews":"120","accreditions":"NA","treatment_cost":"NA","customer_expense":"NA","stay_duration":"9","primary_phone":"0731-2499180","additional_phone":"8085607836","last_updated_at":"2021-03-31 00:00:00","ppn_benefits":{"ppn_spoc_phone_no":null,"nbhi_non_payable_waiver":null,"discount_on_opd_consultation":null,"discount_on_opd_investigation":null,"discount_on_health_check_up":null,"free_ambulance":null,"ppn_spoc_name":null},"poc":null,"ir":null},{"id":21224,"provider_id":"48040","name":"V-Care Hospital and Research Centre","address":"163 Af, Scheme No 54, Vijay Nagar","city":"Indore","state":"Madhya Pradesh","postal_code":452010,"logo":"https://rules.nivabupa.com/media/default_hospital.svg","latitude":22.757033,"longitude":75.892539,"beds_count":"20","email_id":"vcarehospitalmediclaim@gmail.com","website":"http://www.vcarehospitalindore.com/","ppn_available":false,"doctors_count":"10","rating":0,"avg_rating":0,"review_count":"NA","rating_count":"NA","reviews":"120","accreditions":"NA","treatment_cost":"NA","customer_expense":"NA","stay_duration":"7","primary_phone":"0731-2558222","additional_phone":"9039558222","last_updated_at":"2021-03-31 00:00:00","ppn_benefits":{"ppn_spoc_phone_no":null,"nbhi_non_payable_waiver":null,"discount_on_opd_consultation":null,"discount_on_opd_investigation":null,"discount_on_health_check_up":null,"free_ambulance":null,"ppn_spoc_name":null},"poc":null,"ir":null},{"id":22707,"provider_id":"63403","name":"Mahashabde Netralaya & Child Care Centre","address":"6-Indira Gandhi Nagar, Kesharbag Road, Near Pnb Bank","city":"Indore","state":"Madhya Pradesh","postal_code":452009,"logo":"https://rules.nivabupa.com/media/default_hospital.svg","latitude":14.46631,"longitude":78.83059,"beds_count":"3","email_id":"sudhir.mahashabde@gmail.com","website":"http://www.mahashabdenetralaya.com/","ppn_available":false,"doctors_count":"1","rating":0,"avg_rating":0,"review_count":"NA","rating_count":"NA","reviews":"120","accreditions":"NABH Entry Level","treatment_cost":"NA","customer_expense":"NA","stay_duration":"NA","primary_phone":"8120676929","additional_phone":"8120676929","last_updated_at":"2021-03-31 00:00:00","ppn_benefits":{"ppn_spoc_phone_no":null,"nbhi_non_payable_waiver":null,"discount_on_opd_consultation":null,"discount_on_opd_investigation":null,"discount_on_health_check_up":null,"free_ambulance":null,"ppn_spoc_name":null},"poc":null,"ir":null},{"id":23620,"provider_id":"67221","name":"GBL Hospital","address":"Ah/31, Senior Hig Sukhliya, Near Bapat Square","city":"Indore","state":"Madhya Pradesh","postal_code":452010,"logo":"https://rules.nivabupa.com/media/default_hospital.svg","latitude":22.75647,"longitude":75.87788,"beds_count":"37","email_id":"mediclaim@gblhospital.com","website":"http://www.gblhospital.com/","ppn_available":false,"doctors_count":"16","rating":0,"avg_rating":0,"review_count":1,"rating_count":1,"reviews":"120","accreditions":"NA","treatment_cost":"NA","customer_expense":"NA","stay_duration":"8","primary_phone":"8962008009","additional_phone":"9907728800","last_updated_at":"2020-12-23 00:00:00","ppn_benefits":{"ppn_spoc_phone_no":null,"nbhi_non_payable_waiver":null,"discount_on_opd_consultation":null,"discount_on_opd_investigation":null,"discount_on_health_check_up":null,"free_ambulance":null,"ppn_spoc_name":null},"poc":null,"ir":null},{"id":24509,"provider_id":"71786","name":"Retina Speciality Hospital","address":"324-325 Scheme 54 Pu-4 Bihind Hotel Sure Nr Indian Petrol Pump, Rasoma Square A.B. Road","city":"Indore","state":"Madhya Pradesh","postal_code":452010,"logo":"https://rules.nivabupa.com/media/default_hospital.svg","latitude":22.74807,"longitude":75.89632,"beds_count":"13","email_id":"retinaspecialityhospital@gmail.com","website":"http://www.retinaspecialityhospital.com/","ppn_available":false,"doctors_count":"7","rating":0,"avg_rating":0,"review_count":2,"rating_count":2,"reviews":"120","accreditions":"NABH Higher Level","treatment_cost":"NA","customer_expense":"NA","stay_duration":"NA","primary_phone":"0731-2553377","additional_phone":"0731-2553377","last_updated_at":"2021-05-15 00:00:00","ppn_benefits":{"ppn_spoc_phone_no":null,"nbhi_non_payable_waiver":null,"discount_on_opd_consultation":null,"discount_on_opd_investigation":null,"discount_on_health_check_up":null,"free_ambulance":null,"ppn_spoc_name":null},"poc":null,"ir":null},{"id":24810,"provider_id":"75521","name":"Nihar Netralaya","address":"Rabbawala Bhawan 370 M.G. Road, Gorakund Square","city":"Indore","state":"Madhya Pradesh","postal_code":452001,"logo":"https://rules.nivabupa.com/media/default_hospital.svg","latitude":22.77946,"longitude":75.84943,"beds_count":"15","email_id":"niharnetralayaindore@gmil.com","website":"http://www.niharnetralaya.com/","ppn_available":false,"doctors_count":"5","rating":0,"avg_rating":0,"review_count":"NA","rating_count":"NA","reviews":"120","accreditions":"NABH Entry Level","treatment_cost":"NA","customer_expense":"NA","stay_duration":"NA","primary_phone":"9893307370","additional_phone":"9893307370","last_updated_at":"2021-07-20 00:00:00","ppn_benefits":{"ppn_spoc_phone_no":null,"nbhi_non_payable_waiver":null,"discount_on_opd_consultation":null,"discount_on_opd_investigation":null,"discount_on_health_check_up":null,"free_ambulance":null,"ppn_spoc_name":null},"poc":null,"ir":null},{"id":25477,"provider_id":"80974","name":"Geetanjali Hospital Indore","address":"4 Ramchandra Nagar Chouraha, Airport Road","city":"Indore","state":"Madhya Pradesh","postal_code":452005,"logo":"https://rules.nivabupa.com/media/default_hospital.svg","latitude":0,"longitude":0,"beds_count":"50","email_id":"geetanjalihospital.tpa@gmail.com","website":null,"ppn_available":false,"doctors_count":"19","rating":0,"avg_rating":0,"review_count":1,"rating_count":1,"reviews":"120","accreditions":"NA","treatment_cost":"NA","customer_expense":"NA","stay_duration":"6","primary_phone":"0731-2414177","additional_phone":"7747007001","last_updated_at":"2021-11-11 00:00:00","ppn_benefits":{"ppn_spoc_phone_no":null,"nbhi_non_payable_waiver":null,"discount_on_opd_consultation":null,"discount_on_opd_investigation":null,"discount_on_health_check_up":null,"free_ambulance":null,"ppn_spoc_name":null},"poc":null,"ir":null},{"id":25741,"provider_id":"83132","name":"Apple Indore Hospital and Research Center","address":"15/1 Transport Nagar Near Bhawarkuan Square","city":"Indore","state":"Madhya Pradesh","postal_code":452015,"logo":"https://rules.nivabupa.com/media/default_hospital.svg","latitude":0,"longitude":0,"beds_count":"150","email_id":"tpaapplehospitalindore@gmail.com","website":null,"ppn_available":false,"doctors_count":"70","rating":0,"avg_rating":0,"review_count":7,"rating_count":7,"reviews":"120","accreditions":"NABH Entry Level","treatment_cost":"NA","customer_expense":"NA","stay_duration":"5","primary_phone":"0731-4769999","additional_phone":"8839465434","last_updated_at":"2021-12-23 00:00:00","ppn_benefits":{"ppn_spoc_phone_no":null,"nbhi_non_payable_waiver":null,"discount_on_opd_consultation":null,"discount_on_opd_investigation":null,"discount_on_health_check_up":null,"free_ambulance":null,"ppn_spoc_name":null},"poc":null,"ir":null},{"id":25832,"provider_id":"83593","name":"Laksmi Memorial Hospital and Research Centre","address":"1/2 New Palasia Near Nehru Nagar Bridge","city":"Indore","state":"Madhya Pradesh","postal_code":452018,"logo":"https://rules.nivabupa.com/media/default_hospital.svg","latitude":0,"longitude":0,"beds_count":"65","email_id":"irfankhan5477@rediffmail.com","website":null,"ppn_available":false,"doctors_count":"19","rating":0,"avg_rating":0,"review_count":1,"rating_count":1,"reviews":"120","accreditions":"NA","treatment_cost":"NA","customer_expense":"NA","stay_duration":"NA","primary_phone":"0731-4078899","additional_phone":"9827531786","last_updated_at":"2021-12-30 00:00:00","ppn_benefits":{"ppn_spoc_phone_no":null,"nbhi_non_payable_waiver":null,"discount_on_opd_consultation":null,"discount_on_opd_investigation":null,"discount_on_health_check_up":null,"free_ambulance":null,"ppn_spoc_name":null},"poc":null,"ir":null},{"id":25940,"provider_id":"84795","name":"Siddharth Hospitals","address":"49 Pagnis Paga, Near Water Tank","city":"Indore","state":"Madhya Pradesh","postal_code":452007,"logo":"https://rules.nivabupa.com/media/default_hospital.svg","latitude":0,"longitude":0,"beds_count":"100","email_id":"shmediclaim@gmail.com","website":"http://www.siddharth-hospitals.com/","ppn_available":false,"doctors_count":"5","rating":0,"avg_rating":0,"review_count":"NA","rating_count":"NA","reviews":"120","accreditions":"NA","treatment_cost":"NA","customer_expense":"NA","stay_duration":"NA","primary_phone":"0731-4070196","additional_phone":"7777886658","last_updated_at":"2022-01-21 00:00:00","ppn_benefits":{"ppn_spoc_phone_no":null,"nbhi_non_payable_waiver":null,"discount_on_opd_consultation":null,"discount_on_opd_investigation":null,"discount_on_health_check_up":null,"free_ambulance":null,"ppn_spoc_name":null},"poc":null,"ir":null},{"id":20405,"provider_id":"37142","name":"Medanta The Medicity Indore","address":"Plot No. 8, Pu - 4 Commercial, Sch - 54, Vijay Nagar","city":"Indore","state":"Madhya Pradesh","postal_code":452010,"logo":"https://rules.nivabupa.com/media/hospital_images/37142.png","latitude":22.74902,"longitude":75.89595,"beds_count":"200","email_id":"frontdesk.indore@medanta.org","website":"http://www.medanta.org/","ppn_available":false,"doctors_count":"82","rating":0,"avg_rating":0,"review_count":3,"rating_count":3,"reviews":"120","accreditions":"NA","treatment_cost":"NA","customer_expense":"NA","stay_duration":"4","primary_phone":"0731-2575590","additional_phone":"9926563651","last_updated_at":"2021-07-20 00:00:00","ppn_benefits":{"ppn_spoc_phone_no":null,"nbhi_non_payable_waiver":null,"discount_on_opd_consultation":null,"discount_on_opd_investigation":null,"discount_on_health_check_up":null,"free_ambulance":null,"ppn_spoc_name":null},"poc":null,"ir":null},{"id":25970,"provider_id":"85029","name":"Dr. Agarwals Eye Hospitals - Indore","address":"No. 4. Bank Colony, Annapurna Road, Opp. Dussehramedan","city":"Indore","state":"Madhya Pradesh","postal_code":452001,"logo":"https://rules.nivabupa.com/media/default_hospital.svg","latitude":0,"longitude":0,"beds_count":"10","email_id":"mohanraj.g@dragarwal.com","website":"https://www.dragarwal.com/","ppn_available":false,"doctors_count":"4","rating":0,"avg_rating":0,"review_count":2,"rating_count":2,"reviews":"120","accreditions":"NA","treatment_cost":"NA","customer_expense":"NA","stay_duration":"NA","primary_phone":"9884767118","additional_phone":"7338900111","last_updated_at":"2022-01-27 00:00:00","ppn_benefits":{"ppn_spoc_phone_no":null,"nbhi_non_payable_waiver":null,"discount_on_opd_consultation":null,"discount_on_opd_investigation":null,"discount_on_health_check_up":null,"free_ambulance":null,"ppn_spoc_name":null},"poc":null,"ir":null},{"id":25994,"provider_id":"85141","name":"Dr. Agarwals Eye Hospital Ltd. - Janjirwala","address":"No. 203 Lakshya Badgara Crest Tower, 15/1 Narayan Tower Old Palasia, Janjirwala","city":"Indore","state":"Madhya Pradesh","postal_code":452001,"logo":"https://rules.nivabupa.com/media/default_hospital.svg","latitude":0,"longitude":0,"beds_count":"5","email_id":"mohanraj.g@dragarwal.com","website":"https://www.dragarwal.com/","ppn_available":false,"doctors_count":"8","rating":0,"avg_rating":0,"review_count":"NA","rating_count":"NA","reviews":"120","accreditions":"NA","treatment_cost":"NA","customer_expense":"NA","stay_duration":"NA","primary_phone":"9884767118","additional_phone":"7338900111","last_updated_at":"2022-01-28 00:00:00","ppn_benefits":{"ppn_spoc_phone_no":null,"nbhi_non_payable_waiver":null,"discount_on_opd_consultation":null,"discount_on_opd_investigation":null,"discount_on_health_check_up":null,"free_ambulance":null,"ppn_spoc_name":null},"poc":null,"ir":null},{"id":26650,"provider_id":"93167","name":"Lotus Hospital Multispeciality Center","address":"180-Ed Scheme No. 94, Khajrana Main Square","city":"Indore","state":"Madhya Pradesh","postal_code":452016,"logo":"https://rules.nivabupa.com/media/default_hospital.svg","latitude":null,"longitude":null,"beds_count":"NA","email_id":"tpalotusindore@gmail.com","website":null,"ppn_available":false,"doctors_count":"NA","rating":0,"avg_rating":0,"review_count":"NA","rating_count":"NA","reviews":"120","accreditions":"NA","treatment_cost":"NA","customer_expense":"NA","stay_duration":"NA","primary_phone":"7312998344","additional_phone":"9827506818","last_updated_at":"NA","ppn_benefits":{"ppn_spoc_phone_no":null,"nbhi_non_payable_waiver":null,"discount_on_opd_consultation":null,"discount_on_opd_investigation":null,"discount_on_health_check_up":null,"free_ambulance":null,"ppn_spoc_name":null},"poc":null,"ir":null},{"id":47542,"provider_id":"103307","name":"Anandam Netralaya Private Limited","address":"16/1/3 Race Course Road, Near Sodani Diagnostic Center","city":"Indore","state":"Madhya Pradesh","postal_code":452003,"logo":"https://rules.nivabupa.com/media/default_hospital.svg","latitude":null,"longitude":null,"beds_count":"NA","email_id":"anandamnetralaya@gmail.com","website":"https://anandameyehospital.com/","ppn_available":false,"doctors_count":"NA","rating":0,"avg_rating":1,"review_count":"NA","rating_count":"NA","reviews":"120","accreditions":"NA","treatment_cost":"NA","customer_expense":"NA","stay_duration":"NA","primary_phone":"0731-4005155","additional_phone":"9617720424","last_updated_at":"NA","ppn_benefits":{"ppn_spoc_phone_no":null,"nbhi_non_payable_waiver":null,"discount_on_opd_consultation":null,"discount_on_opd_investigation":null,"discount_on_health_check_up":null,"free_ambulance":null,"ppn_spoc_name":null},"poc":null,"ir":null},{"id":47333,"provider_id":"102479","name":"Darsh Hospital","address":"57 Ambikapuri Extension, 60 Feet Road, Airport Road,","city":"Indore","state":"Madhya Pradesh","postal_code":452005,"logo":"https://rules.nivabupa.com/media/default_hospital.svg","latitude":null,"longitude":null,"beds_count":"NA","email_id":"darshskhospital@gmail.com","website":null,"ppn_available":false,"doctors_count":"NA","rating":0,"avg_rating":1,"review_count":"NA","rating_count":"NA","reviews":"120","accreditions":"NA","treatment_cost":"NA","customer_expense":"NA","stay_duration":"NA","primary_phone":"9449979334","additional_phone":null,"last_updated_at":"NA","ppn_benefits":{"ppn_spoc_phone_no":null,"nbhi_non_payable_waiver":null,"discount_on_opd_consultation":null,"discount_on_opd_investigation":null,"discount_on_health_check_up":null,"free_ambulance":null,"ppn_spoc_name":null},"poc":null,"ir":null},{"id":47323,"provider_id":"102461","name":"Cellcure Cancer Centre Pvt Ltd","address":"Plot No 3-A Ground Floor, Saket Tower, Ab Road, Ratlam Kothi, Near Geeta Bhavan Square,","city":"Indore","state":"Madhya Pradesh","postal_code":452001,"logo":"https://rules.nivabupa.com/media/default_hospital.svg","latitude":null,"longitude":null,"beds_count":"NA","email_id":"laxmibhaskar@mocindia.co.in","website":null,"ppn_available":false,"doctors_count":"NA","rating":0,"avg_rating":1,"review_count":"NA","rating_count":"NA","reviews":"120","accreditions":"NA","treatment_cost":"NA","customer_expense":"NA","stay_duration":"NA","primary_phone":"0731-4901150","additional_phone":null,"last_updated_at":"NA","ppn_benefits":{"ppn_spoc_phone_no":null,"nbhi_non_payable_waiver":null,"discount_on_opd_consultation":null,"discount_on_opd_investigation":null,"discount_on_health_check_up":null,"free_ambulance":null,"ppn_spoc_name":null},"poc":null,"ir":null},{"id":47168,"provider_id":"102194","name":"V One Hospital","address":"2/1 Residency Area, Ab Road, Geeta Bhawan Square","city":"Indore","state":"Madhya Pradesh","postal_code":452001,"logo":"https://rules.nivabupa.com/media/default_hospital.svg","latitude":null,"longitude":null,"beds_count":"NA","email_id":"accounts@vonehospital.com","website":null,"ppn_available":false,"doctors_count":"NA","rating":0,"avg_rating":1,"review_count":"NA","rating_count":"NA","reviews":"120","accreditions":"NA","treatment_cost":"NA","customer_expense":"NA","stay_duration":"NA","primary_phone":"0731-8842156","additional_phone":"7313588888","last_updated_at":"NA","ppn_benefits":{"ppn_spoc_phone_no":null,"nbhi_non_payable_waiver":null,"discount_on_opd_consultation":null,"discount_on_opd_investigation":null,"discount_on_health_check_up":null,"free_ambulance":null,"ppn_spoc_name":null},"poc":null,"ir":null}]}