{"links":{"next":null,"previous":"https://rules.nivabupa.com/api/v1/hospital_rater/get_hospital_list/?city=Ernakulam&format=json&page=2"},"count":79,"total_pages":3,"results":[{"id":20320,"provider_id":"35679","name":"Madonna Health Care","address":"Algva Road Angamaly","city":"Ernakulam","state":"Kerala","postal_code":683572,"logo":"https://rules.nivabupa.com/media/default_hospital.svg","latitude":10.184909,"longitude":76.375305,"beds_count":"56","email_id":"madonnahospital@rediffmail.com","website":null,"ppn_available":false,"doctors_count":"24","rating":0,"avg_rating":0,"review_count":1,"rating_count":1,"reviews":"120","accreditions":"NABH Entry Level","treatment_cost":"NA","customer_expense":"NA","stay_duration":"NA","primary_phone":"0484-2455666","additional_phone":"0484-2455666","last_updated_at":"2021-03-31 00:00:00","ppn_benefits":{"ppn_spoc_phone_no":null,"nbhi_non_payable_waiver":null,"discount_on_opd_consultation":null,"discount_on_opd_investigation":null,"discount_on_health_check_up":null,"free_ambulance":null,"ppn_spoc_name":null},"poc":null,"ir":null},{"id":20313,"provider_id":"35573","name":"Maj Hospital","address":"Edapally","city":"Ernakulam","state":"Kerala","postal_code":682024,"logo":"https://rules.nivabupa.com/media/default_hospital.svg","latitude":10.021333,"longitude":76.308046,"beds_count":"350","email_id":"info@majhospital.com","website":null,"ppn_available":false,"doctors_count":"41","rating":0,"avg_rating":0,"review_count":3,"rating_count":3,"reviews":"120","accreditions":"NABH Entry Level","treatment_cost":"NA","customer_expense":"NA","stay_duration":"11","primary_phone":"0484-2344996","additional_phone":"0484-2344996","last_updated_at":"2021-03-19 00:00:00","ppn_benefits":{"ppn_spoc_phone_no":null,"nbhi_non_payable_waiver":null,"discount_on_opd_consultation":null,"discount_on_opd_investigation":null,"discount_on_health_check_up":null,"free_ambulance":null,"ppn_spoc_name":null},"poc":null,"ir":null},{"id":20420,"provider_id":"37703","name":"Kristu Jayanthi Hospital","address":"Perumpilly, Mjaarackal, Uypin","city":"Ernakulam","state":"Kerala","postal_code":682505,"logo":"https://rules.nivabupa.com/media/default_hospital.svg","latitude":10.037021,"longitude":76.224915,"beds_count":"50","email_id":"kristujayantihospital2000@gmail.com","website":"http://www.kristujayantihospital.com/","ppn_available":false,"doctors_count":"13","rating":0,"avg_rating":0,"review_count":2,"rating_count":2,"reviews":"120","accreditions":"NABH Entry Level","treatment_cost":"NA","customer_expense":"NA","stay_duration":"5","primary_phone":"0484-2495250","additional_phone":"859040484-26","last_updated_at":"2021-01-05 00:00:00","ppn_benefits":{"ppn_spoc_phone_no":null,"nbhi_non_payable_waiver":null,"discount_on_opd_consultation":null,"discount_on_opd_investigation":null,"discount_on_health_check_up":null,"free_ambulance":null,"ppn_spoc_name":null},"poc":null,"ir":null},{"id":18296,"provider_id":"20563","name":"Krishna Hospital","address":"M.G. Chittoor Road","city":"Ernakulam","state":"Kerala","postal_code":682011,"logo":"https://rules.nivabupa.com/media/default_hospital.svg","latitude":0,"longitude":0,"beds_count":"55","email_id":"drsabhapathy@yahoo.in","website":null,"ppn_available":false,"doctors_count":"23","rating":0,"avg_rating":0,"review_count":1,"rating_count":1,"reviews":"120","accreditions":"NA","treatment_cost":"NA","customer_expense":"NA","stay_duration":"3","primary_phone":"0484-2368230","additional_phone":"0484-2368230","last_updated_at":"2021-07-20 00:00:00","ppn_benefits":{"ppn_spoc_phone_no":null,"nbhi_non_payable_waiver":null,"discount_on_opd_consultation":null,"discount_on_opd_investigation":null,"discount_on_health_check_up":null,"free_ambulance":null,"ppn_spoc_name":null},"poc":null,"ir":null},{"id":18345,"provider_id":"20656","name":"Welcare Hospital","address":"S A Road Vyttila Ernakulam","city":"Ernakulam","state":"Kerala","postal_code":682019,"logo":"https://rules.nivabupa.com/media/default_hospital.svg","latitude":9.969865,"longitude":76.315584,"beds_count":"150","email_id":"welcare.kochi@gmail.com","website":null,"ppn_available":false,"doctors_count":"42","rating":0,"avg_rating":0,"review_count":1,"rating_count":1,"reviews":"120","accreditions":"NABH Entry Level","treatment_cost":"NA","customer_expense":"NA","stay_duration":"5","primary_phone":"0484-4091111","additional_phone":"9207736607","last_updated_at":"2021-03-30 00:00:00","ppn_benefits":{"ppn_spoc_phone_no":null,"nbhi_non_payable_waiver":null,"discount_on_opd_consultation":null,"discount_on_opd_investigation":null,"discount_on_health_check_up":null,"free_ambulance":null,"ppn_spoc_name":null},"poc":null,"ir":null},{"id":18367,"provider_id":"20725","name":"V G Saraf Memorial Hospital (P) Ltd.","address":"Sreekandath Road Ravipuram","city":"Ernakulam","state":"Kerala","postal_code":682016,"logo":"https://rules.nivabupa.com/media/default_hospital.svg","latitude":9.931233,"longitude":76.267304,"beds_count":"100","email_id":"vgsarafhospital@gmail.com","website":"http://www.vgsarafhospital.in/","ppn_available":false,"doctors_count":"35","rating":0,"avg_rating":0,"review_count":2,"rating_count":2,"reviews":"120","accreditions":"NABH Entry Level","treatment_cost":"NA","customer_expense":"NA","stay_duration":"0","primary_phone":"0484-2363949","additional_phone":"0484-2363949","last_updated_at":"2021-03-31 00:00:00","ppn_benefits":{"ppn_spoc_phone_no":null,"nbhi_non_payable_waiver":null,"discount_on_opd_consultation":null,"discount_on_opd_investigation":null,"discount_on_health_check_up":null,"free_ambulance":null,"ppn_spoc_name":null},"poc":null,"ir":null},{"id":18796,"provider_id":"22313","name":"Vasan Eye Care Hospital Cochin","address":"27/3215 Opp.Shipyard M.G.Road","city":"Ernakulam","state":"Kerala","postal_code":682015,"logo":"https://rules.nivabupa.com/media/default_hospital.svg","latitude":9.95467,"longitude":76.29273,"beds_count":"36","email_id":"recovery.tpa@vasaneye.in","website":"http://vasaneye.com/","ppn_available":false,"doctors_count":"19","rating":0,"avg_rating":0,"review_count":"NA","rating_count":"NA","reviews":"120","accreditions":"NA","treatment_cost":"NA","customer_expense":"NA","stay_duration":"NA","primary_phone":"0484-4089000","additional_phone":"9895780924","last_updated_at":"2021-03-31 00:00:00","ppn_benefits":{"ppn_spoc_phone_no":null,"nbhi_non_payable_waiver":null,"discount_on_opd_consultation":null,"discount_on_opd_investigation":null,"discount_on_health_check_up":null,"free_ambulance":null,"ppn_spoc_name":null},"poc":null,"ir":null},{"id":20303,"provider_id":"34944","name":"Thaqdees Hospital","address":"Pukkattupady, Edathala.P.O, Aluva","city":"Ernakulam","state":"Kerala","postal_code":683561,"logo":"https://rules.nivabupa.com/media/default_hospital.svg","latitude":10.070787,"longitude":76.397188,"beds_count":"200","email_id":"thaqdees@gmail.com","website":null,"ppn_available":false,"doctors_count":"82","rating":0,"avg_rating":0,"review_count":"NA","rating_count":"NA","reviews":"120","accreditions":"NA","treatment_cost":"NA","customer_expense":"NA","stay_duration":"NA","primary_phone":"0484-2836096","additional_phone":"9846571961","last_updated_at":"2021-03-31 00:00:00","ppn_benefits":{"ppn_spoc_phone_no":null,"nbhi_non_payable_waiver":null,"discount_on_opd_consultation":null,"discount_on_opd_investigation":null,"discount_on_health_check_up":null,"free_ambulance":null,"ppn_spoc_name":null},"poc":null,"ir":null},{"id":20031,"provider_id":"32924","name":"Muvattupuzha Medical Centre","address":"M.C. Road, Vellorkunnam","city":"Ernakulam","state":"Kerala","postal_code":686673,"logo":"https://rules.nivabupa.com/media/default_hospital.svg","latitude":9.979848,"longitude":76.573807,"beds_count":"20","email_id":"mmc@mmcmvpa.com","website":null,"ppn_available":false,"doctors_count":"9","rating":0,"avg_rating":0,"review_count":"NA","rating_count":"NA","reviews":"120","accreditions":"NABH Entry Level","treatment_cost":"NA","customer_expense":"NA","stay_duration":"NA","primary_phone":"0485-2812215","additional_phone":"0485-2812215","last_updated_at":"2021-03-31 00:00:00","ppn_benefits":{"ppn_spoc_phone_no":null,"nbhi_non_payable_waiver":null,"discount_on_opd_consultation":null,"discount_on_opd_investigation":null,"discount_on_health_check_up":null,"free_ambulance":null,"ppn_spoc_name":null},"poc":null,"ir":null},{"id":20333,"provider_id":"35943","name":"Vimala Hospital Kerala","address":"Kanjoor, Kalady","city":"Ernakulam","state":"Kerala","postal_code":683575,"logo":"https://rules.nivabupa.com/media/default_hospital.svg","latitude":10.144657,"longitude":76.424873,"beds_count":"100","email_id":"vimalahospital58@gmail.com","website":null,"ppn_available":false,"doctors_count":"35","rating":0,"avg_rating":0,"review_count":"NA","rating_count":"NA","reviews":"120","accreditions":"NA","treatment_cost":"NA","customer_expense":"NA","stay_duration":"5","primary_phone":"0484-2462370","additional_phone":"9847047062","last_updated_at":"2021-03-31 00:00:00","ppn_benefits":{"ppn_spoc_phone_no":null,"nbhi_non_payable_waiver":null,"discount_on_opd_consultation":null,"discount_on_opd_investigation":null,"discount_on_health_check_up":null,"free_ambulance":null,"ppn_spoc_name":null},"poc":null,"ir":null},{"id":20314,"provider_id":"35575","name":"Samaritan Heart Institute","address":"Pookkatupady - Kizhakkambalam Road, Pazhanganad, Aluva","city":"Ernakulam","state":"Kerala","postal_code":683101,"logo":"https://rules.nivabupa.com/media/default_hospital.svg","latitude":10.102121,"longitude":76.35794,"beds_count":"49","email_id":"samaritanheartinstitute@gmail.com","website":"http://www.samaritanheart.in/","ppn_available":false,"doctors_count":"10","rating":0,"avg_rating":0,"review_count":3,"rating_count":3,"reviews":"120","accreditions":"NABH Entry Level","treatment_cost":"NA","customer_expense":"NA","stay_duration":"4","primary_phone":"0484-3380500","additional_phone":"8129172289","last_updated_at":"2021-06-10 00:00:00","ppn_benefits":{"ppn_spoc_phone_no":null,"nbhi_non_payable_waiver":null,"discount_on_opd_consultation":null,"discount_on_opd_investigation":null,"discount_on_health_check_up":null,"free_ambulance":null,"ppn_spoc_name":null},"poc":null,"ir":null},{"id":20318,"provider_id":"35592","name":"Najath Hospital","address":"Bridge Road, Aluva","city":"Ernakulam","state":"Kerala","postal_code":683101,"logo":"https://rules.nivabupa.com/media/default_hospital.svg","latitude":10.111006,"longitude":76.3516,"beds_count":"98","email_id":"insurance.najath@gmail.com","website":"http://www.najath.com/","ppn_available":false,"doctors_count":"20","rating":0,"avg_rating":0,"review_count":4,"rating_count":4,"reviews":"120","accreditions":"NA","treatment_cost":"NA","customer_expense":"NA","stay_duration":"6","primary_phone":"0484-2623693","additional_phone":"9037088239","last_updated_at":"2021-03-25 00:00:00","ppn_benefits":{"ppn_spoc_phone_no":null,"nbhi_non_payable_waiver":null,"discount_on_opd_consultation":null,"discount_on_opd_investigation":null,"discount_on_health_check_up":null,"free_ambulance":null,"ppn_spoc_name":null},"poc":null,"ir":null},{"id":26432,"provider_id":"88402","name":"Akshaya Hospital","address":"54/3193 K K Road Kadavanthara","city":"Ernakulam","state":"Kerala","postal_code":682020,"logo":"https://rules.nivabupa.com/media/default_hospital.svg","latitude":null,"longitude":null,"beds_count":"21","email_id":"akshayahospital@gmail.com","website":null,"ppn_available":false,"doctors_count":"7","rating":0,"avg_rating":0,"review_count":"NA","rating_count":"NA","reviews":"120","accreditions":"NABH Entry Level","treatment_cost":"NA","customer_expense":"NA","stay_duration":"NA","primary_phone":"0484-2206486","additional_phone":"8714608096","last_updated_at":"2022-03-31 00:00:00","ppn_benefits":{"ppn_spoc_phone_no":null,"nbhi_non_payable_waiver":null,"discount_on_opd_consultation":null,"discount_on_opd_investigation":null,"discount_on_health_check_up":null,"free_ambulance":null,"ppn_spoc_name":null},"poc":null,"ir":null},{"id":26436,"provider_id":"88467","name":"Chaithanya Eye Institute","address":"Nh-66 Bypass Sonia Nagar Palarivattom Padivattom","city":"Ernakulam","state":"Kerala","postal_code":682024,"logo":"https://rules.nivabupa.com/media/default_hospital.svg","latitude":null,"longitude":null,"beds_count":"NA","email_id":"accounts.cei@chaithanya.org","website":"https://www.chaithanya.org/","ppn_available":false,"doctors_count":"NA","rating":0,"avg_rating":0,"review_count":2,"rating_count":2,"reviews":"120","accreditions":"NA","treatment_cost":"NA","customer_expense":"NA","stay_duration":"NA","primary_phone":"0484-2725500","additional_phone":"7994495200","last_updated_at":"NA","ppn_benefits":{"ppn_spoc_phone_no":null,"nbhi_non_payable_waiver":null,"discount_on_opd_consultation":null,"discount_on_opd_investigation":null,"discount_on_health_check_up":null,"free_ambulance":null,"ppn_spoc_name":null},"poc":null,"ir":null},{"id":18270,"provider_id":"20512","name":"Specialists' Hospital","address":"Ernakulam North, Ernakulam Kochi","city":"Ernakulam","state":"Kerala","postal_code":682018,"logo":"https://rules.nivabupa.com/media/default_hospital.svg","latitude":0,"longitude":0,"beds_count":"100","email_id":"pro.specialists@gmail.com","website":"http://www.specialistshospital.com/","ppn_available":false,"doctors_count":"41","rating":0,"avg_rating":0,"review_count":1,"rating_count":1,"reviews":"120","accreditions":"NABH Entry Level","treatment_cost":"NA","customer_expense":"NA","stay_duration":"7","primary_phone":"0484-2395952","additional_phone":"0484-2395952","last_updated_at":"2021-07-20 00:00:00","ppn_benefits":{"ppn_spoc_phone_no":null,"nbhi_non_payable_waiver":null,"discount_on_opd_consultation":null,"discount_on_opd_investigation":null,"discount_on_health_check_up":null,"free_ambulance":null,"ppn_spoc_name":null},"poc":null,"ir":null},{"id":47318,"provider_id":"102220","name":"Sree Narayana Institute Of Medical Science ","address":"Chalakka, P.O. North Kuthiyathodu, Parvur,","city":"Ernakulam","state":"Kerala","postal_code":683594,"logo":"https://rules.nivabupa.com/media/default_hospital.svg","latitude":null,"longitude":null,"beds_count":"NA","email_id":"accounts@snims.org","website":"https://snims.org/","ppn_available":false,"doctors_count":"NA","rating":0,"avg_rating":1,"review_count":"NA","rating_count":"NA","reviews":"120","accreditions":"NA","treatment_cost":"NA","customer_expense":"NA","stay_duration":"NA","primary_phone":"0484-2661500","additional_phone":null,"last_updated_at":"NA","ppn_benefits":{"ppn_spoc_phone_no":null,"nbhi_non_payable_waiver":null,"discount_on_opd_consultation":null,"discount_on_opd_investigation":null,"discount_on_health_check_up":null,"free_ambulance":null,"ppn_spoc_name":null},"poc":null,"ir":null},{"id":47285,"provider_id":"102433","name":"Focus Eye Clinic ","address":"Near Renewal Centre, Azad Road, Kaloor","city":"Ernakulam","state":"Kerala","postal_code":682017,"logo":"https://rules.nivabupa.com/media/default_hospital.svg","latitude":null,"longitude":null,"beds_count":"NA","email_id":"focuseyehospital@gmail.com","website":"http://www.focuseyehospital.in/","ppn_available":false,"doctors_count":"NA","rating":0,"avg_rating":1,"review_count":"NA","rating_count":"NA","reviews":"120","accreditions":"NA","treatment_cost":"NA","customer_expense":"NA","stay_duration":"NA","primary_phone":"0484-4046444","additional_phone":"9847155346","last_updated_at":"NA","ppn_benefits":{"ppn_spoc_phone_no":null,"nbhi_non_payable_waiver":null,"discount_on_opd_consultation":null,"discount_on_opd_investigation":null,"discount_on_health_check_up":null,"free_ambulance":null,"ppn_spoc_name":null},"poc":null,"ir":null},{"id":47197,"provider_id":"102349","name":"A.P. Varkey Mission Hospital","address":"Thottappady, Arakkunnam, Kochi","city":"Ernakulam","state":"Kerala","postal_code":682313,"logo":"https://rules.nivabupa.com/media/default_hospital.svg","latitude":null,"longitude":null,"beds_count":"NA","email_id":"apvarkeyhospital2017@gmail.com","website":"https://www.apvarkeyhospital.com/","ppn_available":false,"doctors_count":"NA","rating":0,"avg_rating":1,"review_count":"NA","rating_count":"NA","reviews":"120","accreditions":"NA","treatment_cost":"NA","customer_expense":"NA","stay_duration":"NA","primary_phone":"0484-2749897","additional_phone":"9072367855","last_updated_at":"NA","ppn_benefits":{"ppn_spoc_phone_no":null,"nbhi_non_payable_waiver":null,"discount_on_opd_consultation":null,"discount_on_opd_investigation":null,"discount_on_health_check_up":null,"free_ambulance":null,"ppn_spoc_name":null},"poc":null,"ir":null},{"id":47266,"provider_id":"102384","name":"Sreyass Hospital ","address":"Pazhangad Jn, Edavanakad,","city":"Ernakulam","state":"Kerala","postal_code":682502,"logo":"https://rules.nivabupa.com/media/default_hospital.svg","latitude":null,"longitude":null,"beds_count":"NA","email_id":"sreyashospital@gmail.com","website":null,"ppn_available":false,"doctors_count":"NA","rating":0,"avg_rating":1,"review_count":"NA","rating_count":"NA","reviews":"120","accreditions":"NA","treatment_cost":"NA","customer_expense":"NA","stay_duration":"NA","primary_phone":"0484-2507375","additional_phone":"9645999169","last_updated_at":"NA","ppn_benefits":{"ppn_spoc_phone_no":null,"nbhi_non_payable_waiver":null,"discount_on_opd_consultation":null,"discount_on_opd_investigation":null,"discount_on_health_check_up":null,"free_ambulance":null,"ppn_spoc_name":null},"poc":null,"ir":null}]}