{"links":{"next":null,"previous":"https://rules.nivabupa.com/api/v1/hospital_rater/get_hospital_list/?city=AMRITSAR&format=json&page=2"},"count":80,"total_pages":3,"results":[{"id":25170,"provider_id":"78360","name":"Dhingra General Hospital Amritsar","address":"77-79 Ajit Nagar","city":"Amritsar","state":"Punjab","postal_code":143001,"logo":"https://rules.nivabupa.com/media/default_hospital.svg","latitude":0,"longitude":0,"beds_count":"18","email_id":"dhingrahospital77@gmail.com","website":null,"ppn_available":false,"doctors_count":"20","rating":0,"avg_rating":0,"review_count":"NA","rating_count":"NA","reviews":"120","accreditions":"NABH Higher Level","treatment_cost":"NA","customer_expense":"NA","stay_duration":"5","primary_phone":"9417881616","additional_phone":"9417881616","last_updated_at":"2021-09-22 00:00:00","ppn_benefits":{"ppn_spoc_phone_no":null,"nbhi_non_payable_waiver":null,"discount_on_opd_consultation":null,"discount_on_opd_investigation":null,"discount_on_health_check_up":null,"free_ambulance":null,"ppn_spoc_name":null},"poc":null,"ir":null},{"id":19199,"provider_id":"28411","name":"Guru Nanak Mission General Hospital","address":"Purani Chungi Mehta Road Opp. Ssss College For Women","city":"Amritsar","state":"Punjab","postal_code":143001,"logo":"https://rules.nivabupa.com/media/default_hospital.svg","latitude":31.64246,"longitude":74.888565,"beds_count":"100","email_id":"drasjudge@gmail.com","website":null,"ppn_available":false,"doctors_count":"42","rating":0,"avg_rating":0,"review_count":"NA","rating_count":"NA","reviews":"120","accreditions":"NA","treatment_cost":"NA","customer_expense":"NA","stay_duration":"NA","primary_phone":"0183-5064585","additional_phone":"9872344452","last_updated_at":"2021-07-20 00:00:00","ppn_benefits":{"ppn_spoc_phone_no":null,"nbhi_non_payable_waiver":null,"discount_on_opd_consultation":null,"discount_on_opd_investigation":null,"discount_on_health_check_up":null,"free_ambulance":null,"ppn_spoc_name":null},"poc":null,"ir":null},{"id":19215,"provider_id":"28606","name":"Pulse Hospital","address":"Maqbool Pura Purani Chungi Mehta Road","city":"Amritsar","state":"Punjab","postal_code":143001,"logo":"https://rules.nivabupa.com/media/default_hospital.svg","latitude":31.621386,"longitude":74.906005,"beds_count":"100","email_id":"pulsehospital.info@gmail.com","website":null,"ppn_available":false,"doctors_count":"35","rating":0,"avg_rating":0,"review_count":1,"rating_count":1,"reviews":"120","accreditions":"NABH Higher Level","treatment_cost":"NA","customer_expense":"NA","stay_duration":"6","primary_phone":"0183-5018880","additional_phone":"9872179799","last_updated_at":"2021-03-31 00:00:00","ppn_benefits":{"ppn_spoc_phone_no":null,"nbhi_non_payable_waiver":null,"discount_on_opd_consultation":null,"discount_on_opd_investigation":null,"discount_on_health_check_up":null,"free_ambulance":null,"ppn_spoc_name":null},"poc":null,"ir":null},{"id":19738,"provider_id":"31885","name":"Sri Guru Ram Das Charitable Hospital Trust","address":"Vallah Mehta Road","city":"Amritsar","state":"Punjab","postal_code":143501,"logo":"https://rules.nivabupa.com/media/default_hospital.svg","latitude":31.623056,"longitude":74.899825,"beds_count":"1000","email_id":"sgrd2010@gmail.com","website":"http://www.sgrdism.com/","ppn_available":false,"doctors_count":"350","rating":0,"avg_rating":0,"review_count":2,"rating_count":2,"reviews":"120","accreditions":"NABH Higher Level","treatment_cost":"NA","customer_expense":"NA","stay_duration":"4","primary_phone":"0183-2870200","additional_phone":"9646664194","last_updated_at":"2021-03-31 00:00:00","ppn_benefits":{"ppn_spoc_phone_no":null,"nbhi_non_payable_waiver":null,"discount_on_opd_consultation":null,"discount_on_opd_investigation":null,"discount_on_health_check_up":null,"free_ambulance":null,"ppn_spoc_name":null},"poc":null,"ir":null},{"id":21431,"provider_id":"50462","name":"Apollo Cradle Amritsar","address":"Naushera House, Urban Circle, No.19 Court Road","city":"Amritsar","state":"Punjab","postal_code":143001,"logo":"https://rules.nivabupa.com/media/hospital_images/50462.png","latitude":31.63599,"longitude":74.86738,"beds_count":"30","email_id":"fin.asr@apollocradle.com","website":null,"ppn_available":false,"doctors_count":"17","rating":0,"avg_rating":0,"review_count":11,"rating_count":11,"reviews":"120","accreditions":"NA","treatment_cost":"10,000-15,000","customer_expense":"NA","stay_duration":"5","primary_phone":"9888139317","additional_phone":"7889039948","last_updated_at":"2021-03-31 00:00:00","ppn_benefits":{"ppn_spoc_phone_no":null,"nbhi_non_payable_waiver":null,"discount_on_opd_consultation":null,"discount_on_opd_investigation":null,"discount_on_health_check_up":null,"free_ambulance":null,"ppn_spoc_name":null},"poc":null,"ir":null},{"id":21467,"provider_id":"50753","name":"Dr Om Parkash Eye Institute Pvt Ltd.","address":"117 A, The Mall","city":"Amritsar","state":"Punjab","postal_code":143001,"logo":"https://rules.nivabupa.com/media/default_hospital.svg","latitude":31.64196,"longitude":74.87452,"beds_count":"20","email_id":"tpadoei@gmail.com","website":null,"ppn_available":false,"doctors_count":"20","rating":0,"avg_rating":0,"review_count":3,"rating_count":3,"reviews":"120","accreditions":"NABH Higher Level","treatment_cost":"NA","customer_expense":"NA","stay_duration":"2","primary_phone":"9781299984","additional_phone":"9781299984","last_updated_at":"2021-06-03 00:00:00","ppn_benefits":{"ppn_spoc_phone_no":null,"nbhi_non_payable_waiver":null,"discount_on_opd_consultation":null,"discount_on_opd_investigation":null,"discount_on_health_check_up":null,"free_ambulance":null,"ppn_spoc_name":null},"poc":null,"ir":null},{"id":21523,"provider_id":"51008","name":"The Corporate Hospital.","address":"Batala Roadamrits","city":"Amritsar","state":"Punjab","postal_code":143001,"logo":"https://rules.nivabupa.com/media/default_hospital.svg","latitude":31.64946,"longitude":74.90706,"beds_count":"95","email_id":"thecorporatehospital@gmail.com","website":null,"ppn_available":false,"doctors_count":"40","rating":0,"avg_rating":0,"review_count":2,"rating_count":2,"reviews":"120","accreditions":"NABH Higher Level","treatment_cost":"NA","customer_expense":"NA","stay_duration":"6","primary_phone":"9814018475","additional_phone":"9814058923","last_updated_at":"2021-03-01 00:00:00","ppn_benefits":{"ppn_spoc_phone_no":null,"nbhi_non_payable_waiver":null,"discount_on_opd_consultation":null,"discount_on_opd_investigation":null,"discount_on_health_check_up":null,"free_ambulance":null,"ppn_spoc_name":null},"poc":null,"ir":null},{"id":22154,"provider_id":"60569","name":"Mundh Hospital","address":"Sco 18, Dist. Shopping Centre, Ranjit Avenue","city":"Amritsar","state":"Punjab","postal_code":143001,"logo":"https://rules.nivabupa.com/media/default_hospital.svg","latitude":31.65108,"longitude":74.86329,"beds_count":"30","email_id":"mundhhospitals@gmail.com","website":null,"ppn_available":false,"doctors_count":"18","rating":0,"avg_rating":0,"review_count":2,"rating_count":2,"reviews":"120","accreditions":"NABH Entry Level","treatment_cost":"NA","customer_expense":"NA","stay_duration":"NA","primary_phone":"9855996006","additional_phone":"8196047048","last_updated_at":"2021-01-21 00:00:00","ppn_benefits":{"ppn_spoc_phone_no":null,"nbhi_non_payable_waiver":null,"discount_on_opd_consultation":null,"discount_on_opd_investigation":null,"discount_on_health_check_up":null,"free_ambulance":null,"ppn_spoc_name":null},"poc":null,"ir":null},{"id":24501,"provider_id":"71643","name":"Fortis Escorts Hospital Amritsar","address":"Majitha-Verka Bypass Road","city":"Amritsar","state":"Punjab","postal_code":143004,"logo":"https://rules.nivabupa.com/media/hospital_images/71643.png","latitude":31.66476,"longitude":74.91828,"beds_count":"165","email_id":"tpa.fehasr@fortishealthcare.com","website":null,"ppn_available":false,"doctors_count":"80","rating":0,"avg_rating":0,"review_count":10,"rating_count":10,"reviews":"120","accreditions":"NABH Higher Level","treatment_cost":"5,000-10,000","customer_expense":"NA","stay_duration":"5","primary_phone":"8427005606","additional_phone":"8427005606","last_updated_at":"2021-06-07 00:00:00","ppn_benefits":{"ppn_spoc_phone_no":null,"nbhi_non_payable_waiver":null,"discount_on_opd_consultation":null,"discount_on_opd_investigation":null,"discount_on_health_check_up":null,"free_ambulance":null,"ppn_spoc_name":null},"poc":null,"ir":null},{"id":25254,"provider_id":"78802","name":"ASG Hospital Pvt. Ltd. Amritsar","address":"First And Ground Floor Mukut House, Plot No. 3 Khasra No. 212 Mall Road","city":"Amritsar","state":"Punjab","postal_code":143001,"logo":"https://rules.nivabupa.com/media/default_hospital.svg","latitude":0,"longitude":0,"beds_count":"15","email_id":"cashless@asgeyehospital.com","website":"https://www.asgeyehospital.com/","ppn_available":false,"doctors_count":"5","rating":0,"avg_rating":0,"review_count":1,"rating_count":1,"reviews":"120","accreditions":"NA","treatment_cost":"NA","customer_expense":"NA","stay_duration":"0","primary_phone":"0183-2920003","additional_phone":"8875020154","last_updated_at":"2021-09-29 00:00:00","ppn_benefits":{"ppn_spoc_phone_no":null,"nbhi_non_payable_waiver":null,"discount_on_opd_consultation":null,"discount_on_opd_investigation":null,"discount_on_health_check_up":null,"free_ambulance":null,"ppn_spoc_name":null},"poc":null,"ir":null},{"id":25528,"provider_id":"81351","name":"Smt Shanti Seth Hospital","address":"3 Albert Road Asr Opp. Bsnl Exchange","city":"Amritsar","state":"Punjab","postal_code":143001,"logo":"https://rules.nivabupa.com/media/default_hospital.svg","latitude":0,"longitude":0,"beds_count":"25","email_id":"ssethhospital@gmail.com","website":null,"ppn_available":false,"doctors_count":"14","rating":0,"avg_rating":0,"review_count":"NA","rating_count":"NA","reviews":"120","accreditions":"NA","treatment_cost":"NA","customer_expense":"NA","stay_duration":"NA","primary_phone":"9872668903","additional_phone":"9872668903","last_updated_at":"2021-11-19 00:00:00","ppn_benefits":{"ppn_spoc_phone_no":null,"nbhi_non_payable_waiver":null,"discount_on_opd_consultation":null,"discount_on_opd_investigation":null,"discount_on_health_check_up":null,"free_ambulance":null,"ppn_spoc_name":null},"poc":null,"ir":null},{"id":25532,"provider_id":"81355","name":"Siddhi Hospital and Maternity Centre","address":"90/14 Adjoining Railway Workshop Putlighar Gt Road","city":"Amritsar","state":"Punjab","postal_code":143001,"logo":"https://rules.nivabupa.com/media/default_hospital.svg","latitude":0,"longitude":0,"beds_count":"51","email_id":"siddhihospital.amritsar@gmail.com","website":null,"ppn_available":false,"doctors_count":"10","rating":0,"avg_rating":0,"review_count":"NA","rating_count":"NA","reviews":"120","accreditions":"NA","treatment_cost":"NA","customer_expense":"NA","stay_duration":"0","primary_phone":"0183-5050031","additional_phone":"9780387722","last_updated_at":"2021-11-19 00:00:00","ppn_benefits":{"ppn_spoc_phone_no":null,"nbhi_non_payable_waiver":null,"discount_on_opd_consultation":null,"discount_on_opd_investigation":null,"discount_on_health_check_up":null,"free_ambulance":null,"ppn_spoc_name":null},"poc":null,"ir":null},{"id":25533,"provider_id":"81356","name":"Anand Heart and Multispeciality Hospital","address":"Near Lbp Petrol Pump Amritsar Road, Bhikhiwind","city":"Amritsar","state":"Punjab","postal_code":143303,"logo":"https://rules.nivabupa.com/media/default_hospital.svg","latitude":0,"longitude":0,"beds_count":"49","email_id":"anandhospital66@gmail.com","website":null,"ppn_available":false,"doctors_count":"3","rating":0,"avg_rating":0,"review_count":"NA","rating_count":"NA","reviews":"120","accreditions":"NABH Higher Level","treatment_cost":"NA","customer_expense":"NA","stay_duration":"NA","primary_phone":"0185-1292525","additional_phone":"9988454579","last_updated_at":"2021-11-19 00:00:00","ppn_benefits":{"ppn_spoc_phone_no":null,"nbhi_non_payable_waiver":null,"discount_on_opd_consultation":null,"discount_on_opd_investigation":null,"discount_on_health_check_up":null,"free_ambulance":null,"ppn_spoc_name":null},"poc":null,"ir":null},{"id":25631,"provider_id":"81938","name":"Ranjit Hospital","address":"G T Road Putlighar Near Ganga Building","city":"Amritsar","state":"Punjab","postal_code":143001,"logo":"https://rules.nivabupa.com/media/default_hospital.svg","latitude":0,"longitude":0,"beds_count":"75","email_id":"drmanpreet2004@yahoo.com","website":"http://www.ranjithospital.in/","ppn_available":false,"doctors_count":"9","rating":0,"avg_rating":0,"review_count":"NA","rating_count":"NA","reviews":"120","accreditions":"NABH Higher Level","treatment_cost":"NA","customer_expense":"NA","stay_duration":"0","primary_phone":"7307947077","additional_phone":"7087432776","last_updated_at":"2021-11-29 00:00:00","ppn_benefits":{"ppn_spoc_phone_no":null,"nbhi_non_payable_waiver":null,"discount_on_opd_consultation":null,"discount_on_opd_investigation":null,"discount_on_health_check_up":null,"free_ambulance":null,"ppn_spoc_name":null},"poc":null,"ir":null},{"id":47416,"provider_id":"103064","name":"Arora Hospital","address":"Near Petrol Pump, G T Road Chheharta","city":"Amritsar","state":"Punjab","postal_code":143001,"logo":"https://rules.nivabupa.com/media/default_hospital.svg","latitude":null,"longitude":null,"beds_count":"NA","email_id":"aroratpa@gmail.com","website":null,"ppn_available":false,"doctors_count":"NA","rating":0,"avg_rating":1,"review_count":"NA","rating_count":"NA","reviews":"120","accreditions":"NA","treatment_cost":"NA","customer_expense":"NA","stay_duration":"NA","primary_phone":"0183-2451358","additional_phone":"7087770778","last_updated_at":"NA","ppn_benefits":{"ppn_spoc_phone_no":null,"nbhi_non_payable_waiver":null,"discount_on_opd_consultation":null,"discount_on_opd_investigation":null,"discount_on_health_check_up":null,"free_ambulance":null,"ppn_spoc_name":null},"poc":null,"ir":null},{"id":47419,"provider_id":"103077","name":"GBM Dukhniwaran Hospital","address":"A-3, Near Court Old Jail Road","city":"Amritsar","state":"Punjab","postal_code":143001,"logo":"https://rules.nivabupa.com/media/default_hospital.svg","latitude":null,"longitude":null,"beds_count":"NA","email_id":"gbmdnh@gmail.com","website":null,"ppn_available":false,"doctors_count":"NA","rating":0,"avg_rating":1,"review_count":"NA","rating_count":"NA","reviews":"120","accreditions":"NA","treatment_cost":"NA","customer_expense":"NA","stay_duration":"NA","primary_phone":"0183-5070507","additional_phone":"8146555777","last_updated_at":"NA","ppn_benefits":{"ppn_spoc_phone_no":null,"nbhi_non_payable_waiver":null,"discount_on_opd_consultation":null,"discount_on_opd_investigation":null,"discount_on_health_check_up":null,"free_ambulance":null,"ppn_spoc_name":null},"poc":null,"ir":null},{"id":47667,"provider_id":"103370","name":"Sunrise Multispeciality Hospital ","address":"48, Hide Market, Near Civil Hospital, G.T.Road","city":"Amritsar","state":"Punjab","postal_code":143001,"logo":"https://rules.nivabupa.com/media/default_hospital.svg","latitude":null,"longitude":null,"beds_count":"NA","email_id":"sunrisemultispecialityh@gmail.com","website":null,"ppn_available":false,"doctors_count":"NA","rating":0,"avg_rating":1,"review_count":"NA","rating_count":"NA","reviews":"120","accreditions":"NA","treatment_cost":"NA","customer_expense":"NA","stay_duration":"NA","primary_phone":"0183-5070001","additional_phone":"7986105403","last_updated_at":"NA","ppn_benefits":{"ppn_spoc_phone_no":null,"nbhi_non_payable_waiver":null,"discount_on_opd_consultation":null,"discount_on_opd_investigation":null,"discount_on_health_check_up":null,"free_ambulance":null,"ppn_spoc_name":null},"poc":null,"ir":null},{"id":47177,"provider_id":"102211","name":"Cherish Children Hospital","address":"Medicity Markit, Opp. Civil Hospital, Tarn Taran","city":"Amritsar","state":"Punjab","postal_code":143401,"logo":"https://rules.nivabupa.com/media/default_hospital.svg","latitude":null,"longitude":null,"beds_count":"NA","email_id":"cherishchildrenhospital@gmail.com","website":null,"ppn_available":false,"doctors_count":"NA","rating":0,"avg_rating":1,"review_count":"NA","rating_count":"NA","reviews":"120","accreditions":"NA","treatment_cost":"NA","customer_expense":"NA","stay_duration":"NA","primary_phone":"0185-2292530","additional_phone":"7087090054","last_updated_at":"NA","ppn_benefits":{"ppn_spoc_phone_no":null,"nbhi_non_payable_waiver":null,"discount_on_opd_consultation":null,"discount_on_opd_investigation":null,"discount_on_health_check_up":null,"free_ambulance":null,"ppn_spoc_name":null},"poc":null,"ir":null},{"id":47175,"provider_id":"102204","name":"Global Hospital","address":"4, Green Field, Opp Dhingra Petrol Pump, Near Mai Bhago College, Majitha Road,","city":"Amritsar","state":"Punjab","postal_code":143001,"logo":"https://rules.nivabupa.com/media/default_hospital.svg","latitude":null,"longitude":null,"beds_count":"NA","email_id":"globalhospital.amritsar@gmail.com","website":null,"ppn_available":false,"doctors_count":"NA","rating":0,"avg_rating":1,"review_count":"NA","rating_count":"NA","reviews":"120","accreditions":"NA","treatment_cost":"NA","customer_expense":"NA","stay_duration":"NA","primary_phone":"0183-2224301","additional_phone":"8360376292","last_updated_at":"NA","ppn_benefits":{"ppn_spoc_phone_no":null,"nbhi_non_payable_waiver":null,"discount_on_opd_consultation":null,"discount_on_opd_investigation":null,"discount_on_health_check_up":null,"free_ambulance":null,"ppn_spoc_name":null},"poc":null,"ir":null},{"id":47178,"provider_id":"102218","name":"Sidana Multispeciality Hospital","address":"Khiala Khurd, Ram Tirth Road, Ajnala","city":"Amritsar","state":"Punjab","postal_code":143109,"logo":"https://rules.nivabupa.com/media/default_hospital.svg","latitude":null,"longitude":null,"beds_count":"NA","email_id":"sidanahospitalasr@gmail.com","website":null,"ppn_available":false,"doctors_count":"NA","rating":0,"avg_rating":1,"review_count":"NA","rating_count":"NA","reviews":"120","accreditions":"NA","treatment_cost":"NA","customer_expense":"NA","stay_duration":"NA","primary_phone":"9988461002","additional_phone":null,"last_updated_at":"NA","ppn_benefits":{"ppn_spoc_phone_no":null,"nbhi_non_payable_waiver":null,"discount_on_opd_consultation":null,"discount_on_opd_investigation":null,"discount_on_health_check_up":null,"free_ambulance":null,"ppn_spoc_name":null},"poc":null,"ir":null}]}