{"links":{"next":null,"previous":"https://rules.nivabupa.com/api/v1/hospital_rater/get_hospital_list/?city=Jalandhar&format=json&page=2"},"count":70,"total_pages":3,"results":[{"id":24444,"provider_id":"70942","name":"Baweja Hospital and Maternity Home","address":"Basti Shekh Road, Near Sati Mata Mandr","city":"Jalandhar","state":"Punjab","postal_code":144002,"logo":"https://rules.nivabupa.com/media/default_hospital.svg","latitude":31.31312,"longitude":75.56013,"beds_count":"30","email_id":"bawejahospitaljal@gmail.com","website":null,"ppn_available":false,"doctors_count":"10","rating":0,"avg_rating":0,"review_count":1,"rating_count":1,"reviews":"120","accreditions":"NA","treatment_cost":"NA","customer_expense":"NA","stay_duration":"4","primary_phone":"9814183305","additional_phone":"9779039237","last_updated_at":"2021-04-01 00:00:00","ppn_benefits":{"ppn_spoc_phone_no":null,"nbhi_non_payable_waiver":null,"discount_on_opd_consultation":null,"discount_on_opd_investigation":null,"discount_on_health_check_up":null,"free_ambulance":null,"ppn_spoc_name":null},"poc":null,"ir":null},{"id":25265,"provider_id":"78825","name":"Karan Hospital","address":"408-A Adarsh Nagar Near Jain Bahwan Kapurthala Road","city":"Jalandhar","state":"Punjab","postal_code":144008,"logo":"https://rules.nivabupa.com/media/default_hospital.svg","latitude":0,"longitude":0,"beds_count":"25","email_id":"kamalgup@yahoo.co.in","website":"http://www.karanhospital.com/","ppn_available":false,"doctors_count":"3","rating":0,"avg_rating":0,"review_count":2,"rating_count":2,"reviews":"120","accreditions":"NABH Higher Level","treatment_cost":"NA","customer_expense":"NA","stay_duration":"5","primary_phone":"0181-4634082","additional_phone":"8700518734","last_updated_at":"2021-09-29 00:00:00","ppn_benefits":{"ppn_spoc_phone_no":null,"nbhi_non_payable_waiver":null,"discount_on_opd_consultation":null,"discount_on_opd_investigation":null,"discount_on_health_check_up":null,"free_ambulance":null,"ppn_spoc_name":null},"poc":null,"ir":null},{"id":23395,"provider_id":"66437","name":"Global Hospital","address":"10 Link Road, Jalandhar","city":"Jalandhar","state":"Punjab","postal_code":144001,"logo":"https://rules.nivabupa.com/media/default_hospital.svg","latitude":31.31004,"longitude":75.58476,"beds_count":"60","email_id":"navjotdahyia@gmail.com","website":null,"ppn_available":false,"doctors_count":"25","rating":0,"avg_rating":0,"review_count":4,"rating_count":4,"reviews":"120","accreditions":"NABH Higher Level","treatment_cost":"NA","customer_expense":"NA","stay_duration":"9","primary_phone":"9876356229","additional_phone":"9988553159","last_updated_at":"2020-11-28 00:00:00","ppn_benefits":{"ppn_spoc_phone_no":null,"nbhi_non_payable_waiver":null,"discount_on_opd_consultation":null,"discount_on_opd_investigation":null,"discount_on_health_check_up":null,"free_ambulance":null,"ppn_spoc_name":null},"poc":null,"ir":null},{"id":26638,"provider_id":"92795","name":"Sigma Hospital","address":"410-B Adarsh Nagar, Near Jain Bhawan, Kapurthala Chowk","city":"Jalandhar","state":"Punjab","postal_code":144001,"logo":"https://rules.nivabupa.com/media/default_hospital.svg","latitude":null,"longitude":null,"beds_count":"NA","email_id":"sigmahospital047@gmail.com","website":null,"ppn_available":false,"doctors_count":"NA","rating":0,"avg_rating":0,"review_count":3,"rating_count":3,"reviews":"120","accreditions":"NA","treatment_cost":"NA","customer_expense":"NA","stay_duration":"NA","primary_phone":"1812257695","additional_phone":"9357208143","last_updated_at":"NA","ppn_benefits":{"ppn_spoc_phone_no":null,"nbhi_non_payable_waiver":null,"discount_on_opd_consultation":null,"discount_on_opd_investigation":null,"discount_on_health_check_up":null,"free_ambulance":null,"ppn_spoc_name":null},"poc":null,"ir":null},{"id":25452,"provider_id":"80512","name":"Seth ENT Care and Surgical Centre","address":"69-A Banda Bahadur Nagar, Mahavir Marg Opp.Tagore Hospital","city":"Jalandhar","state":"Punjab","postal_code":144008,"logo":"https://rules.nivabupa.com/media/default_hospital.svg","latitude":0,"longitude":0,"beds_count":"17","email_id":"sethentcaresurgicalcenter2021@gmail.com","website":null,"ppn_available":false,"doctors_count":"6","rating":0,"avg_rating":0,"review_count":1,"rating_count":1,"reviews":"120","accreditions":"NA","treatment_cost":"NA","customer_expense":"NA","stay_duration":"0","primary_phone":"0181-4600281","additional_phone":"8847581263","last_updated_at":"2021-10-30 00:00:00","ppn_benefits":{"ppn_spoc_phone_no":null,"nbhi_non_payable_waiver":null,"discount_on_opd_consultation":null,"discount_on_opd_investigation":null,"discount_on_health_check_up":null,"free_ambulance":null,"ppn_spoc_name":null},"poc":null,"ir":null},{"id":45731,"provider_id":"97433","name":"PMG Children Hospital","address":"Shaeed Baba Sangat Singh Nagar, Guru Ram Dass Market, Major Raman Dada Commercial Complex, Near Adarsh Palace, Kapurthala Chowk, Jalandhar City","city":"Jalandhar","state":"Punjab","postal_code":144001,"logo":"https://rules.nivabupa.com/media/default_hospital.svg","latitude":null,"longitude":null,"beds_count":"NA","email_id":"pmghosp@gmail.com","website":null,"ppn_available":false,"doctors_count":"NA","rating":0,"avg_rating":0,"review_count":1,"rating_count":1,"reviews":"120","accreditions":"NA","treatment_cost":"NA","customer_expense":"NA","stay_duration":"NA","primary_phone":"0181-5013605","additional_phone":"0181-5013605","last_updated_at":"NA","ppn_benefits":{"ppn_spoc_phone_no":null,"nbhi_non_payable_waiver":null,"discount_on_opd_consultation":null,"discount_on_opd_investigation":null,"discount_on_health_check_up":null,"free_ambulance":null,"ppn_spoc_name":null},"poc":null,"ir":null},{"id":47662,"provider_id":"103350","name":"Ghai Hospital ","address":"661, A & B, Gtb Nagar, Near Guru Ravidass Chowk","city":"Jalandhar","state":"Punjab","postal_code":144003,"logo":"https://rules.nivabupa.com/media/default_hospital.svg","latitude":null,"longitude":null,"beds_count":"NA","email_id":"ghaihospital@yahoo.com","website":"http://ghaihospital.com/","ppn_available":false,"doctors_count":"NA","rating":0,"avg_rating":1,"review_count":"NA","rating_count":"NA","reviews":"120","accreditions":"NA","treatment_cost":"NA","customer_expense":"NA","stay_duration":"NA","primary_phone":"0181-2442386","additional_phone":"9876065433","last_updated_at":"NA","ppn_benefits":{"ppn_spoc_phone_no":null,"nbhi_non_payable_waiver":null,"discount_on_opd_consultation":null,"discount_on_opd_investigation":null,"discount_on_health_check_up":null,"free_ambulance":null,"ppn_spoc_name":null},"poc":null,"ir":null},{"id":47635,"provider_id":"103231","name":"New Hope Stone & Fertility Clinic","address":"S.C.O- 99, Urban Estate, Phase - Ii","city":"Jalandhar","state":"Punjab","postal_code":144022,"logo":"https://rules.nivabupa.com/media/default_hospital.svg","latitude":null,"longitude":null,"beds_count":"NA","email_id":"sachar1978@gmail.com","website":null,"ppn_available":false,"doctors_count":"NA","rating":0,"avg_rating":1,"review_count":"NA","rating_count":"NA","reviews":"120","accreditions":"NA","treatment_cost":"NA","customer_expense":"NA","stay_duration":"NA","primary_phone":"0181-3590944","additional_phone":"9779499011","last_updated_at":"NA","ppn_benefits":{"ppn_spoc_phone_no":null,"nbhi_non_payable_waiver":null,"discount_on_opd_consultation":null,"discount_on_opd_investigation":null,"discount_on_health_check_up":null,"free_ambulance":null,"ppn_spoc_name":null},"poc":null,"ir":null},{"id":47321,"provider_id":"102226","name":"India Kidney Hospital & Dialysis Centre","address":"7 Link Road, Lajpat Nagar,","city":"Jalandhar","state":"Punjab","postal_code":144003,"logo":"https://rules.nivabupa.com/media/default_hospital.svg","latitude":null,"longitude":null,"beds_count":"NA","email_id":"indiakidneyhospital@yahoo.com","website":null,"ppn_available":false,"doctors_count":"NA","rating":0,"avg_rating":1,"review_count":"NA","rating_count":"NA","reviews":"120","accreditions":"NA","treatment_cost":"NA","customer_expense":"NA","stay_duration":"NA","primary_phone":"0181-4627383","additional_phone":"9872807383","last_updated_at":"NA","ppn_benefits":{"ppn_spoc_phone_no":null,"nbhi_non_payable_waiver":null,"discount_on_opd_consultation":null,"discount_on_opd_investigation":null,"discount_on_health_check_up":null,"free_ambulance":null,"ppn_spoc_name":null},"poc":null,"ir":null},{"id":47159,"provider_id":"101836","name":"Central Hospital & Maternity Home","address":"9-A, Vijay Nagar, Football Chowk","city":"Jalandhar","state":"Punjab","postal_code":144001,"logo":"https://rules.nivabupa.com/media/default_hospital.svg","latitude":null,"longitude":null,"beds_count":"NA","email_id":"yash1jai@gmail.com","website":null,"ppn_available":false,"doctors_count":"NA","rating":0,"avg_rating":1,"review_count":"NA","rating_count":"NA","reviews":"120","accreditions":"NA","treatment_cost":"NA","customer_expense":"NA","stay_duration":"NA","primary_phone":"0181-5081656","additional_phone":"9814066944","last_updated_at":"NA","ppn_benefits":{"ppn_spoc_phone_no":null,"nbhi_non_payable_waiver":null,"discount_on_opd_consultation":null,"discount_on_opd_investigation":null,"discount_on_health_check_up":null,"free_ambulance":null,"ppn_spoc_name":null},"poc":null,"ir":null}]}