{"links":{"next":null,"previous":"https://rules.nivabupa.com/api/v1/hospital_rater/get_hospital_list/?city=LUDHIANA&format=json&page=3"},"count":109,"total_pages":4,"results":[{"id":25790,"provider_id":"83398","name":"NG Hospital","address":"730 I - Block Brs Nagar","city":"Ludhiana","state":"Punjab","postal_code":141012,"logo":"https://rules.nivabupa.com/media/default_hospital.svg","latitude":0,"longitude":0,"beds_count":"15","email_id":"nghospital730@gmail.com","website":"http://www.urologyludhiana.com/","ppn_available":false,"doctors_count":"2","rating":0,"avg_rating":0,"review_count":1,"rating_count":1,"reviews":"120","accreditions":"NA","treatment_cost":"NA","customer_expense":"NA","stay_duration":"2","primary_phone":"7009844521","additional_phone":"7009844521","last_updated_at":"2021-12-28 00:00:00","ppn_benefits":{"ppn_spoc_phone_no":null,"nbhi_non_payable_waiver":null,"discount_on_opd_consultation":null,"discount_on_opd_investigation":null,"discount_on_health_check_up":null,"free_ambulance":null,"ppn_spoc_name":null},"poc":null,"ir":null},{"id":25861,"provider_id":"84175","name":"Garg Hospital & Child Care Center","address":"Near Railway Bridge Tehsil Road","city":"Ludhiana","state":"Punjab","postal_code":142026,"logo":"https://rules.nivabupa.com/media/default_hospital.svg","latitude":0,"longitude":0,"beds_count":"30","email_id":"garghospitalchildcarecenter@gmail.com","website":"http://www.garghospitalchildcare.business.site/","ppn_available":false,"doctors_count":"5","rating":0,"avg_rating":0,"review_count":"NA","rating_count":"NA","reviews":"120","accreditions":"NABH Entry Level","treatment_cost":"NA","customer_expense":"NA","stay_duration":"NA","primary_phone":"0162-4222900","additional_phone":"9855650019","last_updated_at":"2022-01-10 00:00:00","ppn_benefits":{"ppn_spoc_phone_no":null,"nbhi_non_payable_waiver":null,"discount_on_opd_consultation":null,"discount_on_opd_investigation":null,"discount_on_health_check_up":null,"free_ambulance":null,"ppn_spoc_name":null},"poc":null,"ir":null},{"id":19682,"provider_id":"31596","name":"Dr. Ramesh Superspecialty Eye & Laser Centre","address":"65-A Bhai Randhir Singh Nagar, Ferozpur Road, Near Verka Milk Plant","city":"Ludhiana","state":"Punjab","postal_code":141001,"logo":"https://rules.nivabupa.com/media/default_hospital.svg","latitude":30.883931,"longitude":75.802562,"beds_count":"11","email_id":"rameshpunarjot@yahoo.com","website":"http://www.rameshvision.com/","ppn_available":false,"doctors_count":"7","rating":0,"avg_rating":0,"review_count":3,"rating_count":3,"reviews":"120","accreditions":"NABH Higher Level","treatment_cost":"NA","customer_expense":"NA","stay_duration":"1","primary_phone":"0161-2463999","additional_phone":"9780015715","last_updated_at":"2021-01-06 00:00:00","ppn_benefits":{"ppn_spoc_phone_no":null,"nbhi_non_payable_waiver":null,"discount_on_opd_consultation":null,"discount_on_opd_investigation":null,"discount_on_health_check_up":null,"free_ambulance":null,"ppn_spoc_name":null},"poc":null,"ir":null},{"id":19686,"provider_id":"31610","name":"Sobti Neuro and Super Speciality Hospital","address":"973, Kvm School Road, Civil Lines","city":"Ludhiana","state":"Punjab","postal_code":141001,"logo":"https://rules.nivabupa.com/media/default_hospital.svg","latitude":30.916882,"longitude":75.82523,"beds_count":"100","email_id":"kunal_sobtihospital@yahoo.in","website":null,"ppn_available":false,"doctors_count":"45","rating":0,"avg_rating":0,"review_count":"NA","rating_count":"NA","reviews":"120","accreditions":"NABH Higher Level","treatment_cost":"NA","customer_expense":"NA","stay_duration":"NA","primary_phone":"0161-6456457","additional_phone":"9988063100","last_updated_at":"2021-07-20 00:00:00","ppn_benefits":{"ppn_spoc_phone_no":null,"nbhi_non_payable_waiver":null,"discount_on_opd_consultation":null,"discount_on_opd_investigation":null,"discount_on_health_check_up":null,"free_ambulance":null,"ppn_spoc_name":null},"poc":null,"ir":null},{"id":26603,"provider_id":"91215","name":"Indus Hospital Ludhiana","address":"246, Agar Nagar Enclave, Barewal Road, Turn Opposite Grand Walk, B/S Gurdev Hospital, Ferozpur Road","city":"Ludhiana","state":"Punjab","postal_code":141012,"logo":"https://rules.nivabupa.com/media/default_hospital.svg","latitude":null,"longitude":null,"beds_count":"NA","email_id":"quality.indushospital@gmail.com","website":null,"ppn_available":false,"doctors_count":"NA","rating":0,"avg_rating":0,"review_count":"NA","rating_count":"NA","reviews":"120","accreditions":"NA","treatment_cost":"NA","customer_expense":"NA","stay_duration":"NA","primary_phone":"0161-2550302","additional_phone":"9828329596","last_updated_at":"NA","ppn_benefits":{"ppn_spoc_phone_no":null,"nbhi_non_payable_waiver":null,"discount_on_opd_consultation":null,"discount_on_opd_investigation":null,"discount_on_health_check_up":null,"free_ambulance":null,"ppn_spoc_name":null},"poc":null,"ir":null},{"id":23701,"provider_id":"67620","name":"Ace Hospital Khanna","address":"Malerkotla Road, Khanna","city":"Ludhiana","state":"Punjab","postal_code":141401,"logo":"https://rules.nivabupa.com/media/default_hospital.svg","latitude":30.70524,"longitude":76.2113,"beds_count":"20","email_id":"acehospital2k19@gmail.com","website":null,"ppn_available":false,"doctors_count":"20","rating":0,"avg_rating":0,"review_count":"NA","rating_count":"NA","reviews":"120","accreditions":"NA","treatment_cost":"NA","customer_expense":"NA","stay_duration":"NA","primary_phone":"8288000329","additional_phone":"7009863074","last_updated_at":"2021-01-26 00:00:00","ppn_benefits":{"ppn_spoc_phone_no":null,"nbhi_non_payable_waiver":null,"discount_on_opd_consultation":null,"discount_on_opd_investigation":null,"discount_on_health_check_up":null,"free_ambulance":null,"ppn_spoc_name":null},"poc":null,"ir":null},{"id":25123,"provider_id":"77490","name":"Shri Krishna (C) Hospital Society (Regd.)","address":"Model Town","city":"Ludhiana","state":"Punjab","postal_code":141002,"logo":"https://rules.nivabupa.com/media/default_hospital.svg","latitude":0,"longitude":0,"beds_count":"150","email_id":"insurance.skhldh@gmail.com","website":null,"ppn_available":false,"doctors_count":"29","rating":0,"avg_rating":0,"review_count":2,"rating_count":2,"reviews":"120","accreditions":"NA","treatment_cost":"NA","customer_expense":"NA","stay_duration":"NA","primary_phone":"9814897001","additional_phone":"9814897001","last_updated_at":"2021-09-03 00:00:00","ppn_benefits":{"ppn_spoc_phone_no":null,"nbhi_non_payable_waiver":null,"discount_on_opd_consultation":null,"discount_on_opd_investigation":null,"discount_on_health_check_up":null,"free_ambulance":null,"ppn_spoc_name":null},"poc":null,"ir":null},{"id":26519,"provider_id":"90333","name":"Garg Superspecialty Hospital","address":"75 Golden Avenue Phase -1, Baranhara Hambran Road","city":"Ludhiana","state":"Punjab","postal_code":142027,"logo":"https://rules.nivabupa.com/media/default_hospital.svg","latitude":null,"longitude":null,"beds_count":"NA","email_id":"ishgarg@gmail.com","website":null,"ppn_available":false,"doctors_count":"NA","rating":0,"avg_rating":0,"review_count":1,"rating_count":1,"reviews":"120","accreditions":"NA","treatment_cost":"NA","customer_expense":"NA","stay_duration":"NA","primary_phone":"7087027970","additional_phone":"8872502175","last_updated_at":"NA","ppn_benefits":{"ppn_spoc_phone_no":null,"nbhi_non_payable_waiver":null,"discount_on_opd_consultation":null,"discount_on_opd_investigation":null,"discount_on_health_check_up":null,"free_ambulance":null,"ppn_spoc_name":null},"poc":null,"ir":null},{"id":26636,"provider_id":"92791","name":"Verma Multispeciality Hospital & CT Scan Centre","address":"B-1 973/7 Vivek Nagar, Opp. Saraswati Modern Sr Sec School, Civil Lines","city":"Ludhiana","state":"Punjab","postal_code":141001,"logo":"https://rules.nivabupa.com/media/default_hospital.svg","latitude":null,"longitude":null,"beds_count":"NA","email_id":"vermacharitablehospital@gmail.com","website":"http://www.vermamultispecialityhospital.com/","ppn_available":false,"doctors_count":"NA","rating":0,"avg_rating":0,"review_count":2,"rating_count":2,"reviews":"120","accreditions":"NA","treatment_cost":"NA","customer_expense":"NA","stay_duration":"NA","primary_phone":"1615054007","additional_phone":"9814292007","last_updated_at":"NA","ppn_benefits":{"ppn_spoc_phone_no":null,"nbhi_non_payable_waiver":null,"discount_on_opd_consultation":null,"discount_on_opd_investigation":null,"discount_on_health_check_up":null,"free_ambulance":null,"ppn_spoc_name":null},"poc":null,"ir":null},{"id":18095,"provider_id":"20229","name":"Lifeline Hospital Ludhiana","address":"Dr. Maheshwari Complex Gill Road","city":"Ludhiana","state":"Punjab","postal_code":141003,"logo":"https://rules.nivabupa.com/media/default_hospital.svg","latitude":30.88363,"longitude":75.85846,"beds_count":"40","email_id":"vmaheshwari81@gmail.com","website":"http://www.lifelinehosp.org/","ppn_available":false,"doctors_count":"16","rating":0,"avg_rating":0,"review_count":2,"rating_count":2,"reviews":"120","accreditions":"NABH Entry Level","treatment_cost":"NA","customer_expense":"NA","stay_duration":"4","primary_phone":"0161-2501741","additional_phone":"9988639620","last_updated_at":"2021-02-01 00:00:00","ppn_benefits":{"ppn_spoc_phone_no":null,"nbhi_non_payable_waiver":null,"discount_on_opd_consultation":null,"discount_on_opd_investigation":null,"discount_on_health_check_up":null,"free_ambulance":null,"ppn_spoc_name":null},"poc":null,"ir":null},{"id":18120,"provider_id":"20271","name":"Dhami Eye Care Hospital","address":"82-B, Kitchlu Nagar, Hambra Road","city":"Ludhiana","state":"Punjab","postal_code":141001,"logo":"https://rules.nivabupa.com/media/default_hospital.svg","latitude":30.912117,"longitude":75.815103,"beds_count":"6","email_id":"dhamieyecare@gmail.com","website":null,"ppn_available":false,"doctors_count":"6","rating":0,"avg_rating":0,"review_count":8,"rating_count":8,"reviews":"120","accreditions":"NABH Higher Level","treatment_cost":"5,000-10,000","customer_expense":"NA","stay_duration":"2","primary_phone":"0161-2303360","additional_phone":"9815530812","last_updated_at":"2021-01-05 00:00:00","ppn_benefits":{"ppn_spoc_phone_no":null,"nbhi_non_payable_waiver":null,"discount_on_opd_consultation":null,"discount_on_opd_investigation":null,"discount_on_health_check_up":null,"free_ambulance":null,"ppn_spoc_name":null},"poc":null,"ir":null},{"id":18153,"provider_id":"20317","name":"Sirish Hospital","address":"B-Xx 1140, Krishna Nagar","city":"Ludhiana","state":"Punjab","postal_code":141001,"logo":"https://rules.nivabupa.com/media/default_hospital.svg","latitude":30.903108,"longitude":75.82665,"beds_count":"30","email_id":"sirishhospital@gmail.com","website":null,"ppn_available":false,"doctors_count":"13","rating":0,"avg_rating":0,"review_count":"NA","rating_count":"NA","reviews":"120","accreditions":"NA","treatment_cost":"NA","customer_expense":"NA","stay_duration":"NA","primary_phone":"0161-2408303","additional_phone":"0161-2408303","last_updated_at":"2021-07-20 00:00:00","ppn_benefits":{"ppn_spoc_phone_no":null,"nbhi_non_payable_waiver":null,"discount_on_opd_consultation":null,"discount_on_opd_investigation":null,"discount_on_health_check_up":null,"free_ambulance":null,"ppn_spoc_name":null},"poc":null,"ir":null},{"id":18216,"provider_id":"20438","name":"Khanna Nursing Home (Multi Speciality Centre)","address":"G. T. Road, Opp. Gill Petrol Pump","city":"Ludhiana","state":"Punjab","postal_code":141401,"logo":"https://rules.nivabupa.com/media/default_hospital.svg","latitude":30.704501,"longitude":76.223216,"beds_count":"48","email_id":"khanna_ranjeet128@yahoo.co.in","website":null,"ppn_available":false,"doctors_count":"20","rating":0,"avg_rating":0,"review_count":2,"rating_count":2,"reviews":"120","accreditions":"NABH Higher Level","treatment_cost":"NA","customer_expense":"NA","stay_duration":"5","primary_phone":"0162-8231403","additional_phone":"0162-8231403","last_updated_at":"2021-02-15 00:00:00","ppn_benefits":{"ppn_spoc_phone_no":null,"nbhi_non_payable_waiver":null,"discount_on_opd_consultation":null,"discount_on_opd_investigation":null,"discount_on_health_check_up":null,"free_ambulance":null,"ppn_spoc_name":null},"poc":null,"ir":null},{"id":18263,"provider_id":"20504","name":"Kalyani Hospital","address":"Raikot Road","city":"Ludhiana","state":"Punjab","postal_code":142026,"logo":"https://rules.nivabupa.com/media/default_hospital.svg","latitude":30.794297,"longitude":75.476927,"beds_count":"25","email_id":"drdeepakkalyani@gmail.com","website":null,"ppn_available":false,"doctors_count":"15","rating":0,"avg_rating":0,"review_count":1,"rating_count":1,"reviews":"120","accreditions":"NA","treatment_cost":"NA","customer_expense":"NA","stay_duration":"NA","primary_phone":"0162-4222179","additional_phone":"0162-4222179","last_updated_at":"2021-03-31 00:00:00","ppn_benefits":{"ppn_spoc_phone_no":null,"nbhi_non_payable_waiver":null,"discount_on_opd_consultation":null,"discount_on_opd_investigation":null,"discount_on_health_check_up":null,"free_ambulance":null,"ppn_spoc_name":null},"poc":null,"ir":null},{"id":18258,"provider_id":"20499","name":"Walia Hospital","address":"33-B Sarabha Nagar Near Pakhowar Road, Red Light","city":"Ludhiana","state":"Punjab","postal_code":141002,"logo":"https://rules.nivabupa.com/media/default_hospital.svg","latitude":30.898395,"longitude":75.825869,"beds_count":"30","email_id":"waliahospital@gmail.com","website":null,"ppn_available":false,"doctors_count":"13","rating":0,"avg_rating":0,"review_count":"NA","rating_count":"NA","reviews":"120","accreditions":"NA","treatment_cost":"NA","customer_expense":"NA","stay_duration":"NA","primary_phone":"0161-4624343","additional_phone":"9501154908","last_updated_at":"2021-03-31 00:00:00","ppn_benefits":{"ppn_spoc_phone_no":null,"nbhi_non_payable_waiver":null,"discount_on_opd_consultation":null,"discount_on_opd_investigation":null,"discount_on_health_check_up":null,"free_ambulance":null,"ppn_spoc_name":null},"poc":null,"ir":null},{"id":18309,"provider_id":"20584","name":"Mohan Dai Oswal Cancer Treatment & Research Foundation","address":"Gt Road Bye Pass Sherpur","city":"Ludhiana","state":"Punjab","postal_code":141009,"logo":"https://rules.nivabupa.com/media/hospital_images/20584.jpg","latitude":30.879926,"longitude":75.8189,"beds_count":"300","email_id":"moh.tpa@gmail.com","website":null,"ppn_available":true,"doctors_count":"123","rating":0,"avg_rating":0,"review_count":11,"rating_count":11,"reviews":"120","accreditions":"NA","treatment_cost":"10,000-15,000","customer_expense":"NA","stay_duration":"7","primary_phone":"0161-2672100","additional_phone":"0161-2672100","last_updated_at":"2021-07-20 00:00:00","ppn_benefits":{"ppn_spoc_phone_no":"0161-522444","nbhi_non_payable_waiver":"Upto 5,000 ","discount_on_opd_consultation":"Yes","discount_on_opd_investigation":"Yes","discount_on_health_check_up":"No","free_ambulance":"Yes","ppn_spoc_name":"Mr. Aditya/Ms. Indu"},"poc":null,"ir":null},{"id":47418,"provider_id":"103068","name":"Metro Multispeciality Hospital","address":"Hargobind Nagar Near Leela Jhanda Gurdawra","city":"Ludhiana","state":"Punjab","postal_code":141008,"logo":"https://rules.nivabupa.com/media/default_hospital.svg","latitude":null,"longitude":null,"beds_count":"NA","email_id":"metromultispecialitytpa@gmail.com","website":null,"ppn_available":false,"doctors_count":"NA","rating":0,"avg_rating":1,"review_count":"NA","rating_count":"NA","reviews":"120","accreditions":"NA","treatment_cost":"NA","customer_expense":"NA","stay_duration":"NA","primary_phone":"9815199441","additional_phone":null,"last_updated_at":"NA","ppn_benefits":{"ppn_spoc_phone_no":null,"nbhi_non_payable_waiver":null,"discount_on_opd_consultation":null,"discount_on_opd_investigation":null,"discount_on_health_check_up":null,"free_ambulance":null,"ppn_spoc_name":null},"poc":null,"ir":null},{"id":47174,"provider_id":"102201","name":"Shri Guru Nanak Hospital","address":"Maloudh Road, Karamsar Rara Sahib,","city":"Ludhiana","state":"Punjab","postal_code":141117,"logo":"https://rules.nivabupa.com/media/default_hospital.svg","latitude":null,"longitude":null,"beds_count":"NA","email_id":"shri.gurunanakhospital@gmail.com","website":null,"ppn_available":false,"doctors_count":"NA","rating":0,"avg_rating":1,"review_count":"NA","rating_count":"NA","reviews":"120","accreditions":"NA","treatment_cost":"NA","customer_expense":"NA","stay_duration":"NA","primary_phone":"8437590555","additional_phone":"9915850769","last_updated_at":"NA","ppn_benefits":{"ppn_spoc_phone_no":null,"nbhi_non_payable_waiver":null,"discount_on_opd_consultation":null,"discount_on_opd_investigation":null,"discount_on_health_check_up":null,"free_ambulance":null,"ppn_spoc_name":null},"poc":null,"ir":null},{"id":47408,"provider_id":"103102","name":"Baath Eye Care Centre","address":"Ground And First Floor, 329-Cx, Model Town Extension, Near Pspcl Office, Ludhiana East","city":"Ludhiana","state":"Punjab","postal_code":141002,"logo":"https://rules.nivabupa.com/media/default_hospital.svg","latitude":null,"longitude":null,"beds_count":"NA","email_id":"jsbaath@yahoo.,co.in","website":null,"ppn_available":false,"doctors_count":"NA","rating":0,"avg_rating":1,"review_count":"NA","rating_count":"NA","reviews":"120","accreditions":"NA","treatment_cost":"NA","customer_expense":"NA","stay_duration":"NA","primary_phone":"0161-4614091","additional_phone":"9815265556","last_updated_at":"NA","ppn_benefits":{"ppn_spoc_phone_no":null,"nbhi_non_payable_waiver":null,"discount_on_opd_consultation":null,"discount_on_opd_investigation":null,"discount_on_health_check_up":null,"free_ambulance":null,"ppn_spoc_name":null},"poc":null,"ir":null}]}