{"links":{"next":null,"previous":"https://rules.nivabupa.com/api/v1/hospital_rater/get_hospital_list/?city=Chennai&format=json&page=11"},"count":359,"total_pages":12,"results":[{"id":18177,"provider_id":"20367","name":"Apollo Childrens Hospitals","address":"15 Shafee Mohamed Road Nungambakkam","city":"Chennai","state":"Tamil Nadu","postal_code":600006,"logo":"https://rules.nivabupa.com/media/hospital_images/20367.png","latitude":13.061001,"longitude":80.252288,"beds_count":"75","email_id":"chennai_insurancecreditcell@apollohospitals.com","website":"https://www.apollohospitals.com/","ppn_available":false,"doctors_count":"29","rating":0,"avg_rating":0,"review_count":12,"rating_count":12,"reviews":"120","accreditions":"NA","treatment_cost":"15,000-20,000","customer_expense":"NA","stay_duration":"3","primary_phone":"9949433144","additional_phone":null,"last_updated_at":"2021-07-20 00:00:00","ppn_benefits":{"ppn_spoc_phone_no":null,"nbhi_non_payable_waiver":null,"discount_on_opd_consultation":null,"discount_on_opd_investigation":null,"discount_on_health_check_up":null,"free_ambulance":null,"ppn_spoc_name":null},"poc":null,"ir":null},{"id":18196,"provider_id":"20404","name":"Sri Devi Speciality Hospital","address":"#30 Poonamallee High Road Koyambedu","city":"Chennai","state":"Tamil Nadu","postal_code":600107,"logo":"https://rules.nivabupa.com/media/default_hospital.svg","latitude":13.076636,"longitude":80.189698,"beds_count":"40","email_id":"sridevi.hospitals@yahoo.co.in","website":"http://www.sridevihospital.com/","ppn_available":false,"doctors_count":"18","rating":0,"avg_rating":0,"review_count":"NA","rating_count":"NA","reviews":"120","accreditions":"NA","treatment_cost":"NA","customer_expense":"NA","stay_duration":"NA","primary_phone":"044-24792401","additional_phone":"9940411197","last_updated_at":"2021-03-31 00:00:00","ppn_benefits":{"ppn_spoc_phone_no":null,"nbhi_non_payable_waiver":null,"discount_on_opd_consultation":null,"discount_on_opd_investigation":null,"discount_on_health_check_up":null,"free_ambulance":null,"ppn_spoc_name":null},"poc":null,"ir":null},{"id":18212,"provider_id":"20427","name":"St. Isabel's Hospital","address":"No. 49 Oliver Road Mylapore","city":"Chennai","state":"Tamil Nadu","postal_code":600004,"logo":"https://rules.nivabupa.com/media/default_hospital.svg","latitude":13.0389,"longitude":80.26191,"beds_count":"300","email_id":"mediclaim@stisabelshospital.in","website":"http://www.stisabelshospitals.com/","ppn_available":false,"doctors_count":"123","rating":0,"avg_rating":0,"review_count":1,"rating_count":1,"reviews":"120","accreditions":"NABH Higher Level","treatment_cost":"NA","customer_expense":"NA","stay_duration":"5","primary_phone":"044-24991081","additional_phone":"044-24991081","last_updated_at":"2021-07-20 00:00:00","ppn_benefits":{"ppn_spoc_phone_no":null,"nbhi_non_payable_waiver":null,"discount_on_opd_consultation":null,"discount_on_opd_investigation":null,"discount_on_health_check_up":null,"free_ambulance":null,"ppn_spoc_name":null},"poc":null,"ir":null},{"id":18221,"provider_id":"20444","name":"Billroth Hospitals","address":"43 Lakshmi Talkies Road Shenoy Nagar","city":"Chennai","state":"Tamil Nadu","postal_code":600030,"logo":"https://rules.nivabupa.com/media/default_hospital.svg","latitude":13.075779,"longitude":80.227305,"beds_count":"350","email_id":"cs@billrothhospitals.com","website":"http://www.billrothhospitals.com/","ppn_available":true,"doctors_count":"137","rating":0,"avg_rating":0,"review_count":9,"rating_count":9,"reviews":"120","accreditions":"NABH Entry Level","treatment_cost":"25,000-50,000","customer_expense":"NA","stay_duration":"7","primary_phone":"044-26641777","additional_phone":"9840787090","last_updated_at":"2021-07-20 00:00:00","ppn_benefits":{"ppn_spoc_phone_no":"044-26641777","nbhi_non_payable_waiver":"Upto 5,000 ","discount_on_opd_consultation":"Yes","discount_on_opd_investigation":"Yes","discount_on_health_check_up":"Yes","free_ambulance":"Yes","ppn_spoc_name":"Mythili"},"poc":null,"ir":null},{"id":18276,"provider_id":"20518","name":"Vasantha Subramanian Hospital Pvt. Ltd.","address":"# 13 East Spurtank Road Chetpet","city":"Chennai","state":"Tamil Nadu","postal_code":600031,"logo":"https://rules.nivabupa.com/media/default_hospital.svg","latitude":13.073054,"longitude":80.25249,"beds_count":"65","email_id":"vsrinsurance@gmail.com","website":null,"ppn_available":false,"doctors_count":"23","rating":0,"avg_rating":0,"review_count":13,"rating_count":13,"reviews":"120","accreditions":"NABH Entry Level","treatment_cost":"NA","customer_expense":"NA","stay_duration":"5","primary_phone":"044-42001000","additional_phone":"044-42001000","last_updated_at":"2021-07-20 00:00:00","ppn_benefits":{"ppn_spoc_phone_no":null,"nbhi_non_payable_waiver":null,"discount_on_opd_consultation":null,"discount_on_opd_investigation":null,"discount_on_health_check_up":null,"free_ambulance":null,"ppn_spoc_name":null},"poc":null,"ir":null},{"id":18293,"provider_id":"20553","name":"Appasamy Medical Centre Pvt Ltd.","address":"# 15 Friends Avenue Arumbakkam","city":"Chennai","state":"Tamil Nadu","postal_code":600106,"logo":"https://rules.nivabupa.com/media/default_hospital.svg","latitude":13.074987,"longitude":80.215103,"beds_count":"120","email_id":"appasamyhospitals@gmail.com","website":null,"ppn_available":false,"doctors_count":"49","rating":0,"avg_rating":0,"review_count":1,"rating_count":1,"reviews":"120","accreditions":"NABH Entry Level","treatment_cost":"NA","customer_expense":"NA","stay_duration":"5","primary_phone":"044-30595959","additional_phone":"044-30595959","last_updated_at":"2021-07-20 00:00:00","ppn_benefits":{"ppn_spoc_phone_no":null,"nbhi_non_payable_waiver":null,"discount_on_opd_consultation":null,"discount_on_opd_investigation":null,"discount_on_health_check_up":null,"free_ambulance":null,"ppn_spoc_name":null},"poc":null,"ir":null},{"id":18274,"provider_id":"20516","name":"The Madras Medical Mission","address":"4A Dr. Jj Nagar Mugappair, Tiruvallur","city":"Chennai","state":"Tamil Nadu","postal_code":600037,"logo":"https://rules.nivabupa.com/media/default_hospital.svg","latitude":13.086167,"longitude":80.186793,"beds_count":"375","email_id":"operations@mmm.org.in","website":"http://www.mmm.org.in/","ppn_available":false,"doctors_count":"146","rating":0,"avg_rating":0,"review_count":8,"rating_count":8,"reviews":"120","accreditions":"NABH Higher Level","treatment_cost":"20,000-25,000","customer_expense":"NA","stay_duration":"6","primary_phone":"044-66738000","additional_phone":"9791380808","last_updated_at":"2021-07-20 00:00:00","ppn_benefits":{"ppn_spoc_phone_no":null,"nbhi_non_payable_waiver":null,"discount_on_opd_consultation":null,"discount_on_opd_investigation":null,"discount_on_health_check_up":null,"free_ambulance":null,"ppn_spoc_name":null},"poc":null,"ir":null},{"id":18312,"provider_id":"20589","name":"Dr. Mohan's Diabetes Specialities Centre","address":"6B Conran Smith Road, Gopalapuram","city":"Chennai","state":"Tamil Nadu","postal_code":600086,"logo":"https://rules.nivabupa.com/media/default_hospital.svg","latitude":13.05385,"longitude":80.25858,"beds_count":"80","email_id":"insurance@drmohans.com","website":"http://www.drmohansdiabetes.com/","ppn_available":false,"doctors_count":"28","rating":0,"avg_rating":0,"review_count":2,"rating_count":2,"reviews":"120","accreditions":"NABH Entry Level","treatment_cost":"NA","customer_expense":"NA","stay_duration":"7","primary_phone":"044-43968888","additional_phone":"9788806440","last_updated_at":"2021-03-31 00:00:00","ppn_benefits":{"ppn_spoc_phone_no":null,"nbhi_non_payable_waiver":null,"discount_on_opd_consultation":null,"discount_on_opd_investigation":null,"discount_on_health_check_up":null,"free_ambulance":null,"ppn_spoc_name":null},"poc":null,"ir":null},{"id":18311,"provider_id":"20587","name":"Sakthi Hospital & Reserach Centre","address":"# 175 Big Street, Triplicane","city":"Chennai","state":"Tamil Nadu","postal_code":600005,"logo":"https://rules.nivabupa.com/media/default_hospital.svg","latitude":13.056745,"longitude":80.275611,"beds_count":"65","email_id":"sakthihospitalinsurance@yahoo.in","website":"http://www.sakthihospitals.com/","ppn_available":false,"doctors_count":"23","rating":0,"avg_rating":0,"review_count":1,"rating_count":1,"reviews":"120","accreditions":"NABH Entry Level","treatment_cost":"NA","customer_expense":"NA","stay_duration":"7","primary_phone":"044-28442626","additional_phone":"9840255088","last_updated_at":"2021-07-20 00:00:00","ppn_benefits":{"ppn_spoc_phone_no":null,"nbhi_non_payable_waiver":null,"discount_on_opd_consultation":null,"discount_on_opd_investigation":null,"discount_on_health_check_up":null,"free_ambulance":null,"ppn_spoc_name":null},"poc":null,"ir":null},{"id":18340,"provider_id":"20650","name":"Frontier Lifeline Pvt. Ltd.","address":"R-30-C Ambattur Industrial Estate Road Mogapair","city":"Chennai","state":"Tamil Nadu","postal_code":600101,"logo":"https://rules.nivabupa.com/media/default_hospital.svg","latitude":13.087627,"longitude":80.185732,"beds_count":"125","email_id":"marketing@frontierlifeline.com","website":"http://www.frontierlifeline.com/","ppn_available":false,"doctors_count":"51","rating":0,"avg_rating":0,"review_count":"NA","rating_count":"NA","reviews":"120","accreditions":"NABH Higher Level","treatment_cost":"NA","customer_expense":"NA","stay_duration":"NA","primary_phone":"044-42017575","additional_phone":"9884655255","last_updated_at":"2021-03-31 00:00:00","ppn_benefits":{"ppn_spoc_phone_no":null,"nbhi_non_payable_waiver":null,"discount_on_opd_consultation":null,"discount_on_opd_investigation":null,"discount_on_health_check_up":null,"free_ambulance":null,"ppn_spoc_name":null},"poc":null,"ir":null},{"id":18393,"provider_id":"20794","name":"Sugam Hospital","address":"349 Thiruvottiyur High Road Thiruvottiyur, Tiruvallur","city":"Chennai","state":"Tamil Nadu","postal_code":600019,"logo":"https://rules.nivabupa.com/media/default_hospital.svg","latitude":13.164875,"longitude":80.30338,"beds_count":"140","email_id":"sugamhospital145@gmail.com","website":"http://www.sugamhospital.com/","ppn_available":false,"doctors_count":"57","rating":0,"avg_rating":0,"review_count":3,"rating_count":3,"reviews":"120","accreditions":"NABH Entry Level","treatment_cost":"NA","customer_expense":"NA","stay_duration":"6","primary_phone":"044-40506070","additional_phone":"044-40506070","last_updated_at":"2021-07-20 00:00:00","ppn_benefits":{"ppn_spoc_phone_no":null,"nbhi_non_payable_waiver":null,"discount_on_opd_consultation":null,"discount_on_opd_investigation":null,"discount_on_health_check_up":null,"free_ambulance":null,"ppn_spoc_name":null},"poc":null,"ir":null},{"id":18377,"provider_id":"20757","name":"Sooriya Hospital","address":"No.1 Arunachalam Road, Saligram","city":"Chennai","state":"Tamil Nadu","postal_code":600093,"logo":"https://rules.nivabupa.com/media/default_hospital.svg","latitude":13.048213,"longitude":80.203496,"beds_count":"200","email_id":"sooriyainsurance@gmail.com","website":"http://www.sooriyahospital.com/","ppn_available":false,"doctors_count":"81","rating":0,"avg_rating":0,"review_count":1,"rating_count":1,"reviews":"120","accreditions":"NABH Entry Level","treatment_cost":"NA","customer_expense":"NA","stay_duration":"5","primary_phone":"044-23761750","additional_phone":"044-23761750","last_updated_at":"2021-01-06 00:00:00","ppn_benefits":{"ppn_spoc_phone_no":null,"nbhi_non_payable_waiver":null,"discount_on_opd_consultation":null,"discount_on_opd_investigation":null,"discount_on_health_check_up":null,"free_ambulance":null,"ppn_spoc_name":null},"poc":null,"ir":null},{"id":18409,"provider_id":"20842","name":"Aswene Soundra Hospital and Research Centre","address":"# 24 Kasturi Rangan Road Teynampet","city":"Chennai","state":"Tamil Nadu","postal_code":600018,"logo":"https://rules.nivabupa.com/media/default_hospital.svg","latitude":13.041176,"longitude":80.256207,"beds_count":"32","email_id":"aswenehospital@gmail.com","website":null,"ppn_available":false,"doctors_count":"13","rating":0,"avg_rating":0,"review_count":2,"rating_count":2,"reviews":"120","accreditions":"NA","treatment_cost":"NA","customer_expense":"NA","stay_duration":"NA","primary_phone":"044-24990525","additional_phone":"044-24990525","last_updated_at":"2021-03-29 00:00:00","ppn_benefits":{"ppn_spoc_phone_no":null,"nbhi_non_payable_waiver":null,"discount_on_opd_consultation":null,"discount_on_opd_investigation":null,"discount_on_health_check_up":null,"free_ambulance":null,"ppn_spoc_name":null},"poc":null,"ir":null},{"id":18436,"provider_id":"20958","name":"Dr. Agarwal's Eye Hospital Tambaram","address":"(Represented By Dr.Agarwal'S Health Care Ltd) Tdk Towers No.6 Duraisamy Reddy Street Tambaram, Kanchipuram","city":"Chennai","state":"Tamil Nadu","postal_code":600045,"logo":"https://rules.nivabupa.com/media/hospital_images/20958.png","latitude":12.929771,"longitude":80.119878,"beds_count":"5","email_id":"tpa@dragarwal.com","website":null,"ppn_available":true,"doctors_count":"5","rating":0,"avg_rating":0,"review_count":"NA","rating_count":"NA","reviews":"120","accreditions":"NABH Entry Level","treatment_cost":"NA","customer_expense":"NA","stay_duration":"2","primary_phone":"044-22264845","additional_phone":"044-22264845","last_updated_at":"2021-03-31 00:00:00","ppn_benefits":{"ppn_spoc_phone_no":"9444448621","nbhi_non_payable_waiver":"Upto 5,000 ","discount_on_opd_consultation":"Yes","discount_on_opd_investigation":"Yes","discount_on_health_check_up":"No","free_ambulance":"No","ppn_spoc_name":"Rajesh V"},"poc":null,"ir":null},{"id":18450,"provider_id":"21030","name":"Priya Nursing Home","address":"No-82 Kappal Polu Street","city":"Chennai","state":"Tamil Nadu","postal_code":600021,"logo":"https://rules.nivabupa.com/media/default_hospital.svg","latitude":13.119229,"longitude":80.289026,"beds_count":"50","email_id":"kappalpriya97@gmail.com","website":null,"ppn_available":false,"doctors_count":"21","rating":0,"avg_rating":0,"review_count":"NA","rating_count":"NA","reviews":"120","accreditions":"NABH Entry Level","treatment_cost":"NA","customer_expense":"NA","stay_duration":"8","primary_phone":"044-25951878","additional_phone":"044-25951878","last_updated_at":"2021-02-25 00:00:00","ppn_benefits":{"ppn_spoc_phone_no":null,"nbhi_non_payable_waiver":null,"discount_on_opd_consultation":null,"discount_on_opd_investigation":null,"discount_on_health_check_up":null,"free_ambulance":null,"ppn_spoc_name":null},"poc":null,"ir":null},{"id":18434,"provider_id":"20956","name":"Dr. Agarwal's Eye Hospital Nanganallur","address":"Ophthalmology Department Margaret Sydney Hospital 13 2Nd Street Nanganallur, 1St Manin Road, Nanganallur, Kanchipuram","city":"Chennai","state":"Tamil Nadu","postal_code":600061,"logo":"https://rules.nivabupa.com/media/hospital_images/20956.png","latitude":12.98283,"longitude":80.1892,"beds_count":"10","email_id":"tpa@dragarwal.com","website":null,"ppn_available":true,"doctors_count":"5","rating":0,"avg_rating":0,"review_count":"NA","rating_count":"NA","reviews":"120","accreditions":"NA","treatment_cost":"NA","customer_expense":"NA","stay_duration":"0","primary_phone":"044-28215556","additional_phone":"044-28215556","last_updated_at":"2021-07-20 00:00:00","ppn_benefits":{"ppn_spoc_phone_no":"9444448621","nbhi_non_payable_waiver":"Upto 5,000 ","discount_on_opd_consultation":"Yes","discount_on_opd_investigation":"Yes","discount_on_health_check_up":"No","free_ambulance":"No","ppn_spoc_name":"Rajesh V"},"poc":null,"ir":null},{"id":18736,"provider_id":"22250","name":"Vasan Eye Care Hospital Alwarpet","address":"No.310 Ttk Road Alwarpet","city":"Chennai","state":"Tamil Nadu","postal_code":600018,"logo":"https://rules.nivabupa.com/media/hospital_images/22250.png","latitude":13.03254,"longitude":80.2512,"beds_count":"20","email_id":"recovery.tpa@vasaneye.in","website":"http://vasaneye.com/","ppn_available":false,"doctors_count":"11","rating":0,"avg_rating":0,"review_count":"NA","rating_count":"NA","reviews":"120","accreditions":"NA","treatment_cost":"NA","customer_expense":"NA","stay_duration":"NA","primary_phone":"044-43498000","additional_phone":"9585545581","last_updated_at":"2021-03-31 00:00:00","ppn_benefits":{"ppn_spoc_phone_no":null,"nbhi_non_payable_waiver":null,"discount_on_opd_consultation":null,"discount_on_opd_investigation":null,"discount_on_health_check_up":null,"free_ambulance":null,"ppn_spoc_name":null},"poc":null,"ir":null},{"id":18738,"provider_id":"22252","name":"Vasan Eye Care Hospital Chrompet","address":"Door No: 201 Gst Road Chrompet, Kanchipuram","city":"Chennai","state":"Tamil Nadu","postal_code":600044,"logo":"https://rules.nivabupa.com/media/hospital_images/22252.png","latitude":12.95417,"longitude":80.14462,"beds_count":"17","email_id":"recovery.tpa@vasaneye.in","website":"http://vasaneye.com/","ppn_available":false,"doctors_count":"9","rating":0,"avg_rating":0,"review_count":"NA","rating_count":"NA","reviews":"120","accreditions":"NA","treatment_cost":"NA","customer_expense":"NA","stay_duration":"NA","primary_phone":"044-43400510","additional_phone":"9786200080","last_updated_at":"2021-03-31 00:00:00","ppn_benefits":{"ppn_spoc_phone_no":null,"nbhi_non_payable_waiver":null,"discount_on_opd_consultation":null,"discount_on_opd_investigation":null,"discount_on_health_check_up":null,"free_ambulance":null,"ppn_spoc_name":null},"poc":null,"ir":null},{"id":18737,"provider_id":"22251","name":"Vasan Eye Care Hospital Anna Nagar","address":"M-77 Iiird Avenue Anna Nagar East","city":"Chennai","state":"Tamil Nadu","postal_code":600102,"logo":"https://rules.nivabupa.com/media/hospital_images/22251.png","latitude":13.08488,"longitude":80.22167,"beds_count":"20","email_id":"recovery.tpa@vasaneye.in","website":"http://vasaneye.com/","ppn_available":false,"doctors_count":"11","rating":0,"avg_rating":0,"review_count":"NA","rating_count":"NA","reviews":"120","accreditions":"NA","treatment_cost":"NA","customer_expense":"NA","stay_duration":"NA","primary_phone":"044-43400000","additional_phone":"9786200072","last_updated_at":"2021-03-31 00:00:00","ppn_benefits":{"ppn_spoc_phone_no":null,"nbhi_non_payable_waiver":null,"discount_on_opd_consultation":null,"discount_on_opd_investigation":null,"discount_on_health_check_up":null,"free_ambulance":null,"ppn_spoc_name":null},"poc":null,"ir":null},{"id":18739,"provider_id":"22253","name":"Vasan Eye Care Hospital Madipakkam","address":"No: 683/5 Mahalingam Street ( Near Sbi)Madipakkam, Kanchipuram","city":"Chennai","state":"Tamil Nadu","postal_code":600091,"logo":"https://rules.nivabupa.com/media/hospital_images/22253.png","latitude":12.96569,"longitude":80.19202,"beds_count":"28","email_id":"recovery.tpa@vasaneye.in","website":"http://vasaneye.com/","ppn_available":false,"doctors_count":"15","rating":0,"avg_rating":0,"review_count":"NA","rating_count":"NA","reviews":"120","accreditions":"NA","treatment_cost":"NA","customer_expense":"NA","stay_duration":"NA","primary_phone":"044-43400910","additional_phone":"9786200074","last_updated_at":"2021-03-31 00:00:00","ppn_benefits":{"ppn_spoc_phone_no":null,"nbhi_non_payable_waiver":null,"discount_on_opd_consultation":null,"discount_on_opd_investigation":null,"discount_on_health_check_up":null,"free_ambulance":null,"ppn_spoc_name":null},"poc":null,"ir":null},{"id":18740,"provider_id":"22254","name":"Vasan Eye Care Hospital Neelankarai","address":"No.20 Thamirabarani Towers Ecr Road Kabaliswarer Nagar Neelankarai, Kanchipuram","city":"Chennai","state":"Tamil Nadu","postal_code":600041,"logo":"https://rules.nivabupa.com/media/hospital_images/22254.png","latitude":12.95044,"longitude":80.25517,"beds_count":"25","email_id":"recovery.tpa@vasaneye.in","website":"http://vasaneye.com/","ppn_available":false,"doctors_count":"14","rating":0,"avg_rating":0,"review_count":"NA","rating_count":"NA","reviews":"120","accreditions":"NA","treatment_cost":"NA","customer_expense":"NA","stay_duration":"NA","primary_phone":"044-39890700","additional_phone":"9786400006","last_updated_at":"2021-03-31 00:00:00","ppn_benefits":{"ppn_spoc_phone_no":null,"nbhi_non_payable_waiver":null,"discount_on_opd_consultation":null,"discount_on_opd_investigation":null,"discount_on_health_check_up":null,"free_ambulance":null,"ppn_spoc_name":null},"poc":null,"ir":null},{"id":18741,"provider_id":"22255","name":"Vasan Eye Care Hospital Perambur","address":"No:286 Door .No.149 Paper Mills Road Perambur","city":"Chennai","state":"Tamil Nadu","postal_code":600082,"logo":"https://rules.nivabupa.com/media/hospital_images/22255.png","latitude":13.11775,"longitude":80.2288,"beds_count":"20","email_id":"recovery.tpa@vasaneye.in","website":"http://vasaneye.com/","ppn_available":false,"doctors_count":"11","rating":0,"avg_rating":0,"review_count":"NA","rating_count":"NA","reviews":"120","accreditions":"NA","treatment_cost":"NA","customer_expense":"NA","stay_duration":"NA","primary_phone":"044-43400610","additional_phone":"9786200075","last_updated_at":"2021-03-31 00:00:00","ppn_benefits":{"ppn_spoc_phone_no":null,"nbhi_non_payable_waiver":null,"discount_on_opd_consultation":null,"discount_on_opd_investigation":null,"discount_on_health_check_up":null,"free_ambulance":null,"ppn_spoc_name":null},"poc":null,"ir":null},{"id":18742,"provider_id":"22256","name":"Vasan Eye Care Hospital Kilpauk","address":"Old No.880 New No.190 Poonamallee High Road Kilpauk (Near Sangam Theatre & Opp To Nehru Park)","city":"Chennai","state":"Tamil Nadu","postal_code":600084,"logo":"https://rules.nivabupa.com/media/hospital_images/22256.png","latitude":13.07923,"longitude":80.25127,"beds_count":"100","email_id":"recovery.tpa@vasaneye.in","website":"http://vasaneye.com/","ppn_available":false,"doctors_count":"54","rating":0,"avg_rating":0,"review_count":"NA","rating_count":"NA","reviews":"120","accreditions":"NA","treatment_cost":"NA","customer_expense":"NA","stay_duration":"NA","primary_phone":"044-43400810","additional_phone":"9585545512","last_updated_at":"2021-03-31 00:00:00","ppn_benefits":{"ppn_spoc_phone_no":null,"nbhi_non_payable_waiver":null,"discount_on_opd_consultation":null,"discount_on_opd_investigation":null,"discount_on_health_check_up":null,"free_ambulance":null,"ppn_spoc_name":null},"poc":null,"ir":null},{"id":18743,"provider_id":"22257","name":"Vasan Eye Care Hospital Poonamallee","address":"No.780 Trunk Road Poonamalle, Dist Kanchipuram","city":"Chennai","state":"Tamil Nadu","postal_code":600056,"logo":"https://rules.nivabupa.com/media/hospital_images/22257.png","latitude":13.04994,"longitude":80.09232,"beds_count":"115","email_id":"recovery.tpa@vasaneye.in","website":"http://vasaneye.com/","ppn_available":false,"doctors_count":"62","rating":0,"avg_rating":0,"review_count":"NA","rating_count":"NA","reviews":"120","accreditions":"NA","treatment_cost":"NA","customer_expense":"NA","stay_duration":"NA","primary_phone":"044-39890300","additional_phone":"9786200054","last_updated_at":"2021-03-31 00:00:00","ppn_benefits":{"ppn_spoc_phone_no":null,"nbhi_non_payable_waiver":null,"discount_on_opd_consultation":null,"discount_on_opd_investigation":null,"discount_on_health_check_up":null,"free_ambulance":null,"ppn_spoc_name":null},"poc":null,"ir":null},{"id":18744,"provider_id":"22258","name":"Vasan Eye Care Hospital Tondiarpet","address":"New No.976 Old No.447 T.H.Road Old Washermenpet Opp To Nirmala Silks","city":"Chennai","state":"Tamil Nadu","postal_code":600021,"logo":"https://rules.nivabupa.com/media/hospital_images/22258.png","latitude":13.1107,"longitude":80.28098,"beds_count":"28","email_id":"recovery.tpa@vasaneye.in","website":"http://vasaneye.com/","ppn_available":false,"doctors_count":"15","rating":0,"avg_rating":0,"review_count":"NA","rating_count":"NA","reviews":"120","accreditions":"NA","treatment_cost":"NA","customer_expense":"NA","stay_duration":"NA","primary_phone":"044-43400660","additional_phone":"9786200017","last_updated_at":"2021-03-31 00:00:00","ppn_benefits":{"ppn_spoc_phone_no":null,"nbhi_non_payable_waiver":null,"discount_on_opd_consultation":null,"discount_on_opd_investigation":null,"discount_on_health_check_up":null,"free_ambulance":null,"ppn_spoc_name":null},"poc":null,"ir":null},{"id":18745,"provider_id":"22259","name":"Vasan Eye Care Hospital Valasaravakkam","address":"No.50 Arcot Raod Valasaravakkam, Tiruvallur","city":"Chennai","state":"Tamil Nadu","postal_code":600087,"logo":"https://rules.nivabupa.com/media/hospital_images/22259.png","latitude":13.04117,"longitude":80.17472,"beds_count":"22","email_id":"recovery.tpa@vasaneye.in","website":"http://vasaneye.com/","ppn_available":false,"doctors_count":"12","rating":0,"avg_rating":0,"review_count":"NA","rating_count":"NA","reviews":"120","accreditions":"NA","treatment_cost":"NA","customer_expense":"NA","stay_duration":"NA","primary_phone":"044-33701300","additional_phone":"9585545545","last_updated_at":"2021-03-31 00:00:00","ppn_benefits":{"ppn_spoc_phone_no":null,"nbhi_non_payable_waiver":null,"discount_on_opd_consultation":null,"discount_on_opd_investigation":null,"discount_on_health_check_up":null,"free_ambulance":null,"ppn_spoc_name":null},"poc":null,"ir":null},{"id":18774,"provider_id":"22288","name":"Vasan Eye Care Hospital Kattur","address":"No:77/4-B Vignes Nagar Kattur","city":"Chennai","state":"Tamil Nadu","postal_code":600014,"logo":"https://rules.nivabupa.com/media/default_hospital.svg","latitude":10.79902,"longitude":78.74937,"beds_count":"20","email_id":"recovery.tpa@vasaneye.in","website":"http://vasaneye.com/","ppn_available":false,"doctors_count":"11","rating":0,"avg_rating":0,"review_count":"NA","rating_count":"NA","reviews":"120","accreditions":"NA","treatment_cost":"NA","customer_expense":"NA","stay_duration":"NA","primary_phone":"043-13989000","additional_phone":"9786200021","last_updated_at":"2021-03-31 00:00:00","ppn_benefits":{"ppn_spoc_phone_no":null,"nbhi_non_payable_waiver":null,"discount_on_opd_consultation":null,"discount_on_opd_investigation":null,"discount_on_health_check_up":null,"free_ambulance":null,"ppn_spoc_name":null},"poc":null,"ir":null},{"id":47458,"provider_id":"103431","name":"Dr Sambandam Eye Hospital","address":"Door No 105, Old No 42/1, Medavakkam Tank Road, Kilpauk","city":"Chennai","state":"Tamil Nadu","postal_code":600010,"logo":"https://rules.nivabupa.com/media/default_hospital.svg","latitude":null,"longitude":null,"beds_count":"NA","email_id":"dsehinsurance@gmail.com","website":null,"ppn_available":false,"doctors_count":"NA","rating":0,"avg_rating":1,"review_count":"NA","rating_count":"NA","reviews":"120","accreditions":"NA","treatment_cost":"NA","customer_expense":"NA","stay_duration":"NA","primary_phone":"9840012374","additional_phone":null,"last_updated_at":"NA","ppn_benefits":{"ppn_spoc_phone_no":null,"nbhi_non_payable_waiver":null,"discount_on_opd_consultation":null,"discount_on_opd_investigation":null,"discount_on_health_check_up":null,"free_ambulance":null,"ppn_spoc_name":null},"poc":null,"ir":null},{"id":47193,"provider_id":"102340","name":"Sangam Bone And Joint Hospital Pvt. Ltd","address":"No:101, Kavimani Salai, 8Th Block, Mogappair West","city":"Chennai","state":"Tamil Nadu","postal_code":600037,"logo":"https://rules.nivabupa.com/media/default_hospital.svg","latitude":null,"longitude":null,"beds_count":"NA","email_id":"sangam_tk@yahoo.co.in","website":"https://www.sangambonehospital.com/","ppn_available":false,"doctors_count":"NA","rating":0,"avg_rating":1,"review_count":"NA","rating_count":"NA","reviews":"120","accreditions":"NA","treatment_cost":"NA","customer_expense":"NA","stay_duration":"NA","primary_phone":"044-48595571","additional_phone":"7449289644","last_updated_at":"NA","ppn_benefits":{"ppn_spoc_phone_no":null,"nbhi_non_payable_waiver":null,"discount_on_opd_consultation":null,"discount_on_opd_investigation":null,"discount_on_health_check_up":null,"free_ambulance":null,"ppn_spoc_name":null},"poc":null,"ir":null}]}