{"links":{"next":null,"previous":"https://rules.nivabupa.com/api/v1/hospital_rater/get_hospital_list/?city=Coimbatore&format=json&page=3"},"count":118,"total_pages":4,"results":[{"id":25407,"provider_id":"80262","name":"Medwin Hospital","address":"No. 42 & 43 Kothari Layout Opp Stock Exchange, Trichy Road Near Alvernia School","city":"Coimbatore","state":"Tamil Nadu","postal_code":641005,"logo":"https://rules.nivabupa.com/media/default_hospital.svg","latitude":0,"longitude":0,"beds_count":"30","email_id":"medwinhospital.cbe@gmail.com","website":"http://www.medwinhospital.in/","ppn_available":false,"doctors_count":"5","rating":0,"avg_rating":0,"review_count":"NA","rating_count":"NA","reviews":"120","accreditions":"NABH Entry Level","treatment_cost":"NA","customer_expense":"NA","stay_duration":"NA","primary_phone":"0422-2316666","additional_phone":"7373716959","last_updated_at":"2021-10-26 00:00:00","ppn_benefits":{"ppn_spoc_phone_no":null,"nbhi_non_payable_waiver":null,"discount_on_opd_consultation":null,"discount_on_opd_investigation":null,"discount_on_health_check_up":null,"free_ambulance":null,"ppn_spoc_name":null},"poc":null,"ir":null},{"id":25487,"provider_id":"81036","name":"Ar Ortho Hospital","address":"No. 42/1 New Scheme Road Pollachi","city":"Coimbatore","state":"Tamil Nadu","postal_code":642001,"logo":"https://rules.nivabupa.com/media/default_hospital.svg","latitude":0,"longitude":0,"beds_count":"13","email_id":"info@arorthohospital.com","website":"http://www.arorthohospital.com/","ppn_available":false,"doctors_count":"1","rating":0,"avg_rating":0,"review_count":"NA","rating_count":"NA","reviews":"120","accreditions":"NABH Entry Level","treatment_cost":"NA","customer_expense":"NA","stay_duration":"NA","primary_phone":"0425-9220440","additional_phone":"9976046469","last_updated_at":"2021-11-12 00:00:00","ppn_benefits":{"ppn_spoc_phone_no":null,"nbhi_non_payable_waiver":null,"discount_on_opd_consultation":null,"discount_on_opd_investigation":null,"discount_on_health_check_up":null,"free_ambulance":null,"ppn_spoc_name":null},"poc":null,"ir":null},{"id":25576,"provider_id":"81563","name":"Ponni Hospital","address":"No. 42 Trichy Main Road Pachapalayam, Palladam Tiruppur","city":"Coimbatore","state":"Tamil Nadu","postal_code":641664,"logo":"https://rules.nivabupa.com/media/default_hospital.svg","latitude":0,"longitude":0,"beds_count":"100","email_id":"ponnihospitalinsurance@gmail.com","website":null,"ppn_available":false,"doctors_count":"23","rating":0,"avg_rating":0,"review_count":"NA","rating_count":"NA","reviews":"120","accreditions":"NABH Entry Level","treatment_cost":"NA","customer_expense":"NA","stay_duration":"NA","primary_phone":"0425-5254177","additional_phone":"9994701812","last_updated_at":"2021-11-23 00:00:00","ppn_benefits":{"ppn_spoc_phone_no":null,"nbhi_non_payable_waiver":null,"discount_on_opd_consultation":null,"discount_on_opd_investigation":null,"discount_on_health_check_up":null,"free_ambulance":null,"ppn_spoc_name":null},"poc":null,"ir":null},{"id":25646,"provider_id":"81975","name":"K.G.M. Hospital Pvt. Ltd.","address":"No. 1/1 Avinashi Road Chinniyampalayam","city":"Coimbatore","state":"Tamil Nadu","postal_code":641062,"logo":"https://rules.nivabupa.com/media/default_hospital.svg","latitude":0,"longitude":0,"beds_count":"100","email_id":"kgmhospital@gmail.com","website":null,"ppn_available":false,"doctors_count":"35","rating":0,"avg_rating":0,"review_count":"NA","rating_count":"NA","reviews":"120","accreditions":"NABH Entry Level","treatment_cost":"NA","customer_expense":"NA","stay_duration":"3","primary_phone":"0422-2627875","additional_phone":"9047037876","last_updated_at":"2021-11-29 00:00:00","ppn_benefits":{"ppn_spoc_phone_no":null,"nbhi_non_payable_waiver":null,"discount_on_opd_consultation":null,"discount_on_opd_investigation":null,"discount_on_health_check_up":null,"free_ambulance":null,"ppn_spoc_name":null},"poc":null,"ir":null},{"id":18886,"provider_id":"23143","name":"Lalithaa Hospital","address":"828-A Cross Cut Road","city":"Coimbatore","state":"Tamil Nadu","postal_code":641012,"logo":"https://rules.nivabupa.com/media/default_hospital.svg","latitude":11.016405,"longitude":76.965679,"beds_count":"30","email_id":"drpsundarraj@yahoo.com","website":null,"ppn_available":false,"doctors_count":"13","rating":0,"avg_rating":0,"review_count":"NA","rating_count":"NA","reviews":"120","accreditions":"NA","treatment_cost":"NA","customer_expense":"NA","stay_duration":"NA","primary_phone":"0422-2499533","additional_phone":"0422-2499533","last_updated_at":"2021-03-31 00:00:00","ppn_benefits":{"ppn_spoc_phone_no":null,"nbhi_non_payable_waiver":null,"discount_on_opd_consultation":null,"discount_on_opd_investigation":null,"discount_on_health_check_up":null,"free_ambulance":null,"ppn_spoc_name":null},"poc":null,"ir":null},{"id":20925,"provider_id":"46008","name":"Saravana Hospital.","address":"98 - Kalpana Road, Near Kalpana Theatre, Udumalpet, Tirupur Dist","city":"Coimbatore","state":"Tamil Nadu","postal_code":642126,"logo":"https://rules.nivabupa.com/media/default_hospital.svg","latitude":10.36576,"longitude":77.977531,"beds_count":"25","email_id":"saravanahospitalvdt@gmail.com","website":null,"ppn_available":false,"doctors_count":"11","rating":0,"avg_rating":0,"review_count":"NA","rating_count":"NA","reviews":"120","accreditions":"NA","treatment_cost":"NA","customer_expense":"NA","stay_duration":"NA","primary_phone":"0425-2224736","additional_phone":"7339344375","last_updated_at":"2021-03-31 00:00:00","ppn_benefits":{"ppn_spoc_phone_no":null,"nbhi_non_payable_waiver":null,"discount_on_opd_consultation":null,"discount_on_opd_investigation":null,"discount_on_health_check_up":null,"free_ambulance":null,"ppn_spoc_name":null},"poc":null,"ir":null},{"id":20278,"provider_id":"34563","name":"Lotus Eye Care Hospital Ltd. Coimbatore","address":"No.770/12 Avinashi Road, Civil Aerodrome Post, Coimbatore","city":"Coimbatore","state":"Tamil Nadu","postal_code":641014,"logo":"https://rules.nivabupa.com/media/default_hospital.svg","latitude":11.04077,"longitude":77.04006,"beds_count":"60","email_id":"insurancelotus@gmail.com","website":null,"ppn_available":false,"doctors_count":"32","rating":0,"avg_rating":0,"review_count":1,"rating_count":1,"reviews":"120","accreditions":"NA","treatment_cost":"NA","customer_expense":"NA","stay_duration":"NA","primary_phone":"0422-4229900","additional_phone":"9944084272","last_updated_at":"2021-03-31 00:00:00","ppn_benefits":{"ppn_spoc_phone_no":null,"nbhi_non_payable_waiver":null,"discount_on_opd_consultation":null,"discount_on_opd_investigation":null,"discount_on_health_check_up":null,"free_ambulance":null,"ppn_spoc_name":null},"poc":null,"ir":null},{"id":20283,"provider_id":"34568","name":"Lotus Eye Care Hospital Ltd. Mettupalayam","address":"No. 28, Coimbatore Main Road, Opp. Bus Stand","city":"Coimbatore","state":"Tamil Nadu","postal_code":641031,"logo":"https://rules.nivabupa.com/media/default_hospital.svg","latitude":11.30152,"longitude":76.93865,"beds_count":"10","email_id":"insurancelotus@gmail.com","website":"https://www.lotuseye.org/","ppn_available":false,"doctors_count":"5","rating":0,"avg_rating":0,"review_count":"NA","rating_count":"NA","reviews":"120","accreditions":"NA","treatment_cost":"NA","customer_expense":"NA","stay_duration":"NA","primary_phone":"0425-4223223","additional_phone":"9944084272","last_updated_at":"2021-03-31 00:00:00","ppn_benefits":{"ppn_spoc_phone_no":null,"nbhi_non_payable_waiver":null,"discount_on_opd_consultation":null,"discount_on_opd_investigation":null,"discount_on_health_check_up":null,"free_ambulance":null,"ppn_spoc_name":null},"poc":null,"ir":null},{"id":22363,"provider_id":"61971","name":"Malar Priya Medical Center","address":"No: 8/1946-M, Ponnammal Nagar Pandian Nagar, P.N. Road Tirupur, Tamilnadu","city":"Coimbatore","state":"Tamil Nadu","postal_code":641602,"logo":"https://rules.nivabupa.com/media/default_hospital.svg","latitude":11.16591,"longitude":77.35144,"beds_count":"60","email_id":"mp_mc@ymail.com","website":"http://www.malarpriyahospitals.com/","ppn_available":false,"doctors_count":"32","rating":0,"avg_rating":0,"review_count":"NA","rating_count":"NA","reviews":"120","accreditions":"NABH Entry Level","treatment_cost":"NA","customer_expense":"NA","stay_duration":"9","primary_phone":"0421-2350205","additional_phone":"9688664800","last_updated_at":"2021-02-01 00:00:00","ppn_benefits":{"ppn_spoc_phone_no":null,"nbhi_non_payable_waiver":null,"discount_on_opd_consultation":null,"discount_on_opd_investigation":null,"discount_on_health_check_up":null,"free_ambulance":null,"ppn_spoc_name":null},"poc":null,"ir":null},{"id":26593,"provider_id":"91159","name":"Sankara Eye Hospital - Coimbatore","address":"No. 2A & 2B, Second Floor Srivari Kikani Centre, Near Chinthamani Supervmarket R.S.Puram","city":"Coimbatore","state":"Tamil Nadu","postal_code":641002,"logo":"https://rules.nivabupa.com/media/default_hospital.svg","latitude":null,"longitude":null,"beds_count":"NA","email_id":"accs.cbecity@sankaraeye.com","website":"http://www.sankaraeye.com/","ppn_available":false,"doctors_count":"NA","rating":0,"avg_rating":0,"review_count":"NA","rating_count":"NA","reviews":"120","accreditions":"NA","treatment_cost":"NA","customer_expense":"NA","stay_duration":"NA","primary_phone":"0422-4256789","additional_phone":"9944976316","last_updated_at":"NA","ppn_benefits":{"ppn_spoc_phone_no":null,"nbhi_non_payable_waiver":null,"discount_on_opd_consultation":null,"discount_on_opd_investigation":null,"discount_on_health_check_up":null,"free_ambulance":null,"ppn_spoc_name":null},"poc":null,"ir":null},{"id":21676,"provider_id":"56553","name":"Arathana Hospital","address":"120 Coimbatore Road, Opposit Nm Bunk, Pollachi","city":"Coimbatore","state":"Tamil Nadu","postal_code":642002,"logo":"https://rules.nivabupa.com/media/default_hospital.svg","latitude":10.66833,"longitude":77.00709,"beds_count":"50","email_id":"arathanaortho@gmail.com","website":"http://www.arathanhospital.com/","ppn_available":false,"doctors_count":"25","rating":0,"avg_rating":0,"review_count":1,"rating_count":1,"reviews":"120","accreditions":"NABH Entry Level","treatment_cost":"NA","customer_expense":"NA","stay_duration":"NA","primary_phone":"9994766611","additional_phone":"9524775452","last_updated_at":"2021-02-11 00:00:00","ppn_benefits":{"ppn_spoc_phone_no":null,"nbhi_non_payable_waiver":null,"discount_on_opd_consultation":null,"discount_on_opd_investigation":null,"discount_on_health_check_up":null,"free_ambulance":null,"ppn_spoc_name":null},"poc":null,"ir":null},{"id":26133,"provider_id":"86575","name":"Eye Trust Hospital","address":"No: 80 Valluvar Street Sivananda Colony","city":"Coimbatore","state":"Tamil Nadu","postal_code":641012,"logo":"https://rules.nivabupa.com/media/default_hospital.svg","latitude":null,"longitude":null,"beds_count":"5","email_id":"eyetrusthospital@gmail.com","website":"http://www.eyetrusthospital.com/","ppn_available":false,"doctors_count":"3","rating":0,"avg_rating":0,"review_count":"NA","rating_count":"NA","reviews":"120","accreditions":"NABH Entry Level","treatment_cost":"NA","customer_expense":"NA","stay_duration":"NA","primary_phone":"0422-4366927","additional_phone":"9677716927","last_updated_at":"2022-02-25 00:00:00","ppn_benefits":{"ppn_spoc_phone_no":null,"nbhi_non_payable_waiver":null,"discount_on_opd_consultation":null,"discount_on_opd_investigation":null,"discount_on_health_check_up":null,"free_ambulance":null,"ppn_spoc_name":null},"poc":null,"ir":null},{"id":26483,"provider_id":"89845","name":"Meenakshi Hospital","address":"S.F.No. 475/2B Jothi Nagar Veerapandi Village, K. Chttipalayam Dharapuram Road Tiruppur","city":"Coimbatore","state":"Tamil Nadu","postal_code":641604,"logo":"https://rules.nivabupa.com/media/default_hospital.svg","latitude":null,"longitude":null,"beds_count":"NA","email_id":"claims.meenakshihospital@gmail.com","website":null,"ppn_available":false,"doctors_count":"NA","rating":0,"avg_rating":0,"review_count":"NA","rating_count":"NA","reviews":"120","accreditions":"NA","treatment_cost":"NA","customer_expense":"NA","stay_duration":"NA","primary_phone":"8056796262","additional_phone":"8056796262","last_updated_at":"NA","ppn_benefits":{"ppn_spoc_phone_no":null,"nbhi_non_payable_waiver":null,"discount_on_opd_consultation":null,"discount_on_opd_investigation":null,"discount_on_health_check_up":null,"free_ambulance":null,"ppn_spoc_name":null},"poc":null,"ir":null},{"id":26512,"provider_id":"90226","name":"ANP Nursing Home","address":"No. 8/1 Jaya Nagar Poochiyor, Thondamuthur Road Dheenampalayam Post","city":"Coimbatore","state":"Tamil Nadu","postal_code":641109,"logo":"https://rules.nivabupa.com/media/default_hospital.svg","latitude":null,"longitude":null,"beds_count":"NA","email_id":"anpnh12@gmail.com","website":null,"ppn_available":false,"doctors_count":"NA","rating":0,"avg_rating":0,"review_count":"NA","rating_count":"NA","reviews":"120","accreditions":"NA","treatment_cost":"NA","customer_expense":"NA","stay_duration":"NA","primary_phone":"9698659895","additional_phone":"8870759916","last_updated_at":"NA","ppn_benefits":{"ppn_spoc_phone_no":null,"nbhi_non_payable_waiver":null,"discount_on_opd_consultation":null,"discount_on_opd_investigation":null,"discount_on_health_check_up":null,"free_ambulance":null,"ppn_spoc_name":null},"poc":null,"ir":null},{"id":26521,"provider_id":"90338","name":"Manu Hospital","address":"No.1 Paari Nagar 2Nd Street Sungam Byepass Road Sungam","city":"Coimbatore","state":"Tamil Nadu","postal_code":641045,"logo":"https://rules.nivabupa.com/media/default_hospital.svg","latitude":null,"longitude":null,"beds_count":"NA","email_id":"manunabh@gmail.com","website":null,"ppn_available":false,"doctors_count":"NA","rating":0,"avg_rating":0,"review_count":"NA","rating_count":"NA","reviews":"120","accreditions":"NA","treatment_cost":"NA","customer_expense":"NA","stay_duration":"NA","primary_phone":"0422-2300242","additional_phone":"8526459712","last_updated_at":"NA","ppn_benefits":{"ppn_spoc_phone_no":null,"nbhi_non_payable_waiver":null,"discount_on_opd_consultation":null,"discount_on_opd_investigation":null,"discount_on_health_check_up":null,"free_ambulance":null,"ppn_spoc_name":null},"poc":null,"ir":null},{"id":26522,"provider_id":"90340","name":"Shree Hospital","address":"718 Shree Hospital Complex Puliyakulam Main Road Dhamu Nagartamilnadu","city":"Coimbatore","state":"Tamil Nadu","postal_code":641045,"logo":"https://rules.nivabupa.com/media/default_hospital.svg","latitude":null,"longitude":null,"beds_count":"NA","email_id":"gsvig@yahoo.co.in","website":null,"ppn_available":false,"doctors_count":"NA","rating":0,"avg_rating":0,"review_count":"NA","rating_count":"NA","reviews":"120","accreditions":"NA","treatment_cost":"NA","customer_expense":"NA","stay_duration":"NA","primary_phone":"0422-2315211","additional_phone":"9442253261","last_updated_at":"NA","ppn_benefits":{"ppn_spoc_phone_no":null,"nbhi_non_payable_waiver":null,"discount_on_opd_consultation":null,"discount_on_opd_investigation":null,"discount_on_health_check_up":null,"free_ambulance":null,"ppn_spoc_name":null},"poc":null,"ir":null},{"id":17930,"provider_id":"91502","name":"Abinand Hospital","address":"237F Pollachi Main Road, Sundarapuram","city":"Coimbatore","state":"Tamil Nadu","postal_code":641024,"logo":"https://rules.nivabupa.com/media/default_hospital.svg","latitude":null,"longitude":null,"beds_count":"NA","email_id":"abinand.insurance@gmail.com","website":null,"ppn_available":false,"doctors_count":"NA","rating":0,"avg_rating":0,"review_count":"NA","rating_count":"NA","reviews":"120","accreditions":"NA","treatment_cost":"NA","customer_expense":"NA","stay_duration":"NA","primary_phone":"9443295098","additional_phone":"7339315234","last_updated_at":"NA","ppn_benefits":{"ppn_spoc_phone_no":null,"nbhi_non_payable_waiver":null,"discount_on_opd_consultation":null,"discount_on_opd_investigation":null,"discount_on_health_check_up":null,"free_ambulance":null,"ppn_spoc_name":null},"poc":null,"ir":null},{"id":17917,"provider_id":"91880","name":"Sumith Hospitals","address":"Sf.No. 467/A, Vilankurichi Road, Hopes College Peelamedu","city":"Coimbatore","state":"Tamil Nadu","postal_code":641004,"logo":"https://rules.nivabupa.com/media/default_hospital.svg","latitude":null,"longitude":null,"beds_count":"NA","email_id":"sumithhospital@gmail.com","website":null,"ppn_available":false,"doctors_count":"NA","rating":0,"avg_rating":0,"review_count":"NA","rating_count":"NA","reviews":"120","accreditions":"NA","treatment_cost":"NA","customer_expense":"NA","stay_duration":"NA","primary_phone":"0422-4572222","additional_phone":"9842270605","last_updated_at":"NA","ppn_benefits":{"ppn_spoc_phone_no":null,"nbhi_non_payable_waiver":null,"discount_on_opd_consultation":null,"discount_on_opd_investigation":null,"discount_on_health_check_up":null,"free_ambulance":null,"ppn_spoc_name":null},"poc":null,"ir":null},{"id":17924,"provider_id":"91625","name":"Geetha Eye Hospital","address":"No:5, Kalpana Road, Udumalpet Tiruppur","city":"Coimbatore","state":"Tamil Nadu","postal_code":642126,"logo":"https://rules.nivabupa.com/media/default_hospital.svg","latitude":null,"longitude":null,"beds_count":"NA","email_id":"geethaeyehospital@ gmail.com","website":"http://www.geethaeyehospital.com/","ppn_available":false,"doctors_count":"NA","rating":0,"avg_rating":0,"review_count":"NA","rating_count":"NA","reviews":"120","accreditions":"NA","treatment_cost":"NA","customer_expense":"NA","stay_duration":"NA","primary_phone":"0425-2225919","additional_phone":"7598178919","last_updated_at":"NA","ppn_benefits":{"ppn_spoc_phone_no":null,"nbhi_non_payable_waiver":null,"discount_on_opd_consultation":null,"discount_on_opd_investigation":null,"discount_on_health_check_up":null,"free_ambulance":null,"ppn_spoc_name":null},"poc":null,"ir":null},{"id":18266,"provider_id":"20507","name":"Ashwin Hospital","address":"No.1 Alamu Nagar Road","city":"Coimbatore","state":"Tamil Nadu","postal_code":641012,"logo":"https://rules.nivabupa.com/media/default_hospital.svg","latitude":11.024139,"longitude":76.973111,"beds_count":"117","email_id":"ashwinhospitalcbe@airtelmail.in","website":"http://www.ashwinhospital.com/","ppn_available":false,"doctors_count":"48","rating":0,"avg_rating":0,"review_count":"NA","rating_count":"NA","reviews":"120","accreditions":"NABH Entry Level","treatment_cost":"NA","customer_expense":"NA","stay_duration":"NA","primary_phone":"0422-2525252","additional_phone":"9442622424","last_updated_at":"2021-03-31 00:00:00","ppn_benefits":{"ppn_spoc_phone_no":null,"nbhi_non_payable_waiver":null,"discount_on_opd_consultation":null,"discount_on_opd_investigation":null,"discount_on_health_check_up":null,"free_ambulance":null,"ppn_spoc_name":null},"poc":null,"ir":null},{"id":18413,"provider_id":"20857","name":"Kongunad Hospital Pvt. Ltd.","address":"# 116 117, Tatabad, 11Th Street,","city":"Coimbatore","state":"Tamil Nadu","postal_code":641012,"logo":"https://rules.nivabupa.com/media/default_hospital.svg","latitude":11.018175,"longitude":76.96057,"beds_count":"275","email_id":"kongunad@gmail.com","website":null,"ppn_available":false,"doctors_count":"107","rating":0,"avg_rating":0,"review_count":3,"rating_count":3,"reviews":"120","accreditions":"NABH Entry Level","treatment_cost":"NA","customer_expense":"NA","stay_duration":"6","primary_phone":"0422-4316000","additional_phone":"0422-4316000","last_updated_at":"2021-07-20 00:00:00","ppn_benefits":{"ppn_spoc_phone_no":null,"nbhi_non_payable_waiver":null,"discount_on_opd_consultation":null,"discount_on_opd_investigation":null,"discount_on_health_check_up":null,"free_ambulance":null,"ppn_spoc_name":null},"poc":null,"ir":null},{"id":18443,"provider_id":"20997","name":"N. G. Hospital Pvt. Ltd.","address":"No. 577 Trichy Road Singanallur","city":"Coimbatore","state":"Tamil Nadu","postal_code":641005,"logo":"https://rules.nivabupa.com/media/default_hospital.svg","latitude":11.000077,"longitude":77.029378,"beds_count":"150","email_id":"nghospitalsinsurance@gmail.com","website":"http://www.nghospital.in/","ppn_available":false,"doctors_count":"30","rating":0,"avg_rating":0,"review_count":1,"rating_count":1,"reviews":"120","accreditions":"NABH Entry Level","treatment_cost":"NA","customer_expense":"NA","stay_duration":"4","primary_phone":"0422-2595963","additional_phone":"0422-2595963","last_updated_at":"2021-02-18 00:00:00","ppn_benefits":{"ppn_spoc_phone_no":null,"nbhi_non_payable_waiver":null,"discount_on_opd_consultation":null,"discount_on_opd_investigation":null,"discount_on_health_check_up":null,"free_ambulance":null,"ppn_spoc_name":null},"poc":null,"ir":null},{"id":18467,"provider_id":"21125","name":"Vasan Eye Care Hospital Coimbatore","address":"81/83 T.V.Sami Road West Opp To Kamatchiamman Temple R.S.Puram","city":"Coimbatore","state":"Tamil Nadu","postal_code":641002,"logo":"https://rules.nivabupa.com/media/hospital_images/21125.png","latitude":11.00931,"longitude":76.94552,"beds_count":"10","email_id":"recovery.tpa@vasaneye.in","website":"http://vasaneye.com/","ppn_available":false,"doctors_count":"5","rating":0,"avg_rating":0,"review_count":"NA","rating_count":"NA","reviews":"120","accreditions":"NA","treatment_cost":"NA","customer_expense":"NA","stay_duration":"NA","primary_phone":"0422-4089000","additional_phone":"9944480915","last_updated_at":"2021-07-20 00:00:00","ppn_benefits":{"ppn_spoc_phone_no":null,"nbhi_non_payable_waiver":null,"discount_on_opd_consultation":null,"discount_on_opd_investigation":null,"discount_on_health_check_up":null,"free_ambulance":null,"ppn_spoc_name":null},"poc":null,"ir":null},{"id":18749,"provider_id":"22263","name":"Vasan Eye Care Hospital Thudiyalur","address":"Nanjammas Building 1/80-1 Metupallayam Road Thudiyalur","city":"Coimbatore","state":"Tamil Nadu","postal_code":641034,"logo":"https://rules.nivabupa.com/media/default_hospital.svg","latitude":11.07314,"longitude":76.94139,"beds_count":"25","email_id":"recovery.tpa@vasaneye.in","website":"http://vasaneye.com/","ppn_available":false,"doctors_count":"14","rating":0,"avg_rating":0,"review_count":"NA","rating_count":"NA","reviews":"120","accreditions":"NA","treatment_cost":"NA","customer_expense":"NA","stay_duration":"NA","primary_phone":"0422-3989030","additional_phone":"9786400053","last_updated_at":"2021-03-31 00:00:00","ppn_benefits":{"ppn_spoc_phone_no":null,"nbhi_non_payable_waiver":null,"discount_on_opd_consultation":null,"discount_on_opd_investigation":null,"discount_on_health_check_up":null,"free_ambulance":null,"ppn_spoc_name":null},"poc":null,"ir":null},{"id":18768,"provider_id":"22282","name":"Vasan Eye Care Hospital Tirupur","address":"No.83 Perumanallur Road Nesavalar Colony Tirupur","city":"Coimbatore","state":"Tamil Nadu","postal_code":641602,"logo":"https://rules.nivabupa.com/media/default_hospital.svg","latitude":11.12786,"longitude":77.3415,"beds_count":"30","email_id":"recovery.tpa@vasaneye.in","website":"http://vasaneye.com/","ppn_available":false,"doctors_count":"16","rating":0,"avg_rating":0,"review_count":"NA","rating_count":"NA","reviews":"120","accreditions":"NA","treatment_cost":"NA","customer_expense":"NA","stay_duration":"NA","primary_phone":"0421-3989000","additional_phone":"9585545582","last_updated_at":"2021-03-31 00:00:00","ppn_benefits":{"ppn_spoc_phone_no":null,"nbhi_non_payable_waiver":null,"discount_on_opd_consultation":null,"discount_on_opd_investigation":null,"discount_on_health_check_up":null,"free_ambulance":null,"ppn_spoc_name":null},"poc":null,"ir":null},{"id":47637,"provider_id":"103238","name":"Tirupur Aadhaar Medical Centre Private Limited","address":"No 541, 543/338-34, Pushpa Theatre Bus Stop, Avinashi Road,","city":"Coimbatore","state":"Tamil Nadu","postal_code":641602,"logo":"https://rules.nivabupa.com/media/default_hospital.svg","latitude":null,"longitude":null,"beds_count":"NA","email_id":"tirupuraadhaarmedicalcentre@gmail.com","website":null,"ppn_available":false,"doctors_count":"NA","rating":0,"avg_rating":1,"review_count":"NA","rating_count":"NA","reviews":"120","accreditions":"NA","treatment_cost":"NA","customer_expense":"NA","stay_duration":"NA","primary_phone":"0421-2200005","additional_phone":"9047027362","last_updated_at":"NA","ppn_benefits":{"ppn_spoc_phone_no":null,"nbhi_non_payable_waiver":null,"discount_on_opd_consultation":null,"discount_on_opd_investigation":null,"discount_on_health_check_up":null,"free_ambulance":null,"ppn_spoc_name":null},"poc":null,"ir":null},{"id":47439,"provider_id":"103321","name":"Hem Hospital","address":"5H, 1-9, Mettupalayam Road, Near Viswanathapuram Bus Stop, Thudiyalur","city":"Coimbatore","state":"Tamil Nadu","postal_code":641034,"logo":"https://rules.nivabupa.com/media/default_hospital.svg","latitude":null,"longitude":null,"beds_count":"NA","email_id":"hemhospital@gmail.com","website":null,"ppn_available":false,"doctors_count":"NA","rating":0,"avg_rating":1,"review_count":"NA","rating_count":"NA","reviews":"120","accreditions":"NA","treatment_cost":"NA","customer_expense":"NA","stay_duration":"NA","primary_phone":"0422-2647766","additional_phone":"9842793198","last_updated_at":"NA","ppn_benefits":{"ppn_spoc_phone_no":null,"nbhi_non_payable_waiver":null,"discount_on_opd_consultation":null,"discount_on_opd_investigation":null,"discount_on_health_check_up":null,"free_ambulance":null,"ppn_spoc_name":null},"poc":null,"ir":null},{"id":47276,"provider_id":"102397","name":"Tirupur Chest Hospital ","address":"28/96 Jg Nagar, 60 Feet Main Road, Kumar Nagar,","city":"Coimbatore","state":"Tamil Nadu","postal_code":641603,"logo":"https://rules.nivabupa.com/media/default_hospital.svg","latitude":null,"longitude":null,"beds_count":"NA","email_id":"tchtirupur@gmail.com","website":null,"ppn_available":false,"doctors_count":"NA","rating":0,"avg_rating":1,"review_count":"NA","rating_count":"NA","reviews":"120","accreditions":"NA","treatment_cost":"NA","customer_expense":"NA","stay_duration":"NA","primary_phone":"0422-4340334","additional_phone":"9629366031","last_updated_at":"NA","ppn_benefits":{"ppn_spoc_phone_no":null,"nbhi_non_payable_waiver":null,"discount_on_opd_consultation":null,"discount_on_opd_investigation":null,"discount_on_health_check_up":null,"free_ambulance":null,"ppn_spoc_name":null},"poc":null,"ir":null}]}