{"links":{"next":null,"previous":"https://rules.nivabupa.com/api/v1/hospital_rater/get_hospital_list/?city=Madurai&format=json&page=3"},"count":95,"total_pages":4,"results":[{"id":17920,"provider_id":"91870","name":"Ramya Neuro Hospital","address":"L.I.G. 169, Lake View Road, Opp To Sundaram Park, K.K.Nagar","city":"Madurai","state":"Tamil Nadu","postal_code":625020,"logo":"https://rules.nivabupa.com/media/default_hospital.svg","latitude":null,"longitude":null,"beds_count":"NA","email_id":"ramyaneurohospital@gmail.com","website":null,"ppn_available":false,"doctors_count":"NA","rating":0,"avg_rating":0,"review_count":"NA","rating_count":"NA","reviews":"120","accreditions":"NA","treatment_cost":"NA","customer_expense":"NA","stay_duration":"NA","primary_phone":"0452-7961539","additional_phone":"7373758508","last_updated_at":"NA","ppn_benefits":{"ppn_spoc_phone_no":null,"nbhi_non_payable_waiver":null,"discount_on_opd_consultation":null,"discount_on_opd_investigation":null,"discount_on_health_check_up":null,"free_ambulance":null,"ppn_spoc_name":null},"poc":null,"ir":null},{"id":18405,"provider_id":"20835","name":"Raghavendhar Hospital","address":"# 36 E Kuruvikaransalai","city":"Madurai","state":"Tamil Nadu","postal_code":625009,"logo":"https://rules.nivabupa.com/media/default_hospital.svg","latitude":9.902019,"longitude":78.150809,"beds_count":"150","email_id":"raghavendhar.hospital@yahoo.com","website":null,"ppn_available":false,"doctors_count":"62","rating":0,"avg_rating":0,"review_count":"NA","rating_count":"NA","reviews":"120","accreditions":"NA","treatment_cost":"NA","customer_expense":"NA","stay_duration":"NA","primary_phone":"0452-3017777","additional_phone":"0452-3017777","last_updated_at":"2021-03-31 00:00:00","ppn_benefits":{"ppn_spoc_phone_no":null,"nbhi_non_payable_waiver":null,"discount_on_opd_consultation":null,"discount_on_opd_investigation":null,"discount_on_health_check_up":null,"free_ambulance":null,"ppn_spoc_name":null},"poc":null,"ir":null},{"id":47636,"provider_id":"103237","name":"Nethravathy Medical Foundation And Multispeciality Hospital","address":"No.33, Alagar Kovil Main Road, K.Pudur,","city":"Madurai","state":"Tamil Nadu","postal_code":625007,"logo":"https://rules.nivabupa.com/media/default_hospital.svg","latitude":null,"longitude":null,"beds_count":"NA","email_id":"claims.nethravathy@gmail.com","website":null,"ppn_available":false,"doctors_count":"NA","rating":0,"avg_rating":1,"review_count":"NA","rating_count":"NA","reviews":"120","accreditions":"NA","treatment_cost":"NA","customer_expense":"NA","stay_duration":"NA","primary_phone":"0452-3556602","additional_phone":"9894183806","last_updated_at":"NA","ppn_benefits":{"ppn_spoc_phone_no":null,"nbhi_non_payable_waiver":null,"discount_on_opd_consultation":null,"discount_on_opd_investigation":null,"discount_on_health_check_up":null,"free_ambulance":null,"ppn_spoc_name":null},"poc":null,"ir":null},{"id":47537,"provider_id":"103305","name":"P.R Hospital","address":"140, Munichalai Road, (Opp) Ismailpuram 6Th Street","city":"Madurai","state":"Tamil Nadu","postal_code":625009,"logo":"https://rules.nivabupa.com/media/default_hospital.svg","latitude":null,"longitude":null,"beds_count":"NA","email_id":"pr.hospitals@gmail.com","website":null,"ppn_available":false,"doctors_count":"NA","rating":0,"avg_rating":1,"review_count":"NA","rating_count":"NA","reviews":"120","accreditions":"NA","treatment_cost":"NA","customer_expense":"NA","stay_duration":"NA","primary_phone":"0452-2622700","additional_phone":"9443723454","last_updated_at":"NA","ppn_benefits":{"ppn_spoc_phone_no":null,"nbhi_non_payable_waiver":null,"discount_on_opd_consultation":null,"discount_on_opd_investigation":null,"discount_on_health_check_up":null,"free_ambulance":null,"ppn_spoc_name":null},"poc":null,"ir":null},{"id":47634,"provider_id":"103224","name":"Aathi Eye Hospital","address":"No: 137, East Veli Street, Panthadi 5Th Street Opposite","city":"Madurai","state":"Tamil Nadu","postal_code":625001,"logo":"https://rules.nivabupa.com/media/default_hospital.svg","latitude":null,"longitude":null,"beds_count":"NA","email_id":"aathieyehospital@gmail.com","website":null,"ppn_available":false,"doctors_count":"NA","rating":0,"avg_rating":1,"review_count":"NA","rating_count":"NA","reviews":"120","accreditions":"NA","treatment_cost":"NA","customer_expense":"NA","stay_duration":"NA","primary_phone":"0452-4230233","additional_phone":"9842154982","last_updated_at":"NA","ppn_benefits":{"ppn_spoc_phone_no":null,"nbhi_non_payable_waiver":null,"discount_on_opd_consultation":null,"discount_on_opd_investigation":null,"discount_on_health_check_up":null,"free_ambulance":null,"ppn_spoc_name":null},"poc":null,"ir":null}]}