{"links":{"next":null,"previous":"https://rules.nivabupa.com/api/v1/hospital_rater/get_hospital_list/?city=Kolkata&format=json&page=4"},"count":142,"total_pages":5,"results":[{"id":19005,"provider_id":"25209","name":"KPC Medical College and Hospital Jadavpur","address":"1F Raja S.C. Mullick Road Jadavpur","city":"Kolkata","state":"West Bengal","postal_code":700032,"logo":"https://rules.nivabupa.com/media/default_hospital.svg","latitude":22.492535,"longitude":88.372772,"beds_count":"500","email_id":"kpchospital@kpcmedicalcollege.com","website":"http://www.kpcmedicalcollege.org/","ppn_available":false,"doctors_count":"175","rating":0,"avg_rating":0,"review_count":1,"rating_count":1,"reviews":"120","accreditions":"NABH Entry Level","treatment_cost":"NA","customer_expense":"NA","stay_duration":"NA","primary_phone":"033-30016100","additional_phone":"9038070604","last_updated_at":"2021-07-20 00:00:00","ppn_benefits":{"ppn_spoc_phone_no":null,"nbhi_non_payable_waiver":null,"discount_on_opd_consultation":null,"discount_on_opd_investigation":null,"discount_on_health_check_up":null,"free_ambulance":null,"ppn_spoc_name":null},"poc":null,"ir":null},{"id":19007,"provider_id":"25228","name":"New Life Nursing Home Kolkata","address":"Sahabagan Jyangara Rajarhat Road Baguiati","city":"Kolkata","state":"West Bengal","postal_code":700059,"logo":"https://rules.nivabupa.com/media/default_hospital.svg","latitude":22.61681,"longitude":88.43365,"beds_count":"40","email_id":"newlifekolkata@gmail.com","website":"http://www.newlifenursinghome.net/","ppn_available":false,"doctors_count":"20","rating":0,"avg_rating":0,"review_count":"NA","rating_count":"NA","reviews":"120","accreditions":"NA","treatment_cost":"NA","customer_expense":"NA","stay_duration":"3","primary_phone":"033-25708090","additional_phone":"90511614889","last_updated_at":"2021-03-11 00:00:00","ppn_benefits":{"ppn_spoc_phone_no":null,"nbhi_non_payable_waiver":null,"discount_on_opd_consultation":null,"discount_on_opd_investigation":null,"discount_on_health_check_up":null,"free_ambulance":null,"ppn_spoc_name":null},"poc":null,"ir":null},{"id":19009,"provider_id":"25244","name":"All Asia Medical Institute","address":"8B Garcha 1St Lane Gariahat Pantaloons","city":"Kolkata","state":"West Bengal","postal_code":700019,"logo":"https://rules.nivabupa.com/media/default_hospital.svg","latitude":22.523191,"longitude":88.365246,"beds_count":"59","email_id":"tpaaami@gmail.com","website":"http://www.aamihospitals.com/","ppn_available":false,"doctors_count":"25","rating":0,"avg_rating":0,"review_count":1,"rating_count":1,"reviews":"120","accreditions":"NA","treatment_cost":"NA","customer_expense":"NA","stay_duration":"8","primary_phone":"033-40012200","additional_phone":"033-40012200","last_updated_at":"2021-03-31 00:00:00","ppn_benefits":{"ppn_spoc_phone_no":null,"nbhi_non_payable_waiver":null,"discount_on_opd_consultation":null,"discount_on_opd_investigation":null,"discount_on_health_check_up":null,"free_ambulance":null,"ppn_spoc_name":null},"poc":null,"ir":null},{"id":25683,"provider_id":"82663","name":"Lansdowne Nursing Home","address":"119, Sarat Bose Road","city":"Kolkata","state":"West Bengal","postal_code":700026,"logo":"https://rules.nivabupa.com/media/default_hospital.svg","latitude":0,"longitude":0,"beds_count":"57","email_id":"cash@purnammedicare.com","website":"http://www.purnammedicare.com/","ppn_available":false,"doctors_count":"87","rating":0,"avg_rating":0,"review_count":"NA","rating_count":"NA","reviews":"120","accreditions":"NA","treatment_cost":"NA","customer_expense":"NA","stay_duration":"0","primary_phone":"033-40864444","additional_phone":"9230609682","last_updated_at":"2021-12-14 00:00:00","ppn_benefits":{"ppn_spoc_phone_no":null,"nbhi_non_payable_waiver":null,"discount_on_opd_consultation":null,"discount_on_opd_investigation":null,"discount_on_health_check_up":null,"free_ambulance":null,"ppn_spoc_name":null},"poc":null,"ir":null},{"id":18861,"provider_id":"22831","name":"Srijoni Healing Home","address":"56 Hemchandra Naskar Road Beleghata","city":"Kolkata","state":"West Bengal","postal_code":700010,"logo":"https://rules.nivabupa.com/media/default_hospital.svg","latitude":22.565272,"longitude":88.394394,"beds_count":"30","email_id":"srijonihealinghome@gmail.com","website":null,"ppn_available":false,"doctors_count":"15","rating":0,"avg_rating":0,"review_count":1,"rating_count":1,"reviews":"120","accreditions":"NA","treatment_cost":"NA","customer_expense":"NA","stay_duration":"5","primary_phone":"033-23720038","additional_phone":"033-23720038","last_updated_at":"2021-07-20 00:00:00","ppn_benefits":{"ppn_spoc_phone_no":null,"nbhi_non_payable_waiver":null,"discount_on_opd_consultation":null,"discount_on_opd_investigation":null,"discount_on_health_check_up":null,"free_ambulance":null,"ppn_spoc_name":null},"poc":null,"ir":null},{"id":20132,"provider_id":"33152","name":"Swiss Park Nursing Home Pvt. Ltd.","address":"48/4 Swiss Park, Tollygunge, Near Rabindra Sarobar Metro Station","city":"Kolkata","state":"West Bengal","postal_code":700033,"logo":"https://rules.nivabupa.com/media/default_hospital.svg","latitude":22.572646,"longitude":88.363895,"beds_count":"15","email_id":"swisspark@rediffmail.com","website":null,"ppn_available":false,"doctors_count":"7","rating":0,"avg_rating":0,"review_count":"NA","rating_count":"NA","reviews":"120","accreditions":"NA","treatment_cost":"NA","customer_expense":"NA","stay_duration":"NA","primary_phone":"033-24242216","additional_phone":"033-24241884","last_updated_at":"2021-03-31 00:00:00","ppn_benefits":{"ppn_spoc_phone_no":null,"nbhi_non_payable_waiver":null,"discount_on_opd_consultation":null,"discount_on_opd_investigation":null,"discount_on_health_check_up":null,"free_ambulance":null,"ppn_spoc_name":null},"poc":null,"ir":null},{"id":18863,"provider_id":"22860","name":"Mission of Mercy Hospital & Research Centre","address":"125/1 Park Street","city":"Kolkata","state":"West Bengal","postal_code":700017,"logo":"https://rules.nivabupa.com/media/default_hospital.svg","latitude":22.547242,"longitude":88.358936,"beds_count":"30","email_id":"mercyhospitaltpadesk@gmail.com","website":null,"ppn_available":false,"doctors_count":"11","rating":0,"avg_rating":0,"review_count":1,"rating_count":1,"reviews":"120","accreditions":"NABH Higher Level","treatment_cost":"NA","customer_expense":"NA","stay_duration":"5","primary_phone":"033-30902003","additional_phone":"9051616777","last_updated_at":"2021-03-31 00:00:00","ppn_benefits":{"ppn_spoc_phone_no":null,"nbhi_non_payable_waiver":null,"discount_on_opd_consultation":null,"discount_on_opd_investigation":null,"discount_on_health_check_up":null,"free_ambulance":null,"ppn_spoc_name":null},"poc":null,"ir":null},{"id":19388,"provider_id":"28922","name":"Five Point Micro Surgery Centre Pvt Ltd.","address":"Five Point Micro Surgery Centre Pvt. Ltd.","city":"Kolkata","state":"West Bengal","postal_code":700004,"logo":"https://rules.nivabupa.com/media/default_hospital.svg","latitude":22.597307,"longitude":88.374725,"beds_count":"14","email_id":"fpmc@nediffmai.com","website":"http://www.fivepointmsc.com//","ppn_available":false,"doctors_count":"7","rating":0,"avg_rating":0,"review_count":"NA","rating_count":"NA","reviews":"120","accreditions":"NA","treatment_cost":"NA","customer_expense":"NA","stay_duration":"NA","primary_phone":"033-25302293","additional_phone":"9748600329","last_updated_at":"2021-03-31 00:00:00","ppn_benefits":{"ppn_spoc_phone_no":null,"nbhi_non_payable_waiver":null,"discount_on_opd_consultation":null,"discount_on_opd_investigation":null,"discount_on_health_check_up":null,"free_ambulance":null,"ppn_spoc_name":null},"poc":null,"ir":null},{"id":19390,"provider_id":"28926","name":"Netaji Subhash Nursing Home & Diagnostic Centre","address":"19A Ekbal Pore Zone Khidderpur","city":"Kolkata","state":"West Bengal","postal_code":700023,"logo":"https://rules.nivabupa.com/media/default_hospital.svg","latitude":22.532076,"longitude":88.32275,"beds_count":"30","email_id":"mail4ragib@yahoo.in","website":null,"ppn_available":false,"doctors_count":"13","rating":0,"avg_rating":0,"review_count":"NA","rating_count":"NA","reviews":"120","accreditions":"NA","treatment_cost":"NA","customer_expense":"NA","stay_duration":"NA","primary_phone":"033-24490218","additional_phone":"9230611892","last_updated_at":"2021-07-20 00:00:00","ppn_benefits":{"ppn_spoc_phone_no":null,"nbhi_non_payable_waiver":null,"discount_on_opd_consultation":null,"discount_on_opd_investigation":null,"discount_on_health_check_up":null,"free_ambulance":null,"ppn_spoc_name":null},"poc":null,"ir":null},{"id":19408,"provider_id":"28947","name":"Swastik Seva Sadan","address":"16 C Tiljala Road","city":"Kolkata","state":"West Bengal","postal_code":700046,"logo":"https://rules.nivabupa.com/media/default_hospital.svg","latitude":22.529269,"longitude":88.374758,"beds_count":"22","email_id":"swastiksevasadan@gmail.com","website":null,"ppn_available":false,"doctors_count":"10","rating":0,"avg_rating":0,"review_count":"NA","rating_count":"NA","reviews":"120","accreditions":"NA","treatment_cost":"NA","customer_expense":"NA","stay_duration":"13","primary_phone":"033-23430100","additional_phone":"9339005894","last_updated_at":"2021-03-31 00:00:00","ppn_benefits":{"ppn_spoc_phone_no":null,"nbhi_non_payable_waiver":null,"discount_on_opd_consultation":null,"discount_on_opd_investigation":null,"discount_on_health_check_up":null,"free_ambulance":null,"ppn_spoc_name":null},"poc":null,"ir":null},{"id":18871,"provider_id":"22988","name":"Kothari Medical Centre","address":"8/3 Alipur Road","city":"Kolkata","state":"West Bengal","postal_code":700027,"logo":"https://rules.nivabupa.com/media/default_hospital.svg","latitude":22.522112,"longitude":88.330376,"beds_count":"350","email_id":"marketing@kotharimedical.com","website":"http://www.kotharimedical.com/","ppn_available":false,"doctors_count":"123","rating":0,"avg_rating":0,"review_count":4,"rating_count":4,"reviews":"120","accreditions":"NABH Higher Level","treatment_cost":"NA","customer_expense":"NA","stay_duration":"8","primary_phone":"033-24567050","additional_phone":"8697708139","last_updated_at":"2021-07-20 00:00:00","ppn_benefits":{"ppn_spoc_phone_no":null,"nbhi_non_payable_waiver":null,"discount_on_opd_consultation":null,"discount_on_opd_investigation":null,"discount_on_health_check_up":null,"free_ambulance":null,"ppn_spoc_name":null},"poc":null,"ir":null},{"id":23554,"provider_id":"67102","name":"Disha Eye Hospitals Pvt. Ltd. Kolkata","address":"B T Road Baranagar","city":"Kolkata","state":"West Bengal","postal_code":700036,"logo":"https://rules.nivabupa.com/media/default_hospital.svg","latitude":22.6343,"longitude":88.37797,"beds_count":"5","email_id":"dishasinthi.mediclaim@gmail.com","website":null,"ppn_available":false,"doctors_count":"5","rating":0,"avg_rating":0,"review_count":2,"rating_count":2,"reviews":"120","accreditions":"NABH Entry Level","treatment_cost":"NA","customer_expense":"NA","stay_duration":"1","primary_phone":"033-66360005","additional_phone":"9830013731","last_updated_at":"2021-03-31 00:00:00","ppn_benefits":{"ppn_spoc_phone_no":null,"nbhi_non_payable_waiver":null,"discount_on_opd_consultation":null,"discount_on_opd_investigation":null,"discount_on_health_check_up":null,"free_ambulance":null,"ppn_spoc_name":null},"poc":null,"ir":null},{"id":19674,"provider_id":"31568","name":"Vasan Eye Care Hospital Barasat","address":"30/1 Jessore Road Barasat Kolkata","city":"Kolkata","state":"West Bengal","postal_code":700124,"logo":"https://rules.nivabupa.com/media/default_hospital.svg","latitude":0,"longitude":0,"beds_count":"10","email_id":"recovery.tpa@vasaneye.in","website":"http://vasaneye.com/","ppn_available":false,"doctors_count":"5","rating":0,"avg_rating":0,"review_count":"NA","rating_count":"NA","reviews":"120","accreditions":"NA","treatment_cost":"NA","customer_expense":"NA","stay_duration":"NA","primary_phone":"033-30940200","additional_phone":"033-30940200","last_updated_at":"2021-07-20 00:00:00","ppn_benefits":{"ppn_spoc_phone_no":null,"nbhi_non_payable_waiver":null,"discount_on_opd_consultation":null,"discount_on_opd_investigation":null,"discount_on_health_check_up":null,"free_ambulance":null,"ppn_spoc_name":null},"poc":null,"ir":null},{"id":20973,"provider_id":"46451","name":"Baksi Orthopaediscs Trauma and Rehabilitation Centre Pvt. Ltd.","address":"95 Hemchandra Naskar Road Beliaghata, Kolkata","city":"Kolkata","state":"West Bengal","postal_code":700010,"logo":"https://rules.nivabupa.com/media/default_hospital.svg","latitude":22.5684,"longitude":88.391243,"beds_count":"40","email_id":"rajudas01051989@gmail.com","website":null,"ppn_available":false,"doctors_count":"40","rating":0,"avg_rating":0,"review_count":4,"rating_count":4,"reviews":"120","accreditions":"NA","treatment_cost":"NA","customer_expense":"NA","stay_duration":"0","primary_phone":"033-27730052","additional_phone":"9038233582","last_updated_at":"2021-05-06 00:00:00","ppn_benefits":{"ppn_spoc_phone_no":null,"nbhi_non_payable_waiver":null,"discount_on_opd_consultation":null,"discount_on_opd_investigation":null,"discount_on_health_check_up":null,"free_ambulance":null,"ppn_spoc_name":null},"poc":null,"ir":null},{"id":22226,"provider_id":"61128","name":"Megacity Nursing Home Pvt. Ltd.","address":"12, Jessore Road, Barasat","city":"Kolkata","state":"West Bengal","postal_code":700124,"logo":"https://rules.nivabupa.com/media/default_hospital.svg","latitude":22.7203,"longitude":88.48862,"beds_count":"50","email_id":"megacitynh@gmail.com","website":null,"ppn_available":false,"doctors_count":"14","rating":0,"avg_rating":0,"review_count":"NA","rating_count":"NA","reviews":"120","accreditions":"NA","treatment_cost":"NA","customer_expense":"NA","stay_duration":"NA","primary_phone":"033-25526319","additional_phone":"033-25526319","last_updated_at":"2021-01-12 00:00:00","ppn_benefits":{"ppn_spoc_phone_no":null,"nbhi_non_payable_waiver":null,"discount_on_opd_consultation":null,"discount_on_opd_investigation":null,"discount_on_health_check_up":null,"free_ambulance":null,"ppn_spoc_name":null},"poc":null,"ir":null},{"id":18445,"provider_id":"21003","name":"Genesis Hospital","address":"1470, Rajdanga Main Road, Near Kasba Golpark","city":"Kolkata","state":"West Bengal","postal_code":700107,"logo":"https://rules.nivabupa.com/media/default_hospital.svg","latitude":22.514119,"longitude":88.399194,"beds_count":"85","email_id":"debashisghose68@gmail.com","website":null,"ppn_available":false,"doctors_count":"36","rating":0,"avg_rating":0,"review_count":1,"rating_count":1,"reviews":"120","accreditions":"NABH Entry Level","treatment_cost":"NA","customer_expense":"NA","stay_duration":"0","primary_phone":"033-40224242","additional_phone":"8584883888","last_updated_at":"2021-03-31 00:00:00","ppn_benefits":{"ppn_spoc_phone_no":null,"nbhi_non_payable_waiver":null,"discount_on_opd_consultation":null,"discount_on_opd_investigation":null,"discount_on_health_check_up":null,"free_ambulance":null,"ppn_spoc_name":null},"poc":null,"ir":null},{"id":18446,"provider_id":"21004","name":"Desun Hospital & Heart Institute","address":"Desun More, Em Bypass, Kasba Golpark","city":"Kolkata","state":"West Bengal","postal_code":700107,"logo":"https://rules.nivabupa.com/media/default_hospital.svg","latitude":22.514638,"longitude":88.403292,"beds_count":"100","email_id":"dutt_sourav@yahoo.in","website":"http://www.desunhospital.com/","ppn_available":false,"doctors_count":"41","rating":0,"avg_rating":0,"review_count":"NA","rating_count":"NA","reviews":"120","accreditions":"NABH Entry Level","treatment_cost":"NA","customer_expense":"NA","stay_duration":"9","primary_phone":"033-71222000","additional_phone":"9748962424","last_updated_at":"2021-07-20 00:00:00","ppn_benefits":{"ppn_spoc_phone_no":null,"nbhi_non_payable_waiver":null,"discount_on_opd_consultation":null,"discount_on_opd_investigation":null,"discount_on_health_check_up":null,"free_ambulance":null,"ppn_spoc_name":null},"poc":null,"ir":null},{"id":18957,"provider_id":"24366","name":"Binayak Multispecialty Hospital","address":"59 Kalicharan Ghosh Road Sinthi More","city":"Kolkata","state":"West Bengal","postal_code":700050,"logo":"https://rules.nivabupa.com/media/default_hospital.svg","latitude":22.631104,"longitude":88.378406,"beds_count":"50","email_id":"binayakhealthworld@yahoo.co.in","website":null,"ppn_available":false,"doctors_count":"18","rating":0,"avg_rating":0,"review_count":"NA","rating_count":"NA","reviews":"120","accreditions":"NABH Entry Level","treatment_cost":"NA","customer_expense":"NA","stay_duration":"NA","primary_phone":"033-25329950","additional_phone":"9732160644","last_updated_at":"2021-03-31 00:00:00","ppn_benefits":{"ppn_spoc_phone_no":null,"nbhi_non_payable_waiver":null,"discount_on_opd_consultation":null,"discount_on_opd_investigation":null,"discount_on_health_check_up":null,"free_ambulance":null,"ppn_spoc_name":null},"poc":null,"ir":null},{"id":18463,"provider_id":"21107","name":"Alpha Medical Services Pvt Ltd. Kolkata","address":"13 Lala Lajpat Rai Sarani Elgin Road","city":"Kolkata","state":"West Bengal","postal_code":700020,"logo":"https://rules.nivabupa.com/media/default_hospital.svg","latitude":22.538175,"longitude":88.347251,"beds_count":"20","email_id":"alphamedical@vsnl.net.in","website":null,"ppn_available":false,"doctors_count":"8","rating":0,"avg_rating":0,"review_count":"NA","rating_count":"NA","reviews":"120","accreditions":"NA","treatment_cost":"NA","customer_expense":"NA","stay_duration":"NA","primary_phone":"033-22892530","additional_phone":"9830228939","last_updated_at":"2021-07-20 00:00:00","ppn_benefits":{"ppn_spoc_phone_no":null,"nbhi_non_payable_waiver":null,"discount_on_opd_consultation":null,"discount_on_opd_investigation":null,"discount_on_health_check_up":null,"free_ambulance":null,"ppn_spoc_name":null},"poc":null,"ir":null},{"id":18461,"provider_id":"21085","name":"Life Line Diagnostic Centre Cum Nursing Home","address":"4A, Wood Street","city":"Kolkata","state":"West Bengal","postal_code":700016,"logo":"https://rules.nivabupa.com/media/default_hospital.svg","latitude":22.524886,"longitude":88.416975,"beds_count":"40","email_id":"lifeline_dcnh@yahoo.co.in","website":null,"ppn_available":false,"doctors_count":"17","rating":0,"avg_rating":0,"review_count":"NA","rating_count":"NA","reviews":"120","accreditions":"NABH Entry Level","treatment_cost":"NA","customer_expense":"NA","stay_duration":"7","primary_phone":"033-39877400","additional_phone":"9903098872","last_updated_at":"2021-07-20 00:00:00","ppn_benefits":{"ppn_spoc_phone_no":null,"nbhi_non_payable_waiver":null,"discount_on_opd_consultation":null,"discount_on_opd_investigation":null,"discount_on_health_check_up":null,"free_ambulance":null,"ppn_spoc_name":null},"poc":null,"ir":null},{"id":18805,"provider_id":"22322","name":"Vasan Eye Care Hospital Salt Lake","address":"Andromeda Dd-30 Sector -1 Saltlake City","city":"Kolkata","state":"West Bengal","postal_code":700064,"logo":"https://rules.nivabupa.com/media/default_hospital.svg","latitude":22.58971,"longitude":88.40894,"beds_count":"55","email_id":"recovery.tpa@vasaneye.in","website":"http://vasaneye.com/","ppn_available":false,"doctors_count":"30","rating":0,"avg_rating":0,"review_count":"NA","rating_count":"NA","reviews":"120","accreditions":"NA","treatment_cost":"NA","customer_expense":"NA","stay_duration":"NA","primary_phone":"033-39890000","additional_phone":"8017993890","last_updated_at":"2021-03-31 00:00:00","ppn_benefits":{"ppn_spoc_phone_no":null,"nbhi_non_payable_waiver":null,"discount_on_opd_consultation":null,"discount_on_opd_investigation":null,"discount_on_health_check_up":null,"free_ambulance":null,"ppn_spoc_name":null},"poc":null,"ir":null},{"id":47252,"provider_id":"102328","name":"Daradia The Pain Clinic","address":"327, 9/2 Dg Block, Action Area 1D, New Town,","city":"Kolkata","state":"West Bengal","postal_code":700156,"logo":"https://rules.nivabupa.com/media/default_hospital.svg","latitude":null,"longitude":null,"beds_count":"NA","email_id":"daradia.mediclaim@gmail.com","website":null,"ppn_available":false,"doctors_count":"NA","rating":0,"avg_rating":1,"review_count":"NA","rating_count":"NA","reviews":"120","accreditions":"NA","treatment_cost":"NA","customer_expense":"NA","stay_duration":"NA","primary_phone":"9163730004","additional_phone":"9163730004","last_updated_at":"NA","ppn_benefits":{"ppn_spoc_phone_no":null,"nbhi_non_payable_waiver":null,"discount_on_opd_consultation":null,"discount_on_opd_investigation":null,"discount_on_health_check_up":null,"free_ambulance":null,"ppn_spoc_name":null},"poc":null,"ir":null}]}