{"links":{"next":null,"previous":"https://rules.nivabupa.com/api/v1/hospital_rater/get_hospital_list/?city=Ghaziabad&format=json&page=2"},"count":62,"total_pages":3,"results":[{"id":22614,"provider_id":"63026","name":"Prime Hospital","address":"Sd-200 Shastri Nagar, Ghaziabad","city":"Ghaziabad","state":"Uttar Pradesh","postal_code":201002,"logo":"https://rules.nivabupa.com/media/default_hospital.svg","latitude":28.67398,"longitude":77.46654,"beds_count":"31","email_id":"psprimehospital153@gmail.com","website":null,"ppn_available":false,"doctors_count":"13","rating":0,"avg_rating":0,"review_count":1,"rating_count":1,"reviews":"120","accreditions":"NA","treatment_cost":"NA","customer_expense":"NA","stay_duration":"7","primary_phone":"9810070536","additional_phone":"9717796239","last_updated_at":"2020-07-29 00:00:00","ppn_benefits":{"ppn_spoc_phone_no":null,"nbhi_non_payable_waiver":null,"discount_on_opd_consultation":null,"discount_on_opd_investigation":null,"discount_on_health_check_up":null,"free_ambulance":null,"ppn_spoc_name":null},"poc":null,"ir":null},{"id":47656,"provider_id":"103334","name":"Vidhyawati Dube Hospital","address":"Bank Colony, Gali No. 2, Modinagar","city":"Ghaziabad","state":"Uttar Pradesh","postal_code":201204,"logo":"https://rules.nivabupa.com/media/default_hospital.svg","latitude":null,"longitude":null,"beds_count":"NA","email_id":"cashlessvdh@hotmail.com","website":null,"ppn_available":false,"doctors_count":"NA","rating":0,"avg_rating":1,"review_count":"NA","rating_count":"NA","reviews":"120","accreditions":"NA","treatment_cost":"NA","customer_expense":"NA","stay_duration":"NA","primary_phone":"9319411662","additional_phone":null,"last_updated_at":"NA","ppn_benefits":{"ppn_spoc_phone_no":null,"nbhi_non_payable_waiver":null,"discount_on_opd_consultation":null,"discount_on_opd_investigation":null,"discount_on_health_check_up":null,"free_ambulance":null,"ppn_spoc_name":null},"poc":null,"ir":null}]}