{"links":{"next":null,"previous":"https://rules.nivabupa.com/api/v1/hospital_rater/get_hospital_list/?city=Kanpur+Nagar&format=json&page=2"},"count":64,"total_pages":3,"results":[{"id":26079,"provider_id":"86211","name":"Neuron Super Speciality Hospital","address":"413 117/L/450, Naveen Nagar Kakadeo, Near Double Pulia,","city":"Kanpur Nagar","state":"Uttar Pradesh","postal_code":208025,"logo":"https://rules.nivabupa.com/media/default_hospital.svg","latitude":null,"longitude":null,"beds_count":"50","email_id":"neuronsuperspecialityhospital@gmail.com","website":null,"ppn_available":false,"doctors_count":"12","rating":0,"avg_rating":0,"review_count":1,"rating_count":1,"reviews":"120","accreditions":"NA","treatment_cost":"NA","customer_expense":"NA","stay_duration":"NA","primary_phone":"05122-502155","additional_phone":"9151915265","last_updated_at":"2022-02-18 00:00:00","ppn_benefits":{"ppn_spoc_phone_no":null,"nbhi_non_payable_waiver":null,"discount_on_opd_consultation":null,"discount_on_opd_investigation":null,"discount_on_health_check_up":null,"free_ambulance":null,"ppn_spoc_name":null},"poc":null,"ir":null},{"id":26389,"provider_id":"88267","name":"Atmaram Child Care and Critical Care","address":"128/53 Y Block Kidwai Nagar Naubasta Chauraha","city":"Kanpur Nagar","state":"Uttar Pradesh","postal_code":208011,"logo":"https://rules.nivabupa.com/media/default_hospital.svg","latitude":null,"longitude":null,"beds_count":"60","email_id":"atmaramchildcaretpa@gmail.com","website":"http://www.atmaramchildcare.in/","ppn_available":false,"doctors_count":"32","rating":0,"avg_rating":0,"review_count":1,"rating_count":1,"reviews":"120","accreditions":"NA","treatment_cost":"NA","customer_expense":"NA","stay_duration":"NA","primary_phone":"8795133424","additional_phone":"8795133424","last_updated_at":"2022-03-29 00:00:00","ppn_benefits":{"ppn_spoc_phone_no":null,"nbhi_non_payable_waiver":null,"discount_on_opd_consultation":null,"discount_on_opd_investigation":null,"discount_on_health_check_up":null,"free_ambulance":null,"ppn_spoc_name":null},"poc":null,"ir":null},{"id":18352,"provider_id":"20685","name":"Akshi Eye Care Centre","address":"2/344 A Azad Nagar","city":"Kanpur Nagar","state":"Uttar Pradesh","postal_code":208002,"logo":"https://rules.nivabupa.com/media/default_hospital.svg","latitude":26.505037,"longitude":80.302945,"beds_count":"5","email_id":"malcha64@yahoo.in","website":null,"ppn_available":false,"doctors_count":"3","rating":0,"avg_rating":0,"review_count":"NA","rating_count":"NA","reviews":"120","accreditions":"NA","treatment_cost":"NA","customer_expense":"NA","stay_duration":"NA","primary_phone":"0512-2561161","additional_phone":"9936339904","last_updated_at":"2021-07-20 00:00:00","ppn_benefits":{"ppn_spoc_phone_no":null,"nbhi_non_payable_waiver":null,"discount_on_opd_consultation":null,"discount_on_opd_investigation":null,"discount_on_health_check_up":null,"free_ambulance":null,"ppn_spoc_name":null},"poc":null,"ir":null},{"id":47435,"provider_id":"103268","name":"Vighnesh Hospital & Trauma Centre","address":"Plot No. 4, Block-C, G.T. Road, Opp. Kalyanpur Police Station","city":"Kanpur Nagar","state":"Uttar Pradesh","postal_code":208017,"logo":"https://rules.nivabupa.com/media/default_hospital.svg","latitude":null,"longitude":null,"beds_count":"NA","email_id":"vigneshhospital01@gmail.com","website":null,"ppn_available":false,"doctors_count":"NA","rating":0,"avg_rating":1,"review_count":"NA","rating_count":"NA","reviews":"120","accreditions":"NA","treatment_cost":"NA","customer_expense":"NA","stay_duration":"NA","primary_phone":"9415407347","additional_phone":null,"last_updated_at":"NA","ppn_benefits":{"ppn_spoc_phone_no":null,"nbhi_non_payable_waiver":null,"discount_on_opd_consultation":null,"discount_on_opd_investigation":null,"discount_on_health_check_up":null,"free_ambulance":null,"ppn_spoc_name":null},"poc":null,"ir":null}]}