{"links":{"next":null,"previous":"https://rules.nivabupa.com/api/v1/hospital_rater/get_hospital_list/?city=Hyderabad&format=json&page=10"},"count":324,"total_pages":11,"results":[{"id":26480,"provider_id":"89690","name":"Bandaru Mother and Child Hospital","address":"H.No. 1-9-85/4/1 Temple Alwal Road Near Golnaka Rajiv Gandhi Circle, Alwal Secunderabad","city":"Hyderabad","state":"Telangana","postal_code":500010,"logo":"https://rules.nivabupa.com/media/default_hospital.svg","latitude":null,"longitude":null,"beds_count":"NA","email_id":"bandarumch@gmail.com","website":null,"ppn_available":false,"doctors_count":"NA","rating":0,"avg_rating":0,"review_count":"NA","rating_count":"NA","reviews":"120","accreditions":"NA","treatment_cost":"NA","customer_expense":"NA","stay_duration":"NA","primary_phone":"9989677773","additional_phone":"9989677773","last_updated_at":"NA","ppn_benefits":{"ppn_spoc_phone_no":null,"nbhi_non_payable_waiver":null,"discount_on_opd_consultation":null,"discount_on_opd_investigation":null,"discount_on_health_check_up":null,"free_ambulance":null,"ppn_spoc_name":null},"poc":null,"ir":null},{"id":26511,"provider_id":"90195","name":"Eshwar Eye Hospital - Ranga Reddy","address":"Door No 6-58/G1 Ground Floor Raghuram Apartments, Raghuram Nagar Suncity Hydershakote","city":"Hyderabad","state":"Telangana","postal_code":500091,"logo":"https://rules.nivabupa.com/media/default_hospital.svg","latitude":null,"longitude":null,"beds_count":"NA","email_id":"sreekanthm2018@outlook.com","website":"http://www.eswareye.com/","ppn_available":false,"doctors_count":"NA","rating":0,"avg_rating":0,"review_count":"NA","rating_count":"NA","reviews":"120","accreditions":"NA","treatment_cost":"NA","customer_expense":"NA","stay_duration":"NA","primary_phone":"7330982333","additional_phone":"9160918691","last_updated_at":"NA","ppn_benefits":{"ppn_spoc_phone_no":null,"nbhi_non_payable_waiver":null,"discount_on_opd_consultation":null,"discount_on_opd_investigation":null,"discount_on_health_check_up":null,"free_ambulance":null,"ppn_spoc_name":null},"poc":null,"ir":null},{"id":26491,"provider_id":"89866","name":"Stork Hospitals Pvt. Ltd.","address":"H.No. 01-76-1/35 F No. C-35 Ganga Enclave, Near D-Mart Pet Basheerabad Quthbullapur Kompally","city":"Hyderabad","state":"Telangana","postal_code":500055,"logo":"https://rules.nivabupa.com/media/default_hospital.svg","latitude":null,"longitude":null,"beds_count":"NA","email_id":"storkinsurance.desk2022@gmail.com","website":null,"ppn_available":false,"doctors_count":"NA","rating":0,"avg_rating":0,"review_count":"NA","rating_count":"NA","reviews":"120","accreditions":"NA","treatment_cost":"NA","customer_expense":"NA","stay_duration":"NA","primary_phone":"9550400852","additional_phone":"9182934783","last_updated_at":"NA","ppn_benefits":{"ppn_spoc_phone_no":null,"nbhi_non_payable_waiver":null,"discount_on_opd_consultation":null,"discount_on_opd_investigation":null,"discount_on_health_check_up":null,"free_ambulance":null,"ppn_spoc_name":null},"poc":null,"ir":null},{"id":17913,"provider_id":"91888","name":"RM Hospital","address":"Plot No 38 Sy, No 163 Mallkarjuna Nagar, Near Beeramguda Kaman, Rc Puram, Ramachandrapuram, Sangareddy","city":"Hyderabad","state":"Telangana","postal_code":502032,"logo":"https://rules.nivabupa.com/media/default_hospital.svg","latitude":null,"longitude":null,"beds_count":"NA","email_id":"rmhospital.hyd678@gmail.com","website":null,"ppn_available":false,"doctors_count":"NA","rating":0,"avg_rating":0,"review_count":"NA","rating_count":"NA","reviews":"120","accreditions":"NA","treatment_cost":"NA","customer_expense":"NA","stay_duration":"NA","primary_phone":"7095685678","additional_phone":"7095685678","last_updated_at":"NA","ppn_benefits":{"ppn_spoc_phone_no":null,"nbhi_non_payable_waiver":null,"discount_on_opd_consultation":null,"discount_on_opd_investigation":null,"discount_on_health_check_up":null,"free_ambulance":null,"ppn_spoc_name":null},"poc":null,"ir":null},{"id":17912,"provider_id":"91891","name":"Paramitha Women and Childrens Hospital Chandanagar Pvt Ltd","address":"Nh-9, Opp.Bharath Petrol Pump, Chandanagar Ranga Reddy","city":"Hyderabad","state":"Telangana","postal_code":500050,"logo":"https://rules.nivabupa.com/media/default_hospital.svg","latitude":null,"longitude":null,"beds_count":"NA","email_id":"paramithachandanagar2020@gmail.com","website":"http://www.paramithahospitals.com/","ppn_available":false,"doctors_count":"NA","rating":0,"avg_rating":0,"review_count":"NA","rating_count":"NA","reviews":"120","accreditions":"NA","treatment_cost":"NA","customer_expense":"NA","stay_duration":"NA","primary_phone":"040-23030345","additional_phone":"9154775797","last_updated_at":"NA","ppn_benefits":{"ppn_spoc_phone_no":null,"nbhi_non_payable_waiver":null,"discount_on_opd_consultation":null,"discount_on_opd_investigation":null,"discount_on_health_check_up":null,"free_ambulance":null,"ppn_spoc_name":null},"poc":null,"ir":null},{"id":17939,"provider_id":"20011","name":"Gleneagles Global Hospitals","address":"6-1-1070/1 To 4, Lakdi-Ka-Pool","city":"Hyderabad","state":"Telangana","postal_code":500004,"logo":"https://rules.nivabupa.com/media/default_hospital.svg","latitude":17.405336,"longitude":78.463148,"beds_count":"200","email_id":"accountshyd@globalhospitalsindia.com","website":null,"ppn_available":false,"doctors_count":"78","rating":0,"avg_rating":0,"review_count":2,"rating_count":2,"reviews":"120","accreditions":"NABH Higher Level","treatment_cost":"NA","customer_expense":"NA","stay_duration":"4","primary_phone":"040-23244444","additional_phone":"9989777101","last_updated_at":"2021-07-20 00:00:00","ppn_benefits":{"ppn_spoc_phone_no":null,"nbhi_non_payable_waiver":null,"discount_on_opd_consultation":null,"discount_on_opd_investigation":null,"discount_on_health_check_up":null,"free_ambulance":null,"ppn_spoc_name":null},"poc":null,"ir":null},{"id":17921,"provider_id":"91868","name":"MMS Hospital","address":"H.No:7349/Mn/27/1, Mallikarjun Nagar, Sagar Ring Road, Behind Pochamma Temple, L.B. Nagar, Byramalguda Saroornagar","city":"Hyderabad","state":"Telangana","postal_code":500070,"logo":"https://rules.nivabupa.com/media/default_hospital.svg","latitude":null,"longitude":null,"beds_count":"NA","email_id":"cashlessmmshospital@gmail.com","website":null,"ppn_available":false,"doctors_count":"NA","rating":0,"avg_rating":0,"review_count":"NA","rating_count":"NA","reviews":"120","accreditions":"NA","treatment_cost":"NA","customer_expense":"NA","stay_duration":"NA","primary_phone":"9177992304","additional_phone":"9177992304","last_updated_at":"NA","ppn_benefits":{"ppn_spoc_phone_no":null,"nbhi_non_payable_waiver":null,"discount_on_opd_consultation":null,"discount_on_opd_investigation":null,"discount_on_health_check_up":null,"free_ambulance":null,"ppn_spoc_name":null},"poc":null,"ir":null},{"id":17926,"provider_id":"91509","name":"Kingston Hospitals Pvt. Ltd.","address":"H No:155/3, Masabtank Banjara Hills Road, No 1","city":"Hyderabad","state":"Telangana","postal_code":500028,"logo":"https://rules.nivabupa.com/media/default_hospital.svg","latitude":null,"longitude":null,"beds_count":"NA","email_id":"info@kingstonhospitals.com","website":null,"ppn_available":false,"doctors_count":"NA","rating":0,"avg_rating":0,"review_count":"NA","rating_count":"NA","reviews":"120","accreditions":"NA","treatment_cost":"NA","customer_expense":"NA","stay_duration":"NA","primary_phone":"040-35282828","additional_phone":"9100010007","last_updated_at":"NA","ppn_benefits":{"ppn_spoc_phone_no":null,"nbhi_non_payable_waiver":null,"discount_on_opd_consultation":null,"discount_on_opd_investigation":null,"discount_on_health_check_up":null,"free_ambulance":null,"ppn_spoc_name":null},"poc":null,"ir":null},{"id":18013,"provider_id":"20117","name":"Care Hospital - Nampally","address":"Jawaharlal Nehru Road, Nampally","city":"Hyderabad","state":"Telangana","postal_code":500001,"logo":"https://rules.nivabupa.com/media/default_hospital.svg","latitude":17.38577,"longitude":78.47411,"beds_count":"200","email_id":"hyd.receivables@carehospitals.com","website":"https://www.carehospitals.com/","ppn_available":false,"doctors_count":"78","rating":0,"avg_rating":0,"review_count":3,"rating_count":3,"reviews":"120","accreditions":"NABH Higher Level","treatment_cost":"NA","customer_expense":"NA","stay_duration":"6","primary_phone":"040-30417777","additional_phone":"040-30417777","last_updated_at":"2021-07-20 00:00:00","ppn_benefits":{"ppn_spoc_phone_no":null,"nbhi_non_payable_waiver":null,"discount_on_opd_consultation":null,"discount_on_opd_investigation":null,"discount_on_health_check_up":null,"free_ambulance":null,"ppn_spoc_name":null},"poc":null,"ir":null},{"id":18045,"provider_id":"20163","name":"Kamineni Hospitals King Koti","address":"4 - 1- 1227, King Koti Road, Abids","city":"Hyderabad","state":"Telangana","postal_code":500001,"logo":"https://rules.nivabupa.com/media/default_hospital.svg","latitude":17.39261,"longitude":78.47978,"beds_count":"100","email_id":"creditbilling.kk@gmail.com","website":"http://www.kaminenihospitals.com/","ppn_available":false,"doctors_count":"39","rating":0,"avg_rating":0,"review_count":2,"rating_count":2,"reviews":"120","accreditions":"NABH Higher Level","treatment_cost":"NA","customer_expense":"NA","stay_duration":"12","primary_phone":"040-66924444","additional_phone":"9866994440","last_updated_at":"2021-07-20 00:00:00","ppn_benefits":{"ppn_spoc_phone_no":null,"nbhi_non_payable_waiver":null,"discount_on_opd_consultation":null,"discount_on_opd_investigation":null,"discount_on_health_check_up":null,"free_ambulance":null,"ppn_spoc_name":null},"poc":null,"ir":null},{"id":18081,"provider_id":"20212","name":"Sai Vani Super Speciality Hospital","address":"(Vishwa Health Institute Pvt Ltd), 1-2-365/36/6&7 Ramakrishna Math Road, Opp.Indira Park, Domalguda","city":"Hyderabad","state":"Telangana","postal_code":500029,"logo":"https://rules.nivabupa.com/media/default_hospital.svg","latitude":17.410977,"longitude":78.483487,"beds_count":"100","email_id":"vishwahealthinstitute@gmail.com","website":"http://www.saivanihospitali.com/","ppn_available":false,"doctors_count":"20","rating":0,"avg_rating":0,"review_count":3,"rating_count":3,"reviews":"120","accreditions":"NABH Higher Level","treatment_cost":"NA","customer_expense":"NA","stay_duration":"6","primary_phone":"040-27634462","additional_phone":"040-27634462","last_updated_at":"2021-07-20 00:00:00","ppn_benefits":{"ppn_spoc_phone_no":null,"nbhi_non_payable_waiver":null,"discount_on_opd_consultation":null,"discount_on_opd_investigation":null,"discount_on_health_check_up":null,"free_ambulance":null,"ppn_spoc_name":null},"poc":null,"ir":null},{"id":23631,"provider_id":"67233","name":"Pulse Heart Center","address":"Mig 287 Opp. Global Edge School, Road No.4 Kphb ","city":"Hyderabad","state":"Telangana","postal_code":500072,"logo":"https://rules.nivabupa.com/media/default_hospital.svg","latitude":17.49092,"longitude":78.39694,"beds_count":"32","email_id":"pulseheartcentrehyderabad@gmail.com","website":null,"ppn_available":false,"doctors_count":"13","rating":0,"avg_rating":0,"review_count":3,"rating_count":3,"reviews":"120","accreditions":"NA","treatment_cost":"NA","customer_expense":"NA","stay_duration":"6","primary_phone":"9848014716","additional_phone":"9493982619","last_updated_at":"2020-12-23 00:00:00","ppn_benefits":{"ppn_spoc_phone_no":null,"nbhi_non_payable_waiver":null,"discount_on_opd_consultation":null,"discount_on_opd_investigation":null,"discount_on_health_check_up":null,"free_ambulance":null,"ppn_spoc_name":null},"poc":null,"ir":null},{"id":18084,"provider_id":"20215","name":"Matrika Hospital","address":"6-3-1100/2 T.Nagar Somajiguda","city":"Hyderabad","state":"Telangana","postal_code":500082,"logo":"https://rules.nivabupa.com/media/default_hospital.svg","latitude":17.427468,"longitude":78.460686,"beds_count":"20","email_id":"matrikahosp@yahoo.co.in","website":null,"ppn_available":false,"doctors_count":"24","rating":0,"avg_rating":0,"review_count":"NA","rating_count":"NA","reviews":"120","accreditions":"NA","treatment_cost":"NA","customer_expense":"NA","stay_duration":"5","primary_phone":"040-2344038","additional_phone":"040-23404038","last_updated_at":"2021-01-11 00:00:00","ppn_benefits":{"ppn_spoc_phone_no":null,"nbhi_non_payable_waiver":null,"discount_on_opd_consultation":null,"discount_on_opd_investigation":null,"discount_on_health_check_up":null,"free_ambulance":null,"ppn_spoc_name":null},"poc":null,"ir":null},{"id":18094,"provider_id":"20228","name":"Heritage Hospital","address":"6 - 3 - 907 / 2 Kapadia Lane Somajiguda","city":"Hyderabad","state":"Telangana","postal_code":500082,"logo":"https://rules.nivabupa.com/media/default_hospital.svg","latitude":17.425288,"longitude":78.457285,"beds_count":"20","email_id":"arvind.reddy22@gmail.com","website":null,"ppn_available":false,"doctors_count":"10","rating":0,"avg_rating":0,"review_count":"NA","rating_count":"NA","reviews":"120","accreditions":"NA","treatment_cost":"NA","customer_expense":"NA","stay_duration":"NA","primary_phone":"040-23379999","additional_phone":"040-23379999","last_updated_at":"2021-07-20 00:00:00","ppn_benefits":{"ppn_spoc_phone_no":null,"nbhi_non_payable_waiver":null,"discount_on_opd_consultation":null,"discount_on_opd_investigation":null,"discount_on_health_check_up":null,"free_ambulance":null,"ppn_spoc_name":null},"poc":null,"ir":null},{"id":18052,"provider_id":"20172","name":"Kamineni Hospitals L.B. Nagar","address":"L.B. Nagar, Ranga Reddy","city":"Hyderabad","state":"Telangana","postal_code":500068,"logo":"https://rules.nivabupa.com/media/default_hospital.svg","latitude":17.35166,"longitude":78.55593,"beds_count":"300","email_id":"commercial@kaminenihospitals.com","website":"http://www.kaminenihospitals.com/","ppn_available":false,"doctors_count":"117","rating":0,"avg_rating":0,"review_count":6,"rating_count":6,"reviews":"120","accreditions":"NABH Higher Level","treatment_cost":"25,000-50,000","customer_expense":"NA","stay_duration":"5","primary_phone":"040-24022272","additional_phone":"040-24022272","last_updated_at":"2021-07-20 00:00:00","ppn_benefits":{"ppn_spoc_phone_no":null,"nbhi_non_payable_waiver":null,"discount_on_opd_consultation":null,"discount_on_opd_investigation":null,"discount_on_health_check_up":null,"free_ambulance":null,"ppn_spoc_name":null},"poc":null,"ir":null},{"id":18155,"provider_id":"20321","name":"Sathya Kidney Centre & Super Speciality Hospitals","address":"3-6-426 Street No. 4, Himayatnagar","city":"Hyderabad","state":"Telangana","postal_code":500029,"logo":"https://rules.nivabupa.com/media/default_hospital.svg","latitude":17.407486,"longitude":78.481865,"beds_count":"110","email_id":"gvnsram@gmail.com","website":null,"ppn_available":false,"doctors_count":"45","rating":0,"avg_rating":0,"review_count":1,"rating_count":1,"reviews":"120","accreditions":"NABH Higher Level","treatment_cost":"NA","customer_expense":"NA","stay_duration":"0","primary_phone":"040-27636444","additional_phone":"040-27636444","last_updated_at":"2021-03-31 00:00:00","ppn_benefits":{"ppn_spoc_phone_no":null,"nbhi_non_payable_waiver":null,"discount_on_opd_consultation":null,"discount_on_opd_investigation":null,"discount_on_health_check_up":null,"free_ambulance":null,"ppn_spoc_name":null},"poc":null,"ir":null},{"id":47674,"provider_id":"103420","name":"Supriya Eye Hospital","address":"H. No: 6-94/13/4, Plot No: 103, Manjira Road Lane, Ranga Reddy, Chandanagar","city":"Hyderabad","state":"Telangana","postal_code":500050,"logo":"https://rules.nivabupa.com/media/default_hospital.svg","latitude":null,"longitude":null,"beds_count":"NA","email_id":"tpa.nhkota@gmail.com","website":null,"ppn_available":false,"doctors_count":"NA","rating":0,"avg_rating":1,"review_count":"NA","rating_count":"NA","reviews":"120","accreditions":"NA","treatment_cost":"NA","customer_expense":"NA","stay_duration":"NA","primary_phone":"9930995648","additional_phone":null,"last_updated_at":"NA","ppn_benefits":{"ppn_spoc_phone_no":null,"nbhi_non_payable_waiver":null,"discount_on_opd_consultation":null,"discount_on_opd_investigation":null,"discount_on_health_check_up":null,"free_ambulance":null,"ppn_spoc_name":null},"poc":null,"ir":null},{"id":47473,"provider_id":"103493","name":"Rainbow Childrens Medicare Limited","address":"H. No: 3-7-222, Survey No. 51 & 54, Opp. New Karkhana Police Station, Karkhana Main Road, Rangareddy, Secunderabad","city":"Hyderabad","state":"Telangana","postal_code":500009,"logo":"https://rules.nivabupa.com/media/default_hospital.svg","latitude":null,"longitude":null,"beds_count":"NA","email_id":"kiran.m@rainbowhospitals.in","website":"https://www.rainbowhospitals.in/","ppn_available":false,"doctors_count":"NA","rating":0,"avg_rating":1,"review_count":"NA","rating_count":"NA","reviews":"120","accreditions":"NA","treatment_cost":"NA","customer_expense":"NA","stay_duration":"NA","primary_phone":"040-42462200","additional_phone":"8498885675","last_updated_at":"NA","ppn_benefits":{"ppn_spoc_phone_no":null,"nbhi_non_payable_waiver":null,"discount_on_opd_consultation":null,"discount_on_opd_investigation":null,"discount_on_health_check_up":null,"free_ambulance":null,"ppn_spoc_name":null},"poc":null,"ir":null},{"id":47456,"provider_id":"103433","name":"Care And Cure Hospital","address":"H No. 4-32-985/Rnr, Plot No. A-417, Phase-I, Allwyn Colony, Kukatpally, Medchal Dist","city":"Hyderabad","state":"Telangana","postal_code":500072,"logo":"https://rules.nivabupa.com/media/default_hospital.svg","latitude":null,"longitude":null,"beds_count":"NA","email_id":"newcareandcurehospital@gmail.com","website":null,"ppn_available":false,"doctors_count":"NA","rating":0,"avg_rating":1,"review_count":"NA","rating_count":"NA","reviews":"120","accreditions":"NA","treatment_cost":"NA","customer_expense":"NA","stay_duration":"NA","primary_phone":"09140-35177650","additional_phone":"9573585940","last_updated_at":"NA","ppn_benefits":{"ppn_spoc_phone_no":null,"nbhi_non_payable_waiver":null,"discount_on_opd_consultation":null,"discount_on_opd_investigation":null,"discount_on_health_check_up":null,"free_ambulance":null,"ppn_spoc_name":null},"poc":null,"ir":null},{"id":47181,"provider_id":"102225","name":"Nova Care Hospitals","address":"H.No:- 7A & 7B, Near Dubai Gate, Panchasheela Enclave, Hasmathpet, Medchal Distict","city":"Hyderabad","state":"Telangana","postal_code":500009,"logo":"https://rules.nivabupa.com/media/default_hospital.svg","latitude":null,"longitude":null,"beds_count":"NA","email_id":"novacarehospitalstpa@gmail.com","website":null,"ppn_available":false,"doctors_count":"NA","rating":0,"avg_rating":1,"review_count":"NA","rating_count":"NA","reviews":"120","accreditions":"NA","treatment_cost":"NA","customer_expense":"NA","stay_duration":"NA","primary_phone":"9989808182","additional_phone":null,"last_updated_at":"NA","ppn_benefits":{"ppn_spoc_phone_no":null,"nbhi_non_payable_waiver":null,"discount_on_opd_consultation":null,"discount_on_opd_investigation":null,"discount_on_health_check_up":null,"free_ambulance":null,"ppn_spoc_name":null},"poc":null,"ir":null},{"id":47331,"provider_id":"102414","name":"Spashta Eye Hospital ","address":"H No: 23-28/2, Jyothi Nagar, Ramachandrapuram, Beside Honda Showroom","city":"Hyderabad","state":"Telangana","postal_code":500072,"logo":"https://rules.nivabupa.com/media/default_hospital.svg","latitude":null,"longitude":null,"beds_count":"NA","email_id":"spashtaeye.claims@gmail.com","website":null,"ppn_available":false,"doctors_count":"NA","rating":0,"avg_rating":1,"review_count":"NA","rating_count":"NA","reviews":"120","accreditions":"NA","treatment_cost":"NA","customer_expense":"NA","stay_duration":"NA","primary_phone":"9000134048","additional_phone":null,"last_updated_at":"NA","ppn_benefits":{"ppn_spoc_phone_no":null,"nbhi_non_payable_waiver":null,"discount_on_opd_consultation":null,"discount_on_opd_investigation":null,"discount_on_health_check_up":null,"free_ambulance":null,"ppn_spoc_name":null},"poc":null,"ir":null},{"id":47284,"provider_id":"102413","name":"Shishira Hospitals ","address":"H.No: 8-3-903/A/1/3/3B, Yellareddy Guda, Ameerpet, Nagarjuna Nagar Colony, Lane Opp To Rs Brothers,","city":"Hyderabad","state":"Telangana","postal_code":500073,"logo":"https://rules.nivabupa.com/media/default_hospital.svg","latitude":null,"longitude":null,"beds_count":"NA","email_id":"info@shishirahospitals.com","website":"https://www.shishirahospitals.com/","ppn_available":false,"doctors_count":"NA","rating":0,"avg_rating":1,"review_count":"NA","rating_count":"NA","reviews":"120","accreditions":"NA","treatment_cost":"NA","customer_expense":"NA","stay_duration":"NA","primary_phone":"040-40031777","additional_phone":"9985751091","last_updated_at":"NA","ppn_benefits":{"ppn_spoc_phone_no":null,"nbhi_non_payable_waiver":null,"discount_on_opd_consultation":null,"discount_on_opd_investigation":null,"discount_on_health_check_up":null,"free_ambulance":null,"ppn_spoc_name":null},"poc":null,"ir":null},{"id":47165,"provider_id":"102006","name":"Smart Vision Eye Specialities Pvt Ltd","address":"H.No.7-153/S-1, Nh 65, Mythri Nagar Colony, Road No 2, Shanthi Nagar Colony, Opp Happy Hospital, Madeenaguda, Serilingampally (M), Ranga Reddy","city":"Hyderabad","state":"Telangana","postal_code":500050,"logo":"https://rules.nivabupa.com/media/default_hospital.svg","latitude":null,"longitude":null,"beds_count":"NA","email_id":"smartvisioninsurance@gmail.com","website":"https://www.smartvisioneyehospitals.com/","ppn_available":false,"doctors_count":"NA","rating":0,"avg_rating":1,"review_count":"NA","rating_count":"NA","reviews":"120","accreditions":"NA","treatment_cost":"NA","customer_expense":"NA","stay_duration":"NA","primary_phone":"9394219191","additional_phone":null,"last_updated_at":"NA","ppn_benefits":{"ppn_spoc_phone_no":null,"nbhi_non_payable_waiver":null,"discount_on_opd_consultation":null,"discount_on_opd_investigation":null,"discount_on_health_check_up":null,"free_ambulance":null,"ppn_spoc_name":null},"poc":null,"ir":null},{"id":47279,"provider_id":"102403","name":"Seasons Hospital  ","address":"#2-2-1109/5/B/5/5 & 5/A, Shivam Road, Opp. To Papaji-Da Dhaba, Vaibhav Nagar Colony, Street No.7, Bagh Amberpet","city":"Hyderabad","state":"Telangana","postal_code":500013,"logo":"https://rules.nivabupa.com/media/default_hospital.svg","latitude":null,"longitude":null,"beds_count":"NA","email_id":"seasonshospitalhyd@gmail.com","website":null,"ppn_available":false,"doctors_count":"NA","rating":0,"avg_rating":1,"review_count":"NA","rating_count":"NA","reviews":"120","accreditions":"NA","treatment_cost":"NA","customer_expense":"NA","stay_duration":"NA","primary_phone":"9391030834","additional_phone":"9391030834","last_updated_at":"NA","ppn_benefits":{"ppn_spoc_phone_no":null,"nbhi_non_payable_waiver":null,"discount_on_opd_consultation":null,"discount_on_opd_investigation":null,"discount_on_health_check_up":null,"free_ambulance":null,"ppn_spoc_name":null},"poc":null,"ir":null}]}