{"links":{"next":null,"previous":"https://rules.nivabupa.com/api/v1/hospital_rater/get_hospital_list/?city=Karim+Nagar&format=json&page=2"},"count":80,"total_pages":3,"results":[{"id":26238,"provider_id":"87438","name":"Dr Bhoom Reddy Hospitals","address":"D.No. 3-4-69 Civil Hospital Road","city":"Karim Nagar","state":"Telangana","postal_code":505001,"logo":"https://rules.nivabupa.com/media/default_hospital.svg","latitude":null,"longitude":null,"beds_count":"80","email_id":"kumarkandi08@gmail.com","website":null,"ppn_available":false,"doctors_count":"20","rating":0,"avg_rating":0,"review_count":"NA","rating_count":"NA","reviews":"120","accreditions":"NA","treatment_cost":"NA","customer_expense":"NA","stay_duration":"NA","primary_phone":"0878-2250008","additional_phone":"9440517375","last_updated_at":"2022-03-14 00:00:00","ppn_benefits":{"ppn_spoc_phone_no":null,"nbhi_non_payable_waiver":null,"discount_on_opd_consultation":null,"discount_on_opd_investigation":null,"discount_on_health_check_up":null,"free_ambulance":null,"ppn_spoc_name":null},"poc":null,"ir":null},{"id":26262,"provider_id":"87835","name":"Shanthi Hospital","address":"H.No.7-6-219/1 Ashok Nagar Gollapally Road, Near Old Bus Stand Jagityal","city":"Karim Nagar","state":"Telangana","postal_code":505327,"logo":"https://rules.nivabupa.com/media/default_hospital.svg","latitude":null,"longitude":null,"beds_count":"25","email_id":"shanthihospitalcreditcell@gmail.com","website":null,"ppn_available":false,"doctors_count":"11","rating":0,"avg_rating":0,"review_count":"NA","rating_count":"NA","reviews":"120","accreditions":"NA","treatment_cost":"NA","customer_expense":"NA","stay_duration":"NA","primary_phone":"8724222298","additional_phone":"9966086656","last_updated_at":"2022-03-23 00:00:00","ppn_benefits":{"ppn_spoc_phone_no":null,"nbhi_non_payable_waiver":null,"discount_on_opd_consultation":null,"discount_on_opd_investigation":null,"discount_on_health_check_up":null,"free_ambulance":null,"ppn_spoc_name":null},"poc":null,"ir":null},{"id":26269,"provider_id":"87846","name":"KPR Multi Speciality Hospital","address":"3-6-97 Opp - Sbi Bank Adarshanagar","city":"Karim Nagar","state":"Telangana","postal_code":505001,"logo":"https://rules.nivabupa.com/media/default_hospital.svg","latitude":null,"longitude":null,"beds_count":"50","email_id":"kprtpahelpdesk@gmail.com","website":null,"ppn_available":false,"doctors_count":"11","rating":0,"avg_rating":0,"review_count":"NA","rating_count":"NA","reviews":"120","accreditions":"NA","treatment_cost":"NA","customer_expense":"NA","stay_duration":"NA","primary_phone":"9866299290","additional_phone":"7673997111","last_updated_at":"2022-03-23 00:00:00","ppn_benefits":{"ppn_spoc_phone_no":null,"nbhi_non_payable_waiver":null,"discount_on_opd_consultation":null,"discount_on_opd_investigation":null,"discount_on_health_check_up":null,"free_ambulance":null,"ppn_spoc_name":null},"poc":null,"ir":null},{"id":26270,"provider_id":"87847","name":"Sri Krishna Sai Multi Speciality Hospital","address":"H.No.6-6-653/A/2 Behind Olga Children'S Hospital, Vavilala Ram Reddy Nagar Road No.3 Choppadandi Road","city":"Karim Nagar","state":"Telangana","postal_code":505001,"logo":"https://rules.nivabupa.com/media/default_hospital.svg","latitude":null,"longitude":null,"beds_count":"55","email_id":"srikrishnasaihospitalkrnr@gmail.com","website":null,"ppn_available":false,"doctors_count":"13","rating":0,"avg_rating":0,"review_count":"NA","rating_count":"NA","reviews":"120","accreditions":"NA","treatment_cost":"NA","customer_expense":"NA","stay_duration":"NA","primary_phone":"0878-2237202","additional_phone":"9703134343","last_updated_at":"2022-03-23 00:00:00","ppn_benefits":{"ppn_spoc_phone_no":null,"nbhi_non_payable_waiver":null,"discount_on_opd_consultation":null,"discount_on_opd_investigation":null,"discount_on_health_check_up":null,"free_ambulance":null,"ppn_spoc_name":null},"poc":null,"ir":null},{"id":26258,"provider_id":"87827","name":"Suraksha Multispeciality Hospital","address":"H.No. 3-2-15/K/2 Opp: Sbi Lane Konduri Complex Jammikunta","city":"Karim Nagar","state":"Telangana","postal_code":505122,"logo":"https://rules.nivabupa.com/media/default_hospital.svg","latitude":null,"longitude":null,"beds_count":"50","email_id":"surakshahospitals.jmkt@gmail.com","website":null,"ppn_available":false,"doctors_count":"11","rating":0,"avg_rating":0,"review_count":"NA","rating_count":"NA","reviews":"120","accreditions":"NA","treatment_cost":"NA","customer_expense":"NA","stay_duration":"NA","primary_phone":"9491817136","additional_phone":"7569388305","last_updated_at":"2022-03-23 00:00:00","ppn_benefits":{"ppn_spoc_phone_no":null,"nbhi_non_payable_waiver":null,"discount_on_opd_consultation":null,"discount_on_opd_investigation":null,"discount_on_health_check_up":null,"free_ambulance":null,"ppn_spoc_name":null},"poc":null,"ir":null},{"id":26275,"provider_id":"87892","name":"Sri Hara Hospital","address":"H.No.:-3-1-764 Opp: Current Office Karimnagar","city":"Karim Nagar","state":"Telangana","postal_code":505001,"logo":"https://rules.nivabupa.com/media/default_hospital.svg","latitude":null,"longitude":null,"beds_count":"50","email_id":"sriharahospital@gmail.com","website":null,"ppn_available":false,"doctors_count":"10","rating":0,"avg_rating":0,"review_count":"NA","rating_count":"NA","reviews":"120","accreditions":"NA","treatment_cost":"NA","customer_expense":"NA","stay_duration":"NA","primary_phone":"7207700005","additional_phone":"9912447728","last_updated_at":"2022-03-24 00:00:00","ppn_benefits":{"ppn_spoc_phone_no":null,"nbhi_non_payable_waiver":null,"discount_on_opd_consultation":null,"discount_on_opd_investigation":null,"discount_on_health_check_up":null,"free_ambulance":null,"ppn_spoc_name":null},"poc":null,"ir":null},{"id":24406,"provider_id":"70850","name":"Rohan Hospital","address":"# 3-6-397 Subhashnagarkarimnagar, Telangana","city":"Karim Nagar","state":"Telangana","postal_code":505001,"logo":"https://rules.nivabupa.com/media/default_hospital.svg","latitude":18.45029,"longitude":79.13337,"beds_count":"50","email_id":"rohannursinghome@gmail.com","website":null,"ppn_available":false,"doctors_count":"21","rating":0,"avg_rating":0,"review_count":"NA","rating_count":"NA","reviews":"120","accreditions":"NA","treatment_cost":"NA","customer_expense":"NA","stay_duration":"NA","primary_phone":"8341150151","additional_phone":"8341150151","last_updated_at":"2021-03-26 00:00:00","ppn_benefits":{"ppn_spoc_phone_no":null,"nbhi_non_payable_waiver":null,"discount_on_opd_consultation":null,"discount_on_opd_investigation":null,"discount_on_health_check_up":null,"free_ambulance":null,"ppn_spoc_name":null},"poc":null,"ir":null},{"id":20730,"provider_id":"44300","name":"Akshaya Multispeciality Hospital","address":"H.No: 5-5/9 Railway Station Road, Saraswathi Nagar, Karim Nagar,","city":"Karim Nagar","state":"Telangana","postal_code":505001,"logo":"https://rules.nivabupa.com/media/default_hospital.svg","latitude":17.41743,"longitude":78.511829,"beds_count":"50","email_id":"akshayamultispecialityhospital@gmail.com","website":null,"ppn_available":false,"doctors_count":"25","rating":0,"avg_rating":0,"review_count":1,"rating_count":1,"reviews":"120","accreditions":"NA","treatment_cost":"NA","customer_expense":"NA","stay_duration":"0","primary_phone":"8919758949","additional_phone":"8919758949","last_updated_at":"2021-03-31 00:00:00","ppn_benefits":{"ppn_spoc_phone_no":null,"nbhi_non_payable_waiver":null,"discount_on_opd_consultation":null,"discount_on_opd_investigation":null,"discount_on_health_check_up":null,"free_ambulance":null,"ppn_spoc_name":null},"poc":null,"ir":null},{"id":21268,"provider_id":"48468","name":"Shiva Sai Hospital","address":"# 1-1-244, Near Bus Stand, Korutla, Jagityal (Dist)","city":"Karim Nagar","state":"Telangana","postal_code":505326,"logo":"https://rules.nivabupa.com/media/default_hospital.svg","latitude":18.82554,"longitude":78.717221,"beds_count":"50","email_id":"shivasaihospital2867@gmail.com","website":null,"ppn_available":false,"doctors_count":"5","rating":0,"avg_rating":0,"review_count":"NA","rating_count":"NA","reviews":"120","accreditions":"NA","treatment_cost":"NA","customer_expense":"NA","stay_duration":"NA","primary_phone":"9440474164","additional_phone":"9440474164","last_updated_at":"2021-06-16 00:00:00","ppn_benefits":{"ppn_spoc_phone_no":null,"nbhi_non_payable_waiver":null,"discount_on_opd_consultation":null,"discount_on_opd_investigation":null,"discount_on_health_check_up":null,"free_ambulance":null,"ppn_spoc_name":null},"poc":null,"ir":null},{"id":22041,"provider_id":"59830","name":"Keshava Neuro and Critical Care Centre","address":"# 3-3-149/1 Beside Dr.Ramana Chary Ent Hospital, Sawaran Street, Karimnagar","city":"Karim Nagar","state":"Telangana","postal_code":505001,"logo":"https://rules.nivabupa.com/media/default_hospital.svg","latitude":18.44088,"longitude":79.13129,"beds_count":"40","email_id":"keshavaneurocare@gmail.com","website":null,"ppn_available":false,"doctors_count":"7","rating":0,"avg_rating":0,"review_count":1,"rating_count":1,"reviews":"120","accreditions":"NA","treatment_cost":"NA","customer_expense":"NA","stay_duration":"0","primary_phone":"9849048478","additional_phone":"9949636535","last_updated_at":"2021-03-31 00:00:00","ppn_benefits":{"ppn_spoc_phone_no":null,"nbhi_non_payable_waiver":null,"discount_on_opd_consultation":null,"discount_on_opd_investigation":null,"discount_on_health_check_up":null,"free_ambulance":null,"ppn_spoc_name":null},"poc":null,"ir":null},{"id":23612,"provider_id":"67211","name":"Sri Sai Life Line Hospital","address":"H.No 3-1-763 Opp: District Court, Vavilalapally","city":"Karim Nagar","state":"Telangana","postal_code":505001,"logo":"https://rules.nivabupa.com/media/default_hospital.svg","latitude":18.44606,"longitude":79.12435,"beds_count":"100","email_id":"lifelinehospitals.knr@gmail.com","website":null,"ppn_available":false,"doctors_count":"36","rating":0,"avg_rating":0,"review_count":"NA","rating_count":"NA","reviews":"120","accreditions":"NA","treatment_cost":"NA","customer_expense":"NA","stay_duration":"11","primary_phone":"9949888865","additional_phone":"9490548097","last_updated_at":"2021-03-18 00:00:00","ppn_benefits":{"ppn_spoc_phone_no":null,"nbhi_non_payable_waiver":null,"discount_on_opd_consultation":null,"discount_on_opd_investigation":null,"discount_on_health_check_up":null,"free_ambulance":null,"ppn_spoc_name":null},"poc":null,"ir":null},{"id":24491,"provider_id":"71202","name":"Latha Maternity Nursing Home","address":"H.No- 3-3-186 Behind Civil Hospital","city":"Karim Nagar","state":"Telangana","postal_code":505001,"logo":"https://rules.nivabupa.com/media/default_hospital.svg","latitude":18.44115,"longitude":79.12958,"beds_count":"50","email_id":"srilathahospitalkarimnagar@gmail.com","website":"http://www.srilathahospital.com/","ppn_available":false,"doctors_count":"21","rating":0,"avg_rating":0,"review_count":"NA","rating_count":"NA","reviews":"120","accreditions":"NA","treatment_cost":"NA","customer_expense":"NA","stay_duration":"NA","primary_phone":"8374199991","additional_phone":"8978299698","last_updated_at":"2021-04-07 00:00:00","ppn_benefits":{"ppn_spoc_phone_no":null,"nbhi_non_payable_waiver":null,"discount_on_opd_consultation":null,"discount_on_opd_investigation":null,"discount_on_health_check_up":null,"free_ambulance":null,"ppn_spoc_name":null},"poc":null,"ir":null},{"id":25474,"provider_id":"80941","name":"One Hospitals","address":"Hno:- 3-1-830 Opp:- Mission Hospital Cvrn Road Chiristian Colony","city":"Karim Nagar","state":"Telangana","postal_code":505001,"logo":"https://rules.nivabupa.com/media/default_hospital.svg","latitude":0,"longitude":0,"beds_count":"100","email_id":"onehospitals@gmail.com","website":"http://www.onehospitals.com/","ppn_available":false,"doctors_count":"30","rating":0,"avg_rating":0,"review_count":"NA","rating_count":"NA","reviews":"120","accreditions":"NA","treatment_cost":"NA","customer_expense":"NA","stay_duration":"NA","primary_phone":"7842813663","additional_phone":"7842813663","last_updated_at":"2021-11-10 00:00:00","ppn_benefits":{"ppn_spoc_phone_no":null,"nbhi_non_payable_waiver":null,"discount_on_opd_consultation":null,"discount_on_opd_investigation":null,"discount_on_health_check_up":null,"free_ambulance":null,"ppn_spoc_name":null},"poc":null,"ir":null},{"id":18897,"provider_id":"23266","name":"Amrutha Nursing Home","address":"H. No-3-3-168 Sawaran Street","city":"Karim Nagar","state":"Telangana","postal_code":505001,"logo":"https://rules.nivabupa.com/media/default_hospital.svg","latitude":18.43878,"longitude":79.131707,"beds_count":"70","email_id":"amruthaivf@gmail.com","website":"http://www.amruthahospital.com/","ppn_available":false,"doctors_count":"29","rating":0,"avg_rating":0,"review_count":"NA","rating_count":"NA","reviews":"120","accreditions":"NA","treatment_cost":"NA","customer_expense":"NA","stay_duration":"0","primary_phone":"0878-2262029","additional_phone":"0878-2262029","last_updated_at":"2021-03-31 00:00:00","ppn_benefits":{"ppn_spoc_phone_no":null,"nbhi_non_payable_waiver":null,"discount_on_opd_consultation":null,"discount_on_opd_investigation":null,"discount_on_health_check_up":null,"free_ambulance":null,"ppn_spoc_name":null},"poc":null,"ir":null},{"id":18594,"provider_id":"21685","name":"Surya Nursing Home","address":"C V R N Road Opp Mission Hospital","city":"Karim Nagar","state":"Telangana","postal_code":505001,"logo":"https://rules.nivabupa.com/media/default_hospital.svg","latitude":18.441454,"longitude":79.126831,"beds_count":"50","email_id":"vishnu.mbbs.surya@gmail.com","website":null,"ppn_available":false,"doctors_count":"25","rating":0,"avg_rating":0,"review_count":2,"rating_count":2,"reviews":"120","accreditions":"NABH Higher Level","treatment_cost":"NA","customer_expense":"NA","stay_duration":"0","primary_phone":"0878-2264401","additional_phone":"9666776446","last_updated_at":"2021-03-31 00:00:00","ppn_benefits":{"ppn_spoc_phone_no":null,"nbhi_non_payable_waiver":null,"discount_on_opd_consultation":null,"discount_on_opd_investigation":null,"discount_on_health_check_up":null,"free_ambulance":null,"ppn_spoc_name":null},"poc":null,"ir":null},{"id":20309,"provider_id":"35172","name":"Fortune Medcare Hospital","address":"3-1-341/1 Behind Civil Hospital, Karimnagar","city":"Karim Nagar","state":"Telangana","postal_code":505001,"logo":"https://rules.nivabupa.com/media/default_hospital.svg","latitude":18.438555,"longitude":79.128841,"beds_count":"50","email_id":"fortunemedcarehospital@gmail.com","website":null,"ppn_available":false,"doctors_count":"25","rating":0,"avg_rating":0,"review_count":"NA","rating_count":"NA","reviews":"120","accreditions":"NABH Entry Level","treatment_cost":"NA","customer_expense":"NA","stay_duration":"9","primary_phone":"8702546888","additional_phone":"9177252163","last_updated_at":"2021-03-31 00:00:00","ppn_benefits":{"ppn_spoc_phone_no":null,"nbhi_non_payable_waiver":null,"discount_on_opd_consultation":null,"discount_on_opd_investigation":null,"discount_on_health_check_up":null,"free_ambulance":null,"ppn_spoc_name":null},"poc":null,"ir":null},{"id":47672,"provider_id":"102913","name":"Ashwini Hospital","address":"H.No:-10-182/C Mandal Yellareddypet District:-Rajanna Sircilla","city":"Karim Nagar","state":"Telangana","postal_code":505303,"logo":"https://rules.nivabupa.com/media/default_hospital.svg","latitude":null,"longitude":null,"beds_count":"NA","email_id":"ashwinihospitals.yellareddypet@gmail.com","website":null,"ppn_available":false,"doctors_count":"NA","rating":0,"avg_rating":1,"review_count":"NA","rating_count":"NA","reviews":"120","accreditions":"NA","treatment_cost":"NA","customer_expense":"NA","stay_duration":"NA","primary_phone":"9550588377","additional_phone":"9000700624","last_updated_at":"NA","ppn_benefits":{"ppn_spoc_phone_no":null,"nbhi_non_payable_waiver":null,"discount_on_opd_consultation":null,"discount_on_opd_investigation":null,"discount_on_health_check_up":null,"free_ambulance":null,"ppn_spoc_name":null},"poc":null,"ir":null},{"id":47184,"provider_id":"102312","name":"Laxmi Ganapati Hospital","address":"H. No.:-2-8-118, Mukarampura","city":"Karim Nagar","state":"Telangana","postal_code":505001,"logo":"https://rules.nivabupa.com/media/default_hospital.svg","latitude":null,"longitude":null,"beds_count":"NA","email_id":"laxmiganapathihospital.knr@gmail.com","website":null,"ppn_available":false,"doctors_count":"NA","rating":0,"avg_rating":1,"review_count":"NA","rating_count":"NA","reviews":"120","accreditions":"NA","treatment_cost":"NA","customer_expense":"NA","stay_duration":"NA","primary_phone":"8639783893","additional_phone":null,"last_updated_at":"NA","ppn_benefits":{"ppn_spoc_phone_no":null,"nbhi_non_payable_waiver":null,"discount_on_opd_consultation":null,"discount_on_opd_investigation":null,"discount_on_health_check_up":null,"free_ambulance":null,"ppn_spoc_name":null},"poc":null,"ir":null},{"id":47620,"provider_id":"103120","name":"Shivananda Children's & Maternity Hospital ","address":"H.No: 3-3-181, Beside: Civil Hospital, Sawaran Street","city":"Karim Nagar","state":"Telangana","postal_code":505001,"logo":"https://rules.nivabupa.com/media/default_hospital.svg","latitude":null,"longitude":null,"beds_count":"NA","email_id":"shivanandahospitalknr@gmail.com","website":null,"ppn_available":false,"doctors_count":"NA","rating":0,"avg_rating":1,"review_count":"NA","rating_count":"NA","reviews":"120","accreditions":"NA","treatment_cost":"NA","customer_expense":"NA","stay_duration":"NA","primary_phone":"9948394947","additional_phone":null,"last_updated_at":"NA","ppn_benefits":{"ppn_spoc_phone_no":null,"nbhi_non_payable_waiver":null,"discount_on_opd_consultation":null,"discount_on_opd_investigation":null,"discount_on_health_check_up":null,"free_ambulance":null,"ppn_spoc_name":null},"poc":null,"ir":null},{"id":47185,"provider_id":"102314","name":"Shree Mayukha Neuro Care","address":"H.No.:-6-6-312, Raja Theatre Road","city":"Karim Nagar","state":"Telangana","postal_code":505001,"logo":"https://rules.nivabupa.com/media/default_hospital.svg","latitude":null,"longitude":null,"beds_count":"NA","email_id":"shreemayukhaneurocare.knr@gmail.com","website":null,"ppn_available":false,"doctors_count":"NA","rating":0,"avg_rating":1,"review_count":"NA","rating_count":"NA","reviews":"120","accreditions":"NA","treatment_cost":"NA","customer_expense":"NA","stay_duration":"NA","primary_phone":"9890514659","additional_phone":null,"last_updated_at":"NA","ppn_benefits":{"ppn_spoc_phone_no":null,"nbhi_non_payable_waiver":null,"discount_on_opd_consultation":null,"discount_on_opd_investigation":null,"discount_on_health_check_up":null,"free_ambulance":null,"ppn_spoc_name":null},"poc":null,"ir":null}]}