{"links":{"next":null,"previous":"https://rules.nivabupa.com/api/v1/hospital_rater/get_hospital_list/?city=FARIDABAD&format=json&page=2"},"count":70,"total_pages":3,"results":[{"id":20725,"provider_id":"44264","name":"Handa Medical Centre.","address":"Nursing Home Site No.1, Sector 16, Faridabad","city":"Faridabad","state":"Haryana","postal_code":121002,"logo":"https://rules.nivabupa.com/media/default_hospital.svg","latitude":28.411162,"longitude":77.320822,"beds_count":"26","email_id":"handamedicalcentre@gmail.com","website":null,"ppn_available":false,"doctors_count":"12","rating":0,"avg_rating":0,"review_count":1,"rating_count":1,"reviews":"120","accreditions":"NABH Entry Level","treatment_cost":"NA","customer_expense":"NA","stay_duration":"0","primary_phone":"0129-2291847","additional_phone":"8285585756","last_updated_at":"2021-03-31 00:00:00","ppn_benefits":{"ppn_spoc_phone_no":null,"nbhi_non_payable_waiver":null,"discount_on_opd_consultation":null,"discount_on_opd_investigation":null,"discount_on_health_check_up":null,"free_ambulance":null,"ppn_spoc_name":null},"poc":null,"ir":null},{"id":20812,"provider_id":"45174","name":"Chugh Hospital","address":"5L-164 K.C Road, N.I.T Faridabad","city":"Faridabad","state":"Haryana","postal_code":121001,"logo":"https://rules.nivabupa.com/media/default_hospital.svg","latitude":28.401702,"longitude":77.298682,"beds_count":"40","email_id":"chughhospitalfbd@gmail.com","website":null,"ppn_available":false,"doctors_count":"14","rating":0,"avg_rating":0,"review_count":5,"rating_count":5,"reviews":"120","accreditions":"NABH Entry Level","treatment_cost":"NA","customer_expense":"NA","stay_duration":"6","primary_phone":"0129-4077666","additional_phone":"8447939107","last_updated_at":"2021-01-25 00:00:00","ppn_benefits":{"ppn_spoc_phone_no":null,"nbhi_non_payable_waiver":null,"discount_on_opd_consultation":null,"discount_on_opd_investigation":null,"discount_on_health_check_up":null,"free_ambulance":null,"ppn_spoc_name":null},"poc":null,"ir":null},{"id":19029,"provider_id":"25701","name":"Chandna Medical Centre Faridabad","address":"52 53 & 85 Sector-18A","city":"Faridabad","state":"Haryana","postal_code":121002,"logo":"https://rules.nivabupa.com/media/default_hospital.svg","latitude":28.569748,"longitude":77.323186,"beds_count":"38    ","email_id":"chandnamc@rediffmail.com","website":null,"ppn_available":false,"doctors_count":"2","rating":0,"avg_rating":0,"review_count":6,"rating_count":6,"reviews":"120","accreditions":"NA","treatment_cost":"NA","customer_expense":"NA","stay_duration":"5","primary_phone":"0129-2297224","additional_phone":"8373924214","last_updated_at":"2021-03-31 00:00:00","ppn_benefits":{"ppn_spoc_phone_no":null,"nbhi_non_payable_waiver":null,"discount_on_opd_consultation":null,"discount_on_opd_investigation":null,"discount_on_health_check_up":null,"free_ambulance":null,"ppn_spoc_name":null},"poc":null,"ir":null},{"id":45424,"provider_id":"95915","name":"Amrita Institute of Medical Sciences And Research Centre","address":"Village Palwali And Badshahpur Sector 88, Ballabhgarh","city":"Faridabad","state":"Haryana","postal_code":121002,"logo":"https://rules.nivabupa.com/media/default_hospital.svg","latitude":null,"longitude":null,"beds_count":"NA","email_id":"deepakravi@am.amrita.edu","website":null,"ppn_available":false,"doctors_count":"NA","rating":0,"avg_rating":0,"review_count":6,"rating_count":6,"reviews":"120","accreditions":"NA","treatment_cost":"NA","customer_expense":"NA","stay_duration":"NA","primary_phone":"9899002709","additional_phone":null,"last_updated_at":"NA","ppn_benefits":{"ppn_spoc_phone_no":null,"nbhi_non_payable_waiver":null,"discount_on_opd_consultation":null,"discount_on_opd_investigation":null,"discount_on_health_check_up":null,"free_ambulance":null,"ppn_spoc_name":null},"poc":null,"ir":null},{"id":22361,"provider_id":"61969","name":"Shankar Medicare Center","address":"3/184, Link Road Sector 28","city":"Faridabad","state":"Haryana","postal_code":121008,"logo":"https://rules.nivabupa.com/media/default_hospital.svg","latitude":28.43451,"longitude":77.31918,"beds_count":"25","email_id":"medicareshnkar@gmail.com","website":null,"ppn_available":false,"doctors_count":"11","rating":0,"avg_rating":0,"review_count":6,"rating_count":6,"reviews":"120","accreditions":"NA","treatment_cost":"NA","customer_expense":"NA","stay_duration":"4","primary_phone":"9811226394","additional_phone":"9811507576","last_updated_at":"2021-03-31 00:00:00","ppn_benefits":{"ppn_spoc_phone_no":null,"nbhi_non_payable_waiver":null,"discount_on_opd_consultation":null,"discount_on_opd_investigation":null,"discount_on_health_check_up":null,"free_ambulance":null,"ppn_spoc_name":null},"poc":null,"ir":null},{"id":22784,"provider_id":"63589","name":"Janak Hospital","address":"Indira Complex Gali No:3 Nehar Par Kheri Road","city":"Faridabad","state":"Haryana","postal_code":121002,"logo":"https://rules.nivabupa.com/media/default_hospital.svg","latitude":0,"longitude":0,"beds_count":"30","email_id":"janakhospital@gmail.com","website":null,"ppn_available":false,"doctors_count":"8","rating":0,"avg_rating":0,"review_count":"NA","rating_count":"NA","reviews":"120","accreditions":"NABH Entry Level","treatment_cost":"NA","customer_expense":"NA","stay_duration":"7","primary_phone":"9717136228","additional_phone":"9953905091","last_updated_at":"2021-02-11 00:00:00","ppn_benefits":{"ppn_spoc_phone_no":null,"nbhi_non_payable_waiver":null,"discount_on_opd_consultation":null,"discount_on_opd_investigation":null,"discount_on_health_check_up":null,"free_ambulance":null,"ppn_spoc_name":null},"poc":null,"ir":null},{"id":18709,"provider_id":"22109","name":"Aster Eye Care","address":"5E/08 B.P Nit Neel Am Chowk Railway Road","city":"Faridabad","state":"Haryana","postal_code":121001,"logo":"https://rules.nivabupa.com/media/default_hospital.svg","latitude":28.412156,"longitude":77.306671,"beds_count":"250","email_id":"astereyecare@dmhealthcare.com","website":"http://www.astereyecare.com/","ppn_available":false,"doctors_count":"135","rating":0,"avg_rating":0,"review_count":"NA","rating_count":"NA","reviews":"120","accreditions":"NA","treatment_cost":"NA","customer_expense":"NA","stay_duration":"NA","primary_phone":"0129-2410231","additional_phone":"0129-2410231","last_updated_at":"2021-03-31 00:00:00","ppn_benefits":{"ppn_spoc_phone_no":null,"nbhi_non_payable_waiver":null,"discount_on_opd_consultation":null,"discount_on_opd_investigation":null,"discount_on_health_check_up":null,"free_ambulance":null,"ppn_spoc_name":null},"poc":null,"ir":null},{"id":22451,"provider_id":"62263","name":"Arsh Hospital","address":"Opposite Era Redwood Residency, Sector-78","city":"Faridabad","state":"Haryana","postal_code":121002,"logo":"https://rules.nivabupa.com/media/default_hospital.svg","latitude":28.3849,"longitude":77.36744,"beds_count":"50","email_id":"dr.lokesh@arshhospital.com","website":"http://www.arshhospital.in/","ppn_available":false,"doctors_count":"20","rating":0,"avg_rating":0,"review_count":4,"rating_count":4,"reviews":"120","accreditions":"NABH Entry Level","treatment_cost":"NA","customer_expense":"NA","stay_duration":"4","primary_phone":"9540433300","additional_phone":"9540433300","last_updated_at":"2021-01-05 00:00:00","ppn_benefits":{"ppn_spoc_phone_no":null,"nbhi_non_payable_waiver":null,"discount_on_opd_consultation":null,"discount_on_opd_investigation":null,"discount_on_health_check_up":null,"free_ambulance":null,"ppn_spoc_name":null},"poc":null,"ir":null},{"id":47643,"provider_id":"103251","name":"Faridabad Medical Centre","address":"458, Sector-21B, Near Ryan International School","city":"Faridabad","state":"Haryana","postal_code":121001,"logo":"https://rules.nivabupa.com/media/default_hospital.svg","latitude":null,"longitude":null,"beds_count":"NA","email_id":"fmc.tpa@gmail.com","website":null,"ppn_available":false,"doctors_count":"NA","rating":0,"avg_rating":1,"review_count":"NA","rating_count":"NA","reviews":"120","accreditions":"NA","treatment_cost":"NA","customer_expense":"NA","stay_duration":"NA","primary_phone":"0129-4100458","additional_phone":"9891001441","last_updated_at":"NA","ppn_benefits":{"ppn_spoc_phone_no":null,"nbhi_non_payable_waiver":null,"discount_on_opd_consultation":null,"discount_on_opd_investigation":null,"discount_on_health_check_up":null,"free_ambulance":null,"ppn_spoc_name":null},"poc":null,"ir":null},{"id":47149,"provider_id":"102315","name":"Sunshine Hospital","address":"Sector-64, Main Sahupura Road, Unche Gaon, Near Sanskriti Convent School, Ballabgarh","city":"Faridabad","state":"Haryana","postal_code":121004,"logo":"https://rules.nivabupa.com/media/default_hospital.svg","latitude":null,"longitude":null,"beds_count":"NA","email_id":"sunshine2212017@gmail.com","website":null,"ppn_available":false,"doctors_count":"NA","rating":0,"avg_rating":1,"review_count":"NA","rating_count":"NA","reviews":"120","accreditions":"NA","treatment_cost":"NA","customer_expense":"NA","stay_duration":"NA","primary_phone":"0129-2241736","additional_phone":"9810396171","last_updated_at":"NA","ppn_benefits":{"ppn_spoc_phone_no":null,"nbhi_non_payable_waiver":null,"discount_on_opd_consultation":null,"discount_on_opd_investigation":null,"discount_on_health_check_up":null,"free_ambulance":null,"ppn_spoc_name":null},"poc":null,"ir":null}]}