{"links":{"next":null,"previous":"https://rules.nivabupa.com/api/v1/hospital_rater/get_hospital_list/?city=Gurugram&format=json&page=2"},"count":89,"total_pages":3,"results":[{"id":26635,"provider_id":"84514","name":"ASIAZ Hospital","address":"Plot No 140, Sector 15, Part Ii","city":"Gurugram","state":"Haryana","postal_code":122001,"logo":"https://rules.nivabupa.com/media/default_hospital.svg","latitude":null,"longitude":null,"beds_count":"30","email_id":"asiazhospitalsector15@gmail.com","website":"http://www.asiazhospital.com/","ppn_available":false,"doctors_count":"24","rating":0,"avg_rating":0,"review_count":3,"rating_count":3,"reviews":"120","accreditions":"NA","treatment_cost":"NA","customer_expense":"NA","stay_duration":"5","primary_phone":"9568069000","additional_phone":null,"last_updated_at":"2022-01-17 00:00:00","ppn_benefits":{"ppn_spoc_phone_no":null,"nbhi_non_payable_waiver":null,"discount_on_opd_consultation":null,"discount_on_opd_investigation":null,"discount_on_health_check_up":null,"free_ambulance":null,"ppn_spoc_name":null},"poc":null,"ir":null},{"id":21384,"provider_id":"49809","name":"Vedic Hospital Gurgaon","address":"Main Pataudi Road, Sector 1A, Near Kadipur Chowk","city":"Gurugram","state":"Haryana","postal_code":122001,"logo":"https://rules.nivabupa.com/media/default_hospital.svg","latitude":28.44834,"longitude":76.99723,"beds_count":"100","email_id":"info.vedichospital@gmail.com","website":"http://www.vedichospital.com/","ppn_available":false,"doctors_count":"42","rating":0,"avg_rating":0,"review_count":7,"rating_count":7,"reviews":"120","accreditions":"NA","treatment_cost":"NA","customer_expense":"NA","stay_duration":"7","primary_phone":"0120-6522102","additional_phone":"0120-6522102","last_updated_at":"2021-03-31 00:00:00","ppn_benefits":{"ppn_spoc_phone_no":null,"nbhi_non_payable_waiver":null,"discount_on_opd_consultation":null,"discount_on_opd_investigation":null,"discount_on_health_check_up":null,"free_ambulance":null,"ppn_spoc_name":null},"poc":null,"ir":null},{"id":21899,"provider_id":"58656","name":"Mathur Maternity and Child Care Centre","address":"1-A, Civil Lines Near John Hall","city":"Gurugram","state":"Haryana","postal_code":122001,"logo":"https://rules.nivabupa.com/media/default_hospital.svg","latitude":28.45536,"longitude":77.03225,"beds_count":"17","email_id":"mathurmaternity@gmail.com","website":null,"ppn_available":false,"doctors_count":"2","rating":0,"avg_rating":0,"review_count":"NA","rating_count":"NA","reviews":"120","accreditions":"NA","treatment_cost":"NA","customer_expense":"NA","stay_duration":"NA","primary_phone":"9811169477","additional_phone":"9899660330","last_updated_at":"2021-03-31 00:00:00","ppn_benefits":{"ppn_spoc_phone_no":null,"nbhi_non_payable_waiver":null,"discount_on_opd_consultation":null,"discount_on_opd_investigation":null,"discount_on_health_check_up":null,"free_ambulance":null,"ppn_spoc_name":null},"poc":null,"ir":null},{"id":21947,"provider_id":"59100","name":"Pushpanjali Hospital","address":"John Hall Road, Civil Lines","city":"Gurugram","state":"Haryana","postal_code":122001,"logo":"https://rules.nivabupa.com/media/default_hospital.svg","latitude":28.4501,"longitude":77.03284,"beds_count":"50","email_id":"pushpanjalihospital@gmail.com","website":null,"ppn_available":false,"doctors_count":"12","rating":0,"avg_rating":0,"review_count":12,"rating_count":12,"reviews":"120","accreditions":"NABH Higher Level","treatment_cost":"<5,000","customer_expense":"NA","stay_duration":"4","primary_phone":"9990776525","additional_phone":"9910937146","last_updated_at":"2021-03-19 00:00:00","ppn_benefits":{"ppn_spoc_phone_no":null,"nbhi_non_payable_waiver":null,"discount_on_opd_consultation":null,"discount_on_opd_investigation":null,"discount_on_health_check_up":null,"free_ambulance":null,"ppn_spoc_name":null},"poc":null,"ir":null},{"id":20084,"provider_id":"33039","name":"Thakral Nursing & Maternity Home","address":"316/16, Shivaji Nagar, Behind Petrol Pump, Sohna Alwar Road","city":"Gurugram","state":"Haryana","postal_code":122103,"logo":"https://rules.nivabupa.com/media/default_hospital.svg","latitude":28.45437,"longitude":77.02779,"beds_count":"20","email_id":"tnmh@rediffmail.com","website":"http://www.thakralnursinghome.com/","ppn_available":false,"doctors_count":"15","rating":0,"avg_rating":0,"review_count":10,"rating_count":10,"reviews":"120","accreditions":"NABH Entry Level","treatment_cost":"NA","customer_expense":"NA","stay_duration":"3","primary_phone":"0124-2331133","additional_phone":"9899173741","last_updated_at":"2021-05-17 00:00:00","ppn_benefits":{"ppn_spoc_phone_no":null,"nbhi_non_payable_waiver":null,"discount_on_opd_consultation":null,"discount_on_opd_investigation":null,"discount_on_health_check_up":null,"free_ambulance":null,"ppn_spoc_name":null},"poc":null,"ir":null},{"id":22624,"provider_id":"63050","name":"Samvit Healthcare","address":"Islampur Sohna Road","city":"Gurugram","state":"Haryana","postal_code":122001,"logo":"https://rules.nivabupa.com/media/default_hospital.svg","latitude":0,"longitude":0,"beds_count":"100","email_id":"samvithealth@gmail.com","website":null,"ppn_available":false,"doctors_count":"42","rating":0,"avg_rating":0,"review_count":2,"rating_count":2,"reviews":"120","accreditions":"NA","treatment_cost":"NA","customer_expense":"NA","stay_duration":"5","primary_phone":"9540057569","additional_phone":"9540057569","last_updated_at":"2020-07-29 00:00:00","ppn_benefits":{"ppn_spoc_phone_no":null,"nbhi_non_payable_waiver":null,"discount_on_opd_consultation":null,"discount_on_opd_investigation":null,"discount_on_health_check_up":null,"free_ambulance":null,"ppn_spoc_name":null},"poc":null,"ir":null},{"id":23023,"provider_id":"64789","name":"Medeor Hospital Ltd.","address":"Plot No. P-2, Sector 5, Imt Manesar","city":"Gurugram","state":"Haryana","postal_code":122052,"logo":"https://rules.nivabupa.com/media/default_hospital.svg","latitude":28.36676,"longitude":76.93307,"beds_count":"140","email_id":"fazil.kp@medeor.in","website":null,"ppn_available":false,"doctors_count":"34","rating":0,"avg_rating":0,"review_count":3,"rating_count":3,"reviews":"120","accreditions":"NABH Higher Level","treatment_cost":"NA","customer_expense":"NA","stay_duration":"9","primary_phone":"7736839790","additional_phone":"9718199074","last_updated_at":"2021-02-11 00:00:00","ppn_benefits":{"ppn_spoc_phone_no":null,"nbhi_non_payable_waiver":null,"discount_on_opd_consultation":null,"discount_on_opd_investigation":null,"discount_on_health_check_up":null,"free_ambulance":null,"ppn_spoc_name":null},"poc":null,"ir":null},{"id":23164,"provider_id":"65461","name":"Clio Eye Care","address":"Plot No 1Sp, Near Dlf Phase 1, Rapid Metro Station Gate No. 2 Sector 28 Golf Course Road","city":"Gurugram","state":"Haryana","postal_code":122002,"logo":"https://rules.nivabupa.com/media/default_hospital.svg","latitude":28.4706,"longitude":77.09341,"beds_count":"12","email_id":"aditi.manudhane13@rediffmail.com","website":"http://www.clioeyecare.com/","ppn_available":false,"doctors_count":"4","rating":0,"avg_rating":0,"review_count":"NA","rating_count":"NA","reviews":"120","accreditions":"NABH Entry Level","treatment_cost":"NA","customer_expense":"NA","stay_duration":"1","primary_phone":"9654822172","additional_phone":"8130172344","last_updated_at":"2021-01-18 00:00:00","ppn_benefits":{"ppn_spoc_phone_no":null,"nbhi_non_payable_waiver":null,"discount_on_opd_consultation":null,"discount_on_opd_investigation":null,"discount_on_health_check_up":null,"free_ambulance":null,"ppn_spoc_name":null},"poc":null,"ir":null},{"id":18674,"provider_id":"21921","name":"Kathuria Hospital","address":"19/8 Model Town Opp. S. D. School Khandsa Road","city":"Gurugram","state":"Haryana","postal_code":122001,"logo":"https://rules.nivabupa.com/media/default_hospital.svg","latitude":28.453506,"longitude":77.020092,"beds_count":"50","email_id":"kathuria.hospital@yahoo.com","website":"http://www.kathuriahospital.com/","ppn_available":false,"doctors_count":"23","rating":0,"avg_rating":0,"review_count":9,"rating_count":9,"reviews":"120","accreditions":"NABH Entry Level","treatment_cost":"<5,000","customer_expense":"NA","stay_duration":"4","primary_phone":"0124-4119992","additional_phone":"0124-4119992","last_updated_at":"2021-01-25 00:00:00","ppn_benefits":{"ppn_spoc_phone_no":null,"nbhi_non_payable_waiver":null,"discount_on_opd_consultation":null,"discount_on_opd_investigation":null,"discount_on_health_check_up":null,"free_ambulance":null,"ppn_spoc_name":null},"poc":null,"ir":null},{"id":21387,"provider_id":"49828","name":"Polaris Superspeciality Hospitals","address":"Sector - 48, Sohna Road, Opp. Raheja Mall","city":"Gurugram","state":"Haryana","postal_code":122018,"logo":"https://rules.nivabupa.com/media/default_hospital.svg","latitude":28.424089,"longitude":77.038132,"beds_count":"63","email_id":"rajesh@polarishospitals.com","website":"http://www.polarishospitals.com/","ppn_available":false,"doctors_count":"26","rating":0,"avg_rating":0,"review_count":4,"rating_count":4,"reviews":"120","accreditions":"NABH Higher Level","treatment_cost":"NA","customer_expense":"NA","stay_duration":"6","primary_phone":"0124-7178889","additional_phone":"0124-7178889","last_updated_at":"2021-02-18 00:00:00","ppn_benefits":{"ppn_spoc_phone_no":null,"nbhi_non_payable_waiver":null,"discount_on_opd_consultation":null,"discount_on_opd_investigation":null,"discount_on_health_check_up":null,"free_ambulance":null,"ppn_spoc_name":null},"poc":null,"ir":null},{"id":23279,"provider_id":"66206","name":"Complete Eye Care","address":"301 B Eros City Square Sector 49-50","city":"Gurugram","state":"Haryana","postal_code":122018,"logo":"https://rules.nivabupa.com/media/default_hospital.svg","latitude":28.41263,"longitude":77.05552,"beds_count":"1","email_id":"drparulsony@gmail.com","website":null,"ppn_available":false,"doctors_count":"5","rating":0,"avg_rating":0,"review_count":2,"rating_count":2,"reviews":"120","accreditions":"NABH Entry Level","treatment_cost":"NA","customer_expense":"NA","stay_duration":"1","primary_phone":"9818196263","additional_phone":"9818196263","last_updated_at":"2021-01-11 00:00:00","ppn_benefits":{"ppn_spoc_phone_no":null,"nbhi_non_payable_waiver":null,"discount_on_opd_consultation":null,"discount_on_opd_investigation":null,"discount_on_health_check_up":null,"free_ambulance":null,"ppn_spoc_name":null},"poc":null,"ir":null},{"id":23274,"provider_id":"66201","name":"Sadh Care Hospital","address":"Ashram Hari Mandir Pataudi","city":"Gurugram","state":"Haryana","postal_code":122503,"logo":"https://rules.nivabupa.com/media/default_hospital.svg","latitude":28.32021,"longitude":76.7888,"beds_count":"25","email_id":"tkaul@sadhcare.org","website":null,"ppn_available":false,"doctors_count":"11","rating":0,"avg_rating":0,"review_count":"NA","rating_count":"NA","reviews":"120","accreditions":"NABH Entry Level","treatment_cost":"NA","customer_expense":"NA","stay_duration":"4","primary_phone":"9706070571","additional_phone":"9812654647","last_updated_at":"2021-03-04 00:00:00","ppn_benefits":{"ppn_spoc_phone_no":null,"nbhi_non_payable_waiver":null,"discount_on_opd_consultation":null,"discount_on_opd_investigation":null,"discount_on_health_check_up":null,"free_ambulance":null,"ppn_spoc_name":null},"poc":null,"ir":null},{"id":23590,"provider_id":"67173","name":"Chauhan Hospital","address":"Near Chungi No -04 Tauru Road Vill -Pataudi","city":"Gurugram","state":"Haryana","postal_code":122503,"logo":"https://rules.nivabupa.com/media/default_hospital.svg","latitude":28.32502,"longitude":76.78332,"beds_count":"25","email_id":"chauhanhealthhospital@gmail.com","website":null,"ppn_available":false,"doctors_count":"6","rating":0,"avg_rating":0,"review_count":5,"rating_count":5,"reviews":"120","accreditions":"NABH Entry Level","treatment_cost":"NA","customer_expense":"NA","stay_duration":"5","primary_phone":"9050018177","additional_phone":"9050706903","last_updated_at":"2021-02-22 00:00:00","ppn_benefits":{"ppn_spoc_phone_no":null,"nbhi_non_payable_waiver":null,"discount_on_opd_consultation":null,"discount_on_opd_investigation":null,"discount_on_health_check_up":null,"free_ambulance":null,"ppn_spoc_name":null},"poc":null,"ir":null},{"id":24030,"provider_id":"69435","name":"Indira Gandhi Eye Hospital and Research Centre","address":"Sector - 62 Vill-Ullawas","city":"Gurugram","state":"Haryana","postal_code":122002,"logo":"https://rules.nivabupa.com/media/default_hospital.svg","latitude":28.40717,"longitude":77.08983,"beds_count":"50","email_id":"sanjay@igehrc.org satish@igehrc.org","website":"http://www.igehrc.org/","ppn_available":false,"doctors_count":"9","rating":0,"avg_rating":0,"review_count":4,"rating_count":4,"reviews":"120","accreditions":"NABH Entry Level","treatment_cost":"NA","customer_expense":"NA","stay_duration":"1","primary_phone":"9813602444","additional_phone":"9911262299","last_updated_at":"2021-05-09 00:00:00","ppn_benefits":{"ppn_spoc_phone_no":null,"nbhi_non_payable_waiver":null,"discount_on_opd_consultation":null,"discount_on_opd_investigation":null,"discount_on_health_check_up":null,"free_ambulance":null,"ppn_spoc_name":null},"poc":null,"ir":null},{"id":26127,"provider_id":"86532","name":"Bhanot Hospital Gurgaon","address":"Sco 188/18 New Friends Colony Jharsa Road","city":"Gurugram","state":"Haryana","postal_code":122001,"logo":"https://rules.nivabupa.com/media/default_hospital.svg","latitude":null,"longitude":null,"beds_count":"20","email_id":"bhanothospital@gmail.com","website":"http://www.bhanothospital.com/","ppn_available":false,"doctors_count":"2","rating":0,"avg_rating":0,"review_count":"NA","rating_count":"NA","reviews":"120","accreditions":"NABH Entry Level","treatment_cost":"NA","customer_expense":"NA","stay_duration":"NA","primary_phone":"0124-2322222","additional_phone":"7011266826","last_updated_at":"2022-02-24 00:00:00","ppn_benefits":{"ppn_spoc_phone_no":null,"nbhi_non_payable_waiver":null,"discount_on_opd_consultation":null,"discount_on_opd_investigation":null,"discount_on_health_check_up":null,"free_ambulance":null,"ppn_spoc_name":null},"poc":null,"ir":null},{"id":26385,"provider_id":"88250","name":"Cosmos Eye Care","address":"A-113/114 First Floor Town Square 1 Vatika Town Square Market, Vatika India Next Sector 82","city":"Gurugram","state":"Haryana","postal_code":122004,"logo":"https://rules.nivabupa.com/media/default_hospital.svg","latitude":null,"longitude":null,"beds_count":"1","email_id":"cosmoseyecare@gmail.com","website":"http://'www.cosmoseyecare.in/","ppn_available":false,"doctors_count":"1","rating":0,"avg_rating":0,"review_count":"NA","rating_count":"NA","reviews":"120","accreditions":"NA","treatment_cost":"NA","customer_expense":"NA","stay_duration":"NA","primary_phone":"0124-4030643","additional_phone":"8510877830","last_updated_at":"2022-03-29 00:00:00","ppn_benefits":{"ppn_spoc_phone_no":null,"nbhi_non_payable_waiver":null,"discount_on_opd_consultation":null,"discount_on_opd_investigation":null,"discount_on_health_check_up":null,"free_ambulance":null,"ppn_spoc_name":null},"poc":null,"ir":null},{"id":25921,"provider_id":"84658","name":"Shivam Hospital","address":"Nh 01 Jai Vayu Vihar Sector 30","city":"Gurugram","state":"Haryana","postal_code":122001,"logo":"https://rules.nivabupa.com/media/default_hospital.svg","latitude":0,"longitude":0,"beds_count":"30","email_id":"shivamhospitalggn@yahoo.com","website":null,"ppn_available":false,"doctors_count":"6","rating":0,"avg_rating":0,"review_count":7,"rating_count":7,"reviews":"120","accreditions":"NABH Entry Level","treatment_cost":"NA","customer_expense":"NA","stay_duration":"4","primary_phone":"0124-4039001","additional_phone":"0124-4271004","last_updated_at":"2022-01-18 00:00:00","ppn_benefits":{"ppn_spoc_phone_no":null,"nbhi_non_payable_waiver":null,"discount_on_opd_consultation":null,"discount_on_opd_investigation":null,"discount_on_health_check_up":null,"free_ambulance":null,"ppn_spoc_name":null},"poc":null,"ir":null},{"id":24481,"provider_id":"71031","name":"Cloudnine Hospital - Gurugram","address":"Plot No:94/4 Gurunanak Tower, M G Road Old Dlf, Sector-14","city":"Gurugram","state":"Haryana","postal_code":122001,"logo":"https://rules.nivabupa.com/media/default_hospital.svg","latitude":0,"longitude":0,"beds_count":"40","email_id":"accounts.receivable@cloudninecare.com","website":"https://www.cloudninecare.com/","ppn_available":false,"doctors_count":"13","rating":0,"avg_rating":0,"review_count":6,"rating_count":6,"reviews":"120","accreditions":"NABH Higher Level","treatment_cost":"15,000-20,000","customer_expense":"NA","stay_duration":"4","primary_phone":"9886077729","additional_phone":"7065659994","last_updated_at":"2021-03-31 00:00:00","ppn_benefits":{"ppn_spoc_phone_no":null,"nbhi_non_payable_waiver":null,"discount_on_opd_consultation":null,"discount_on_opd_investigation":null,"discount_on_health_check_up":null,"free_ambulance":null,"ppn_spoc_name":null},"poc":null,"ir":null},{"id":25623,"provider_id":"81873","name":"Sparsh Hospital Gurgaon","address":"Sohna Road Opp.Radha Krishna Mandir Badshapur","city":"Gurugram","state":"Haryana","postal_code":122101,"logo":"https://rules.nivabupa.com/media/default_hospital.svg","latitude":0,"longitude":0,"beds_count":"25","email_id":"sparshospital9@gmail.com","website":"http://www.sparshortho.in/","ppn_available":false,"doctors_count":"7","rating":0,"avg_rating":0,"review_count":"NA","rating_count":"NA","reviews":"120","accreditions":"NA","treatment_cost":"NA","customer_expense":"NA","stay_duration":"NA","primary_phone":"9899074869","additional_phone":"9899074869","last_updated_at":"2021-11-27 00:00:00","ppn_benefits":{"ppn_spoc_phone_no":null,"nbhi_non_payable_waiver":null,"discount_on_opd_consultation":null,"discount_on_opd_investigation":null,"discount_on_health_check_up":null,"free_ambulance":null,"ppn_spoc_name":null},"poc":null,"ir":null},{"id":25662,"provider_id":"82106","name":"Vibrant Hospital Pvt. Ltd.","address":"Plot No.-1 Sector- 100 Near Wtp Basai Opp Hanuman Mandir","city":"Gurugram","state":"Haryana","postal_code":122006,"logo":"https://rules.nivabupa.com/media/default_hospital.svg","latitude":0,"longitude":0,"beds_count":"50","email_id":"tpavibrant@gmail.com","website":"http://www.vibranthospital.com/","ppn_available":false,"doctors_count":"27","rating":0,"avg_rating":0,"review_count":8,"rating_count":8,"reviews":"120","accreditions":"NA","treatment_cost":"NA","customer_expense":"NA","stay_duration":"2","primary_phone":"9206008400","additional_phone":"8059152928","last_updated_at":"2021-11-30 00:00:00","ppn_benefits":{"ppn_spoc_phone_no":null,"nbhi_non_payable_waiver":null,"discount_on_opd_consultation":null,"discount_on_opd_investigation":null,"discount_on_health_check_up":null,"free_ambulance":null,"ppn_spoc_name":null},"poc":null,"ir":null},{"id":19657,"provider_id":"31515","name":"Vasan Eye Care Hospital Gurgaon","address":"No. 379 & 380 Sector 29 Near Iffco Chowk Metro Station","city":"Gurugram","state":"Haryana","postal_code":122001,"logo":"https://rules.nivabupa.com/media/default_hospital.svg","latitude":28.47048,"longitude":77.03037,"beds_count":"7","email_id":"recovery.tpa@vasaneye.in","website":"http://vasaneye.com/","ppn_available":false,"doctors_count":"4","rating":0,"avg_rating":0,"review_count":"NA","rating_count":"NA","reviews":"120","accreditions":"NA","treatment_cost":"NA","customer_expense":"NA","stay_duration":"NA","primary_phone":"0124-3989000","additional_phone":"0124-3989000","last_updated_at":"2021-07-20 00:00:00","ppn_benefits":{"ppn_spoc_phone_no":null,"nbhi_non_payable_waiver":null,"discount_on_opd_consultation":null,"discount_on_opd_investigation":null,"discount_on_health_check_up":null,"free_ambulance":null,"ppn_spoc_name":null},"poc":null,"ir":null},{"id":45536,"provider_id":"32449","name":"Apollo Spectra Hospitals","address":"New Railway Road, Near Dsd College","city":"Gurgaon","state":"Haryana","postal_code":122001,"logo":"https://rules.nivabupa.com/media/default_hospital.svg","latitude":null,"longitude":null,"beds_count":"NA","email_id":"kumarshwatank1996@gmail.com","website":"http://www.sheetlahospital.com/","ppn_available":false,"doctors_count":"NA","rating":0,"avg_rating":0,"review_count":7,"rating_count":7,"reviews":"120","accreditions":"NA","treatment_cost":"NA","customer_expense":"NA","stay_duration":"NA","primary_phone":"0124-4555826","additional_phone":"0124-4555826","last_updated_at":"NA","ppn_benefits":{"ppn_spoc_phone_no":null,"nbhi_non_payable_waiver":null,"discount_on_opd_consultation":null,"discount_on_opd_investigation":null,"discount_on_health_check_up":null,"free_ambulance":null,"ppn_spoc_name":null},"poc":null,"ir":null},{"id":26535,"provider_id":"90706","name":"Vivekanand Arogya Kendra","address":"Plot No. 466P Sector-12A Near Madhav Bhavan","city":"Gurugram","state":"Haryana","postal_code":122001,"logo":"https://rules.nivabupa.com/media/default_hospital.svg","latitude":null,"longitude":null,"beds_count":"NA","email_id":"vivekanandtpa@gmail.com","website":"http://www.vakhospital.com/","ppn_available":false,"doctors_count":"NA","rating":0,"avg_rating":0,"review_count":"NA","rating_count":"NA","reviews":"120","accreditions":"NA","treatment_cost":"NA","customer_expense":"NA","stay_duration":"NA","primary_phone":"0124-2224102","additional_phone":"9891943397","last_updated_at":"NA","ppn_benefits":{"ppn_spoc_phone_no":null,"nbhi_non_payable_waiver":null,"discount_on_opd_consultation":null,"discount_on_opd_investigation":null,"discount_on_health_check_up":null,"free_ambulance":null,"ppn_spoc_name":null},"poc":null,"ir":null},{"id":26539,"provider_id":"90810","name":"Sight Avenue Pvt. Ltd.","address":"Plot No. 243 P Sector-38, Near Bakhtawar Chowk","city":"Gurugram","state":"Haryana","postal_code":122001,"logo":"https://rules.nivabupa.com/media/default_hospital.svg","latitude":null,"longitude":null,"beds_count":"NA","email_id":"tpa@thesightavenue.com","website":"http://www.thesightavenue.com/","ppn_available":false,"doctors_count":"NA","rating":0,"avg_rating":0,"review_count":"NA","rating_count":"NA","reviews":"120","accreditions":"NA","treatment_cost":"NA","customer_expense":"NA","stay_duration":"NA","primary_phone":"9560700732","additional_phone":"7678295692","last_updated_at":"NA","ppn_benefits":{"ppn_spoc_phone_no":null,"nbhi_non_payable_waiver":null,"discount_on_opd_consultation":null,"discount_on_opd_investigation":null,"discount_on_health_check_up":null,"free_ambulance":null,"ppn_spoc_name":null},"poc":null,"ir":null},{"id":25983,"provider_id":"85045","name":"Saraswati Hospital Gurgaon","address":"299/2 Old Delhi Road Sec -14 Anamika Enclave","city":"Gurugram","state":"Haryana","postal_code":122001,"logo":"https://rules.nivabupa.com/media/default_hospital.svg","latitude":0,"longitude":0,"beds_count":"30","email_id":"saraswatihospitalgurgaon@gmail.com","website":null,"ppn_available":false,"doctors_count":"3","rating":0,"avg_rating":0,"review_count":1,"rating_count":1,"reviews":"120","accreditions":"NABH Entry Level","treatment_cost":"NA","customer_expense":"NA","stay_duration":"NA","primary_phone":"0124-4279739","additional_phone":"9999454683","last_updated_at":"2022-01-27 00:00:00","ppn_benefits":{"ppn_spoc_phone_no":null,"nbhi_non_payable_waiver":null,"discount_on_opd_consultation":null,"discount_on_opd_investigation":null,"discount_on_health_check_up":null,"free_ambulance":null,"ppn_spoc_name":null},"poc":null,"ir":null},{"id":47657,"provider_id":"103336","name":"Vinayak Hospital","address":"3080, Sector - 23, Cartarourri, 4/11, Shivaji Nagar, Khandsa Road, Near S.B.I, Opp Shahid  Khurana P","city":"Gurgaon","state":"Haryana","postal_code":122001,"logo":"https://rules.nivabupa.com/media/default_hospital.svg","latitude":null,"longitude":null,"beds_count":"NA","email_id":"vinayak hospital.gurgaon@yahoo.com","website":null,"ppn_available":false,"doctors_count":"NA","rating":0,"avg_rating":1,"review_count":"NA","rating_count":"NA","reviews":"120","accreditions":"NA","treatment_cost":"NA","customer_expense":"NA","stay_duration":"NA","primary_phone":"9810070319","additional_phone":null,"last_updated_at":"NA","ppn_benefits":{"ppn_spoc_phone_no":null,"nbhi_non_payable_waiver":null,"discount_on_opd_consultation":null,"discount_on_opd_investigation":null,"discount_on_health_check_up":null,"free_ambulance":null,"ppn_spoc_name":null},"poc":null,"ir":null},{"id":47648,"provider_id":"103265","name":"Family Health Point","address":"545 Bhim Nagar, Entry From - Old Railway Road, Opposite Bank Of Baroda","city":"Gurgaon","state":"Haryana","postal_code":122001,"logo":"https://rules.nivabupa.com/media/default_hospital.svg","latitude":null,"longitude":null,"beds_count":"NA","email_id":"kapil.aedi@gmail.com","website":null,"ppn_available":false,"doctors_count":"NA","rating":0,"avg_rating":1,"review_count":"NA","rating_count":"NA","reviews":"120","accreditions":"NA","treatment_cost":"NA","customer_expense":"NA","stay_duration":"NA","primary_phone":"0124-4728786","additional_phone":"989945363","last_updated_at":"NA","ppn_benefits":{"ppn_spoc_phone_no":null,"nbhi_non_payable_waiver":null,"discount_on_opd_consultation":null,"discount_on_opd_investigation":null,"discount_on_health_check_up":null,"free_ambulance":null,"ppn_spoc_name":null},"poc":null,"ir":null},{"id":47151,"provider_id":"102318","name":"Mangalam Hospital","address":"1-A,22, Laxmi Garden, Pataudi Road","city":"Gurgaon","state":"Haryana","postal_code":122001,"logo":"https://rules.nivabupa.com/media/default_hospital.svg","latitude":null,"longitude":null,"beds_count":"NA","email_id":"mangalam hospitalgurgaon@gmail.com","website":null,"ppn_available":false,"doctors_count":"NA","rating":0,"avg_rating":1,"review_count":"NA","rating_count":"NA","reviews":"120","accreditions":"NA","treatment_cost":"NA","customer_expense":"NA","stay_duration":"NA","primary_phone":"9911664466","additional_phone":null,"last_updated_at":"NA","ppn_benefits":{"ppn_spoc_phone_no":null,"nbhi_non_payable_waiver":null,"discount_on_opd_consultation":null,"discount_on_opd_investigation":null,"discount_on_health_check_up":null,"free_ambulance":null,"ppn_spoc_name":null},"poc":null,"ir":null},{"id":47150,"provider_id":"102316","name":"Lall 20/20 Eye Care Pvt Ltd","address":"Plot No 50 Sp, Sector 45, Near Ambedkar Chowk","city":"Gurgaon","state":"Haryana","postal_code":122003,"logo":"https://rules.nivabupa.com/media/default_hospital.svg","latitude":null,"longitude":null,"beds_count":"NA","email_id":"drashishlall@gmail.com","website":null,"ppn_available":false,"doctors_count":"NA","rating":0,"avg_rating":1,"review_count":"NA","rating_count":"NA","reviews":"120","accreditions":"NA","treatment_cost":"NA","customer_expense":"NA","stay_duration":"NA","primary_phone":"0124-4053858","additional_phone":"9312948210","last_updated_at":"NA","ppn_benefits":{"ppn_spoc_phone_no":null,"nbhi_non_payable_waiver":null,"discount_on_opd_consultation":null,"discount_on_opd_investigation":null,"discount_on_health_check_up":null,"free_ambulance":null,"ppn_spoc_name":null},"poc":null,"ir":null}]}